Tested,Equipment,Place,Name,Division,BirthYear,BodyweightKg,Squat1Kg,Squat2Kg,Squat3Kg,Best3SquatKg,Bench1Kg,Bench2Kg,Bench3Kg,Best3BenchKg,Bench4Kg,Deadlift1Kg,Deadlift2Kg,Deadlift3Kg,Best3DeadliftKg,TotalKg,WeightClassKg,Sex,CyrillicName,Event
No,Raw,1,Elena Solonnikova,Pro Juniors 20-23,1986,50.70,50.0,60.0,70.0,70.0,40.0,-50.0,50.0,50.0,,110.0,120.0,-122.5,120.0,240.0,52,F,Елена Солонникова,SBD
No,Raw,1,Sergey Sokolov,Pro Juniors 20-23,1988,60.00,120.0,130.0,140.0,140.0,85.0,90.0,95.0,95.0,,160.0,175.0,-180.0,175.0,410.0,60,M,Сергей Соколов,SBD
No,Raw,1,Vladimir Ustinov,Pro Juniors 20-23,1986,67.30,160.0,170.0,180.0,180.0,115.0,120.0,125.0,125.0,,120.0,187.5,200.0,200.0,505.0,67.5,M,Владимир Устинов,SBD
No,Raw,1,Dmitriy Solonnikov,Pro Open,1986,66.10,100.0,120.0,130.0,130.0,90.0,100.0,105.0,105.0,,150.0,165.0,175.0,175.0,410.0,67.5,M,Дмитрий Солонников,SBD
No,Raw,DQ,Rinad Nizamov,Pro Open,1973,89.50,-200.0,-200.0,-200.0,,,,,,,,,,,,90,M,Ринад Низамов,SBD
No,Raw,DQ,Ivan Kovalev,Pro Teen 18-19,1989,99.80,235.0,245.0,-257.5,245.0,147.5,-157.5,-157.5,147.5,,-270.0,-295.0,-295.0,,,100,M,Иван Ковалев,SBD
No,Raw,DQ,Aleksey Fedorov,Pro Open,1976,124.70,280.0,-290.0,-290.0,280.0,185.0,-190.0,190.0,190.0,,-262.5,-262.5,,,,125,M,Алексей Федоров,SBD
No,Multi-ply,1,Rimma Khabibullina,Pro Teen 18-19,1990,55.10,125.0,135.0,145.0,145.0,60.0,65.0,70.0,70.0,,100.0,110.0,-115.0,110.0,325.0,56,F,Римма Хабибуллина,SBD
No,Multi-ply,1,Alyona Podelko,Pro Teen 18-19,1990,56.00,105.0,-115.0,-120.0,105.0,55.0,-60.0,-60.0,55.0,,100.0,115.0,-125.0,115.0,275.0,56,F,Алёна Поделко,SBD
No,Multi-ply,1,Natalya Sborovskaya,Pro Teen 16-17,1990,59.20,115.0,120.0,130.0,130.0,-60.0,-60.0,60.0,60.0,,120.0,130.0,135.0,135.0,325.0,60,F,Наталья Сборовская,SBD
No,Multi-ply,DQ,Marina Shabayeva,Pro Open,1971,89.40,-210.0,-210.0,-210.0,,,,,,,,,,,,90,F,Марина Шабаева,SBD
No,Multi-ply,1,Maksim Starkov,Pro Open,1983,60.00,160.0,170.0,-180.0,170.0,115.0,125.0,-132.5,125.0,,170.0,185.0,-205.0,185.0,480.0,60,M,Максим Старков,SBD
No,Multi-ply,DQ,Evgeniy Glazkov,Pro Teen 13-15,1993,66.60,190.0,200.0,-210.0,200.0,100.0,-107.5,-107.5,100.0,,-170.0,-170.0,,,,67.5,M,Евгений Глазков,SBD
No,Multi-ply,1,Sergey Glazkov,Pro Teen 16-17,1992,75.00,210.0,-220.0,-220.0,210.0,110.0,115.0,117.5,117.5,,-185.0,185.0,-195.0,185.0,512.5,75,M,Сергей Глазков,SBD
No,Multi-ply,1,Denis Babiev,Pro Teen 18-19,1990,74.20,270.0,-300.0,-310.0,270.0,130.0,140.0,150.0,150.0,,230.0,250.0,260.0,260.0,680.0,75,M,Денис Бабиев,SBD
No,Multi-ply,1,Vyacheslav Sapozhnikov,Pro Juniors 20-23,1988,73.70,180.0,190.0,-200.0,190.0,120.0,-130.0,-130.0,120.0,,190.0,-220.0,-220.0,190.0,500.0,75,M,Вячеслав Сапожников,SBD
No,Multi-ply,1,Andrey Guz,Pro Teen 16-17,1990,81.20,200.0,-215.0,215.0,215.0,145.0,150.0,160.0,160.0,,200.0,-215.0,225.0,225.0,600.0,82.5,M,Андрей Гузь,SBD
No,Multi-ply,DQ,Andrey Cherey,Pro Teen 16-17,1991,80.60,-190.0,-190.0,-190.0,,,,,,,,,,,,82.5,M,Андрей Черей,SBD
No,Multi-ply,1,Roman Salnikov,Pro Juniors 20-23,1985,82.10,-300.0,300.0,,300.0,130.0,140.0,150.0,150.0,,240.0,255.0,275.0,275.0,725.0,82.5,M,Роман Сальников,SBD
No,Multi-ply,1,Valeriy Khapov,Pro Open,1979,80.10,170.0,180.0,-200.0,180.0,-130.0,130.0,-145.0,130.0,,170.0,190.0,-205.0,190.0,500.0,82.5,M,Валерий Хапов,SBD
No,Multi-ply,1,Evgeniy Gonchar,Pro Juniors 20-23,1986,87.20,205.0,225.0,-235.0,225.0,130.0,142.5,147.5,147.5,,225.0,-240.0,245.0,245.0,617.5,90,M,Евгений Гончар,SBD
No,Multi-ply,2,Ilya Gorlov,Pro Juniors 20-23,1986,86.10,-230.0,230.0,250.0,250.0,110.0,130.0,-140.0,130.0,,230.0,235.0,-240.0,235.0,615.0,90,M,Илья Горлов,SBD
No,Multi-ply,1,Mikhail Tsatsulin,Pro Open,1988,89.70,-320.0,325.0,340.0,340.0,200.0,212.5,220.0,220.0,,310.0,-340.5,340.5,340.5,900.5,90,M,Михаил Цацулин,SBD
No,Multi-ply,2,Andrey Solovyev,Pro Open,1972,88.00,-260.0,260.0,-270.0,260.0,170.0,180.0,190.0,190.0,,270.0,-285.0,-285.0,270.0,720.0,90,M,Андрей Соловьев,SBD
No,Multi-ply,DQ,Anton Lunin,Pro Open,1980,88.00,310.0,330.0,-345.0,330.0,-215.0,-215.0,-215.0,,,,,,,,90,M,Антон Лунин,SBD
No,Multi-ply,1,Aleksandr Zhilin,Pro Masters 40-44,1965,87.70,-200.0,-200.0,200.0,200.0,-160.0,160.0,165.0,165.0,,180.0,185.0,190.0,190.0,555.0,90,M,Александр Жилин,SBD
No,Multi-ply,DQ,Nikita Morozov,Pro Masters 40-44,1968,83.80,-260.0,-260.0,-260.0,,,,,,,,,,,,90,M,Никита Морозов,SBD
No,Multi-ply,1,Vladimir Potapov,Pro Masters 50-54,1954,88.00,210.0,-230.0,-230.0,210.0,150.0,155.0,160.0,160.0,,185.0,195.0,-200.0,195.0,565.0,90,M,Владимир Потапов,SBD
No,Multi-ply,1,Aleksandr Podryadov,Pro Masters 55-59,1953,85.20,180.0,200.0,215.0,215.0,110.0,125.0,-135.0,125.0,,180.0,200.0,215.0,215.0,555.0,90,M,Александр Подрядов,SBD
No,Multi-ply,1,Aleksey Yudin,Pro Juniors 20-23,1985,98.80,280.0,-300.0,-300.0,280.0,-210.0,-210.0,210.0,210.0,,240.0,270.0,-290.0,270.0,760.0,100,M,Алексей Юдин,SBD
No,Multi-ply,1,Nikolay Pilipishko,Pro Open,1984,99.10,270.0,290.0,300.0,300.0,180.0,190.0,200.0,200.0,,250.0,-265.0,270.0,270.0,770.0,100,M,Николай Пилипишко,SBD
No,Multi-ply,2,Vasiliy Lisenkov,Pro Open,1970,99.70,-175.0,175.0,-200.0,175.0,100.0,-115.0,-115.0,100.0,,230.0,-240.0,,230.0,505.0,100,M,Василий Лисенков,SBD
No,Multi-ply,1,Aleksandr Chuev,Pro Masters 40-44,1966,98.70,330.0,340.0,350.0,350.0,-215.0,220.0,225.0,225.0,,-300.0,320.0,325.0,325.0,900.0,100,M,Александр Чуев,SBD
No,Multi-ply,2,Vladimir Ladeyschikov,Pro Masters 40-44,1967,99.40,-300.0,300.0,,300.0,160.0,-170.0,175.0,175.0,,-280.0,280.0,-305.0,280.0,755.0,100,M,Владимир Ладейщиков,SBD
No,Multi-ply,3,Alexander Fedulov,Pro Masters 40-44,1966,99.20,225.0,235.0,245.0,245.0,175.0,185.0,195.0,195.0,,215.0,225.0,235.0,235.0,675.0,100,M,Александр Федулов,SBD
No,Multi-ply,4,Dmitriy Chertushkin,Pro Masters 40-44,1965,99.40,235.0,245.0,-255.0,245.0,185.0,192.5,-197.5,192.5,,200.0,215.0,-222.5,215.0,652.5,100,M,Дмитрий Чертушкин,SBD
No,Multi-ply,1,Konstantin Rogozhnikov,Pro Masters 45-49,1960,99.70,320.0,-350.0,-350.0,320.0,190.0,200.0,-210.0,200.0,,270.0,-300.0,-300.0,270.0,790.0,100,M,Константин Рогожников,SBD
No,Multi-ply,1,Vladimir Kopchuk,Pro Masters 50-54,1957,91.00,215.0,225.0,-235.0,225.0,140.0,150.0,-160.0,150.0,,200.0,-215.0,-215.0,200.0,575.0,100,M,Владимир Копчук,SBD
No,Multi-ply,1,Evgeniy Khudoleev,Pro Masters 60-64,1946,91.60,-240.0,240.0,-260.0,240.0,150.0,157.5,-165.0,157.5,,200.0,225.0,235.0,235.0,632.5,100,M,Евгений Худолеев,SBD
No,Multi-ply,1,Dmitriy Sorokin,Pro Open,1971,104.90,310.0,320.0,,320.0,215.0,225.0,-235.0,225.0,,280.0,300.0,,300.0,845.0,110,M,Дмитрий Сорокин,SBD
No,Multi-ply,2,Oleg Chernyavskiy #1,Pro Open,1967,106.40,290.0,,,290.0,210.0,225.0,230.0,230.0,,250.0,260.0,275.0,275.0,795.0,110,M,Олег Чернявский,SBD
No,Multi-ply,3,Vitaliy Rozhkov,Pro Open,1975,102.00,150.0,170.0,-190.0,170.0,100.0,115.0,-125.0,115.0,,180.0,-210.0,230.0,230.0,515.0,110,M,Виталий Рожков,SBD
No,Multi-ply,DQ,Ivan Tolpegin,Pro Open,1983,106.00,-280.0,-280.0,-280.0,,,,,,,,,,,,110,M,Иван Толпегин,SBD
No,Multi-ply,1,Oleg Chernyavskiy #1,Pro Masters 40-44,1967,106.40,-270.0,270.0,290.0,290.0,210.0,225.0,230.0,230.0,,250.0,260.0,275.0,275.0,795.0,110,M,Олег Чернявский,SBD
No,Multi-ply,1,Andrei Zapylikhin,Pro Masters 45-49,1960,103.70,210.0,-225.0,-225.0,210.0,160.0,180.0,-200.5,180.0,,200.0,,,200.0,590.0,110,M,Андрей Запылихин,SBD
No,Multi-ply,1,Konstantin Makovskiy,Pro Masters 50-54,1957,108.20,250.0,260.0,-270.0,260.0,180.0,-190.0,-190.0,180.0,,230.0,245.0,255.0,255.0,695.0,110,M,Константин Маковский,SBD
No,Multi-ply,1,Timur Andreev,Pro Open,1983,111.00,330.0,350.0,,350.0,265.0,280.0,-286.0,280.0,,310.0,330.0,-350.0,330.0,960.0,125,M,Тимур Андреев,SBD
No,Multi-ply,DQ,Aleksandr Ballod,Pro Open,1979,121.60,-360.0,-360.0,-360.0,,,,,,,,,,,,125,M,Александр Баллод,SBD
No,Multi-ply,1,Oleg Kuzmenko,Pro Open,1971,132.90,300.0,315.0,-325.0,315.0,210.0,-220.0,220.0,220.0,,280.0,300.0,310.0,310.0,845.0,140,M,Олег Кузьменко,SBD
No,Multi-ply,1,Nikolay Vinokurov,Pro Masters 40-44,1966,138.90,330.0,360.0,380.0,380.0,260.0,280.0,-300.0,280.0,,310.0,340.0,-350.0,340.0,1000.0,140,M,Николай Винокуров,SBD
Yes,Raw,1,Nikita Zinov,Amateur Teen 13-15,1992,54.50,90.0,100.0,-102.5,100.0,50.0,-55.0,-57.5,50.0,,95.0,-100.0,-100.0,95.0,245.0,56,M,Никита Зинов,SBD
Yes,Raw,1,Maxim Vasin,Amateur Teen 16-17,1991,65.80,-170.0,170.0,-177.5,170.0,115.0,122.5,,122.5,,165.0,185.0,-195.0,185.0,477.5,67.5,M,Максим Васин,SBD
Yes,Raw,1,Alexander Sapozhnikov,Amateur Teen 18-19,1989,66.30,140.0,150.0,-160.0,150.0,-90.0,95.0,-100.0,95.0,,205.0,-210.0,-210.0,205.0,450.0,67.5,M,Александр Сапожников,SBD
Yes,Raw,1,Marat Musabikov,Amateur Juniors 20-23,1988,63.40,105.0,115.0,-120.0,115.0,70.0,75.0,77.5,77.5,,-135.0,-135.0,135.0,135.0,327.5,67.5,M,Марат Мусабиков,SBD
Yes,Raw,1,Aleksey Rogov,Amateur Open,1972,65.90,130.0,-135.0,-135.0,130.0,-110.0,-112.5,115.0,115.0,,160.0,170.0,-180.0,170.0,415.0,67.5,M,Алексей Рогов,SBD
Yes,Raw,2,Igor Filatov,Amateur Open,1979,67.10,120.0,130.0,135.0,135.0,95.0,100.0,105.0,105.0,,140.0,150.0,155.0,155.0,395.0,67.5,M,Игорь Филатов,SBD
Yes,Raw,DQ,Konstantin Izhikov,Amateur Open,1982,66.30,-145.0,-150.0,-150.0,,,,,,,,,,,,67.5,M,Константин Ижиков,SBD
Yes,Raw,DQ,Makhdi Ali Valid El,Amateur Open,1979,66.50,-140.0,-140.0,-140.0,,,,,,,,,,,,67.5,M,Махди Али Валид Эль,SBD
Yes,Raw,DQ,Dmitriy Kostromitinov,Amateur Juniors 20-23,1987,73.00,-105.0,105.0,-115.0,105.0,-90.0,-90.0,-90.0,,,,,,,,75,M,Дмитрий Костромитинов,SBD
Yes,Raw,1,Konstantin Komelin,Amateur Teen 18-19,1989,89.10,200.0,210.0,217.5,217.5,120.0,130.0,-137.5,130.0,,240.0,-250.0,260.0,260.0,607.5,90,M,Константин Комелин,SBD
Yes,Raw,1,Vladimir Minin,Amateur Open,1967,98.10,255.0,,,255.0,150.0,,,150.0,,240.0,247.5,252.5,252.5,657.5,100,M,Владимир Минин,SBD
Yes,Raw,2,Andrei Ustyugov,Amateur Open,1971,97.00,225.0,-235.0,235.0,235.0,155.0,160.0,-165.0,160.0,,235.0,247.5,-257.5,247.5,642.5,100,M,Андрей Устюгов,SBD
Yes,Raw,3,Vladimir Obzhilyanskiy,Amateur Open,1983,94.00,200.0,-210.0,-210.0,200.0,115.0,120.0,125.0,125.0,,220.0,-230.0,-230.0,220.0,545.0,100,M,Владимир Обжилянский,SBD
Yes,Raw,DQ,Denis Sviridovich,Amateur Open,1984,94.60,-200.0,-200.0,-200.0,,,,,,,,,,,,100,M,Денис Свиридович,SBD
Yes,Raw,1,Vladimir Minin,Amateur Masters 40-44,1967,98.10,245.0,250.0,255.0,255.0,150.0,-155.0,,150.0,,240.0,247.5,252.5,252.5,657.5,100,M,Владимир Минин,SBD
Yes,Multi-ply,1,Nadezhda Reutova,Amateur Teen 13-15,1993,50.00,85.0,95.0,105.0,105.0,55.0,-57.5,-57.5,55.0,,100.0,-110.0,110.0,110.0,270.0,52,F,Надежда Реутова,SBD
Yes,Multi-ply,1,Tatyana Rykunova,Amateur Open,1971,51.40,90.0,105.0,-110.0,105.0,50.0,-55.0,-55.0,50.0,,90.0,-100.0,-100.0,90.0,245.0,52,F,Татьяна Рыкунова,SBD
Yes,Multi-ply,1,Valeriya Ponomareva,Amateur Teen 13-15,1993,55.40,-110.0,110.0,-120.0,110.0,40.0,-45.0,45.0,45.0,,85.0,95.0,100.0,100.0,255.0,56,F,Валерия Пономарева,SBD
Yes,Multi-ply,1,Anastasia Ladygina,Amateur Teen 18-19,1990,57.40,115.0,-130.0,132.5,132.5,60.0,-67.5,-67.5,60.0,,115.0,120.0,-125.0,120.0,312.5,60,F,Анастасия Ладыгина,SBD
Yes,Multi-ply,1,Yuliya Medvedeva #1,Amateur Open,1979,67.50,180.0,-200.0,-210.0,180.0,125.0,132.5,,132.5,,165.0,175.0,,175.0,487.5,67.5,F,Юлия Медведева,SBD
Yes,Multi-ply,1,Larisa Dernova,Amateur Open,1971,69.60,-145.0,145.0,-160.0,145.0,90.0,95.0,-100.0,95.0,,150.0,-160.0,160.0,160.0,400.0,75,F,Лариса Дернова,SBD
Yes,Multi-ply,1,Vitaly Mikhin,Amateur Teen 13-15,1993,51.70,120.0,130.0,145.0,145.0,70.0,72.5,-75.0,72.5,,150.0,155.0,162.5,162.5,380.0,52,M,Виталий Михин,SBD
Yes,Multi-ply,2,Nikita Telegin,Amateur Teen 13-15,1995,51.10,105.0,115.0,125.0,125.0,-70.0,75.0,-80.0,75.0,,100.0,115.0,120.0,120.0,320.0,52,M,Никита Телегин,SBD
Yes,Multi-ply,1,Yuriy Chulkov,Amateur Teen 16-17,1992,51.40,-130.0,130.0,-135.0,130.0,65.0,72.5,-77.5,72.5,,110.0,120.0,-125.0,120.0,322.5,52,M,Юрий Чулков,SBD
Yes,Multi-ply,1,Royal Dzhabarov,Amateur Teen 18-19,1990,53.00,-180.0,180.0,187.5,187.5,70.0,75.0,,75.0,,160.0,170.0,175.0,175.0,437.5,56,M,Роял Джабаров,SBD
Yes,Multi-ply,1,Mikhail Fateev,Amateur Teen 18-19,1989,60.00,150.0,-160.0,165.0,165.0,-117.5,117.5,125.0,125.0,,165.0,-175.0,175.0,175.0,465.0,60,M,Михаил Фатеев,SBD
Yes,Multi-ply,1,Ilya Zakharov,Amateur Teen 13-15,1992,66.30,145.0,155.0,-160.0,155.0,-80.0,-80.0,80.0,80.0,,-140.0,150.0,-165.0,150.0,385.0,67.5,M,Илья Захаров,SBD
Yes,Multi-ply,1,Andrey Kadochnikov,Amateur Teen 18-19,1988,64.10,200.0,-210.0,210.0,210.0,115.0,125.0,132.5,132.5,,200.0,212.5,-220.0,212.5,555.0,67.5,M,Андрей Кадочников,SBD
Yes,Multi-ply,1,Mikhail Kolesnikov,Amateur Juniors 20-23,1986,63.00,190.0,197.5,-205.0,197.5,-135.0,135.0,-145.0,135.0,,180.0,195.0,-200.0,195.0,527.5,67.5,M,Михаил Колесников,SBD
Yes,Multi-ply,1,Yaroslav Markov,Amateur Open,1976,65.90,-180.0,-185.0,185.0,185.0,115.0,120.0,-125.0,120.0,,190.0,200.0,210.0,210.0,515.0,67.5,M,Ярослав Марков,SBD
Yes,Multi-ply,1,Andrey Simakov,Amateur Teen 16-17,1990,74.00,190.0,205.0,215.0,215.0,107.5,-112.5,112.5,112.5,,190.0,210.0,220.0,220.0,547.5,75,M,Андрей Симаков,SBD
Yes,Multi-ply,1,Alexei Safonov,Amateur Open,1976,82.50,265.0,285.0,300.0,300.0,145.0,155.0,160.0,160.0,,230.0,250.0,265.0,265.0,725.0,82.5,M,Алексей Сафонов,SBD
Yes,Multi-ply,2,Rinat Galeev,Amateur Open,1974,77.10,180.0,200.0,-215.0,200.0,110.0,120.0,127.5,127.5,,180.0,195.0,205.0,205.0,532.5,82.5,M,Ринат Галеев,SBD
Yes,Multi-ply,DQ,Aleksandr Kozhevin,Amateur Open,1979,82.10,-217.5,-217.5,-217.5,,,,,,,,,,,,82.5,M,Александр Кожевин,SBD
Yes,Multi-ply,1,Ilya Selivanov,Amateur Teen 18-19,1989,88.20,190.0,205.0,-215.0,205.0,130.0,142.5,-147.5,142.5,,170.0,185.0,-195.0,185.0,532.5,90,M,Илья Селиванов,SBD
Yes,Multi-ply,1,Rafik Zeynalov,Amateur Juniors 20-23,1987,94.00,235.0,-247.5,-247.5,235.0,147.5,155.0,165.0,165.0,,210.0,220.0,230.0,230.0,630.0,100,M,Рафик Зейналов,SBD
Yes,Multi-ply,1,Oleg Kozin,Amateur Open,1970,99.70,-250.0,-250.0,250.0,250.0,145.0,-192.5,-192.5,145.0,,220.0,-230.0,-230.0,220.0,615.0,100,M,Олег Козин,SBD
Yes,Multi-ply,1,Oleg Kholodov,Amateur Masters 45-49,1961,92.80,150.0,175.0,200.0,200.0,150.0,160.0,-175.0,160.0,,150.0,175.0,205.0,205.0,565.0,100,M,Олег Холодов,SBD
No,Raw,1,Semen Paley,Pro Youth,1999,32.60,,,,,25.0,30.0,-32.5,30.0,,,,,,30.0,52,M,Семен Палей,B
No,Raw,DQ,Oleg Mironov,Pro Open,1970,59.60,,,,,-95.0,,,,,,,,,,60,M,Олег Миронов,B
No,Raw,1,Yuriy Lebedev,Pro Masters 70-74,1938,59.90,,,,,80.0,85.0,-87.5,85.0,,,,,,85.0,60,M,Юрий Лебедев,B
No,Raw,1,Ivan Iznov,Pro Teen 16-17,1991,74.90,,,,,120.0,-125.0,-125.0,120.0,,,,,,120.0,75,M,Иван Изнов,B
No,Raw,1,Sergei Menshikov,Pro Teen 18-19,1989,69.20,,,,,110.0,-120.0,125.0,125.0,,,,,,125.0,75,M,Сергей Меншиков,B
No,Raw,1,Maksim Boldyrev,Pro Open,1978,71.20,,,,,-157.5,162.5,167.5,167.5,,,,,,167.5,75,M,Максим Болдырев,B
No,Raw,2,Denis Maslakov,Pro Open,1982,75.00,,,,,140.0,-145.0,,140.0,,,,,,140.0,75,M,Денис Маслаков,B
No,Raw,1,Gennadiy Pereladov,Pro Masters 65-69,1939,72.10,,,,,90.0,95.0,100.0,100.0,,,,,,100.0,75,M,Геннадий Переладов,B
No,Raw,1,Sergey Razzhivin,Pro Open,1975,80.60,,,,,150.0,157.5,162.5,162.5,,,,,,162.5,82.5,M,Сергей Разживин,B
No,Raw,2,Evgeniy Babushkin,Pro Open,1972,82.30,,,,,135.0,140.0,145.0,145.0,,,,,,145.0,82.5,M,Евгений Бабушкин,B
No,Raw,DQ,Dmitriy Myasnikov,Pro Teen 16-17,1990,86.50,,,,,-140.0,-145.0,-145.0,,,,,,,,90,M,Дмитрий Мясников,B
No,Raw,1,Aleksandr Chugaynov,Pro Open,1976,89.90,,,,,150.0,155.0,-160.0,155.0,,,,,,155.0,90,M,Александр Чугайнов,B
No,Raw,1,Aleksey Melnikov,Pro Open,1978,97.60,,,,,190.0,-197.5,197.5,197.5,,,,,,197.5,100,M,Алексей Мельников,B
No,Raw,2,Konstantin Palshin,Pro Open,1980,99.20,,,,,-190.0,197.5,-202.5,197.5,,,,,,197.5,100,M,Константин Пальшин,B
No,Raw,1,Pavel Redkin,Pro Juniors 20-23,1985,105.90,,,,,190.0,-202.5,-202.5,190.0,,,,,,190.0,110,M,Павел Редькин,B
No,Raw,1,Sergey Kudinov,Pro Masters 45-49,1963,106.80,,,,,175.0,185.0,-192.5,185.0,,,,,,185.0,110,M,Сергей Кудинов,B
No,Raw,1,Konstantin Bobrov,Pro Masters 50-54,1957,103.50,,,,,180.0,190.0,200.0,200.0,,,,,,200.0,110,M,Константин Бобров,B
No,Raw,1,Dmitriy Kasatov,Pro Open,1977,120.10,,,,,255.0,270.0,-280.0,270.0,,,,,,270.0,125,M,Дмитрий Касатов,B
No,Raw,2,Valeriy Novolokov,Pro Open,1964,116.90,,,,,215.0,222.5,-225.0,222.5,,,,,,222.5,125,M,Валерий Новолоков,B
No,Raw,1,Valeriy Novolokov,Pro Masters 40-44,1964,116.90,,,,,215.0,222.5,-225.0,222.5,,,,,,222.5,125,M,Валерий Новолоков,B
No,Raw,1,Evgeniy Gulyaev,Pro Open,1976,131.80,,,,,220.0,230.0,240.0,240.0,,,,,,240.0,140,M,Евгений Гуляев,B
No,Raw,2,Andrei Brusov,Pro Open,1973,125.20,,,,,215.0,-225.0,-225.0,215.0,,,,,,215.0,140,M,Андрей Брусов,B
No,Raw,1,Vladimir Grad,Pro Open,1976,148.50,,,,,250.0,-255.0,-255.0,250.0,,,,,,250.0,140+,M,Владимир Град,B
No,Multi-ply,1,Svetlana Solodilova,Pro Juniors 20-23,1988,49.30,,,,,-50.0,-50.0,50.0,50.0,,,,,,50.0,52,F,Светлана Солодилова,B
No,Multi-ply,DQ,Natalya Mesilova,Pro Open,1973,55.60,,,,,-82.5,-82.5,-85.0,,,,,,,,56,F,Наталья Месилова,B
No,Multi-ply,1,Mariya Scherbakova,Pro Juniors 20-23,1988,59.90,,,,,65.0,-77.5,77.5,77.5,,,,,,77.5,60,F,Мария Щербакова,B
No,Multi-ply,1,Elena Shtikh,Pro Open,1983,60.00,,,,,82.5,87.5,90.0,90.0,,,,,,90.0,60,F,Елена Штих,B
No,Multi-ply,1,Irina Pilipishko,Pro Masters 50-54,1957,64.30,,,,,-75.0,75.0,-85.0,75.0,,,,,,75.0,67.5,F,Ирина Пилипишко,B
No,Multi-ply,1,Elena Sheverdina,Pro Open,1968,74.30,,,,,162.5,-167.5,,162.5,,,,,,162.5,75,F,Елена Шевердина,B
No,Multi-ply,1,Denis Bobrov,Pro Youth,1997,54.40,,,,,37.5,-42.5,42.5,42.5,,,,,,42.5,56,M,Денис Бобров,B
No,Multi-ply,1,Maksim Kuznetsov,Pro Teen 16-17,1991,59.90,,,,,115.0,125.0,130.0,130.0,,,,,,130.0,60,M,Максим Кузнецов,B
No,Multi-ply,1,Anton Danilov,Pro Teen 18-19,1990,58.20,,,,,120.0,125.0,-130.0,125.0,,,,,,125.0,60,M,Антон Данилов,B
No,Multi-ply,DQ,Yuriy Minko,Pro Juniors 20-23,1986,66.70,,,,,-120.0,-130.0,-130.0,,,,,,,,67.5,M,Юрий Минько,B
No,Multi-ply,1,Aleksandr Drevetnyak,Pro Teen 18-19,1990,73.90,,,,,-125.0,125.0,-135.0,125.0,,,,,,125.0,75,M,Александр Древетняк,B
No,Multi-ply,1,Dmitriy Balkhovskikh,Pro Juniors 20-23,1985,73.80,,,,,-150.0,150.0,157.5,157.5,,,,,,157.5,75,M,Дмитрий Балховских,B
No,Multi-ply,1,Evgeniy Uskov,Pro Open,1970,74.80,,,,,185.0,195.0,-202.5,195.0,,,,,,195.0,75,M,Евгений Усков,B
No,Multi-ply,2,Aleksandr Medvedev,Pro Open,1982,72.50,,,,,170.0,-192.5,-195.0,170.0,,,,,,170.0,75,M,Александр Медведев,B
No,Multi-ply,1,Igor Kuimov,Pro Masters 45-49,1962,75.00,,,,,195.0,-202.5,,195.0,,,,,,195.0,75,M,Игорь Куимов,B
No,Multi-ply,1,Dmitriy Kushnarev,Pro Teen 13-15,1995,81.70,,,,,65.0,70.0,-72.5,70.0,,,,,,70.0,82.5,M,Дмитрий Кушнарев,B
No,Multi-ply,1,Dmitriy Khovanskiy,Pro Juniors 20-23,1986,81.60,,,,,200.0,210.0,220.0,220.0,,,,,,220.0,82.5,M,Дмитрий Хованский,B
No,Multi-ply,2,Egor Koykov,Pro Juniors 20-23,1985,80.70,,,,,-192.5,192.5,-200.0,192.5,,,,,,192.5,82.5,M,Егор Койков,B
No,Multi-ply,1,Aleksey Savosin,Pro Open,1969,80.80,,,,,-200.0,200.0,-217.5,200.0,,,,,,200.0,82.5,M,Алексей Савосин,B
No,Multi-ply,2,Nikolay Mikheev,Pro Open,1984,76.20,,,,,190.0,-200.0,-202.5,190.0,,,,,,190.0,82.5,M,Николай Михеев,B
No,Multi-ply,3,Igor Dyachenko,Pro Open,1984,78.00,,,,,-180.0,180.0,-190.0,180.0,,,,,,180.0,82.5,M,Игорь Дьяченко,B
No,Multi-ply,4,Pavel Tsetsulin,Pro Open,1978,81.80,,,,,-180.0,-180.0,180.0,180.0,,,,,,180.0,82.5,M,Павел Цецулин,B
No,Multi-ply,DQ,Sergey Zubkov,Pro Open,1983,81.20,,,,,-180.0,,,,,,,,,,82.5,M,Сергей Зубков,B
No,Multi-ply,1,Artur Druzhinin,Pro Masters 40-44,1968,82.00,,,,,-155.0,155.0,-165.0,155.0,,,,,,155.0,82.5,M,Артур Дружинин,B
No,Multi-ply,1,Ivan Zyablikov,Pro Masters 60-64,1948,82.40,,,,,-170.0,170.0,-175.5,170.0,,,,,,170.0,82.5,M,Иван Зябликов,B
No,Multi-ply,1,Maksim Maksimov,Pro Juniors 20-23,1986,88.30,,,,,-160.0,170.0,-190.0,170.0,,,,,,170.0,90,M,Максим Максимов,B
No,Multi-ply,1,Aleksandr Metelyov,Pro Open,1972,85.30,,,,,220.0,225.0,230.0,230.0,,,,,,230.0,90,M,Александр Метелёв,B
No,Multi-ply,2,Ivan Vasyunin,Pro Open,1983,88.10,,,,,230.0,-240.0,-240.0,230.0,,,,,,230.0,90,M,Иван Васюнин,B
No,Multi-ply,3,Aleksey Ponosov,Pro Open,1983,89.40,,,,,-210.0,210.0,-215.0,210.0,,,,,,210.0,90,M,Алексей Поносов,B
No,Multi-ply,4,Vyacheslav Chaykovskiy,Pro Open,1970,89.20,,,,,180.0,-202.5,202.5,202.5,,,,,,202.5,90,M,Вячеслав Чайковский,B
No,Multi-ply,DQ,Vitaliy Goryunov,Pro Open,1982,89.10,,,,,-200.0,-205.0,-210.0,,,,,,,,90,M,Виталий Горюнов,B
No,Multi-ply,DQ,Sergey Medvedev,Pro Open,1981,89.50,,,,,-230.0,-230.0,-230.0,,,,,,,,90,M,Сергей Медведев,B
No,Multi-ply,1,Vladimir Soloboev,Pro Masters 50-54,1958,88.30,,,,,165.0,-172.5,-177.5,165.0,,,,,,165.0,90,M,Владимир Солобоев,B
No,Multi-ply,1,Evgeniy Medeltsov,Pro Juniors 20-23,1986,92.10,,,,,-215.0,-215.0,215.0,215.0,,,,,,215.0,100,M,Евгений Медельцов,B
No,Multi-ply,1,Sergey Puzanskiy,Pro Open,1975,99.90,,,,,-250.0,-250.0,250.0,250.0,,,,,,250.0,100,M,Сергей Пузанский,B
No,Multi-ply,2,Aleksey Melnik,Pro Open,1977,97.60,,,,,240.0,245.0,-252.5,245.0,,,,,,245.0,100,M,Алексей Мельник,B
No,Multi-ply,3,Andrey Fadeev,Pro Open,1970,98.90,,,,,-230.0,-230.0,230.0,230.0,,,,,,230.0,100,M,Андрей Фадеев,B
No,Multi-ply,4,Oleg Saydentsal,Pro Open,1975,99.80,,,,,230.0,-235.0,-235.0,230.0,,,,,,230.0,100,M,Олег Сайденцаль,B
No,Multi-ply,5,Vladimir Fil,Pro Open,1976,99.50,,,,,225.0,-240.0,-240.0,225.0,,,,,,225.0,100,M,Владимир Филь,B
No,Multi-ply,6,Aleksey Kazerskiy,Pro Open,1974,98.40,,,,,200.0,-210.0,210.0,210.0,,,,,,210.0,100,M,Алексей Казерский,B
No,Multi-ply,7,Konstantin Tolkachyov,Pro Open,1981,93.60,,,,,190.0,-210.0,-210.0,190.0,,,,,,190.0,100,M,Константин Толкачёв,B
No,Multi-ply,8,Sergey Kostin,Pro Open,1982,99.50,,,,,180.0,-195.0,-210.0,180.0,,,,,,180.0,100,M,Сергей Костин,B
No,Multi-ply,9,Dmitriy Tsymbalistyy,Pro Open,1978,98.20,,,,,160.0,-170.0,170.0,170.0,,,,,,170.0,100,M,Дмитрий Цымбалистый,B
No,Multi-ply,DQ,Aleksandr Zyryanov,Pro Open,1978,95.70,,,,,-215.0,-220.0,-230.0,,,,,,,,100,M,Александр Зырянов,B
No,Multi-ply,DQ,Vladimir Schukin,Pro Open,1980,96.90,,,,,-185.0,-185.0,-185.0,,,,,,,,100,M,Владимир Щукин,B
No,Multi-ply,DQ,Andrey Dobryakov,Pro Open,1975,97.00,,,,,-225.0,-225.0,-225.0,,,,,,,,100,M,Андрей Добряков,B
No,Multi-ply,1,Boris Zhernovnikov,Pro Masters 40-44,1965,94.30,,,,,230.0,250.0,-260.0,250.0,,,,,,250.0,100,M,Борис Жерновников,B
No,Multi-ply,1,Aleksandr Zavyalov,Pro Masters 50-54,1957,95.90,,,,,190.0,-200.0,-200.0,190.0,,,,,,190.0,100,M,Александр Завьялов,B
No,Multi-ply,1,Vladimir Savin,Pro Masters 60-64,1947,97.70,,,,,140.0,150.0,160.0,160.0,,,,,,160.0,100,M,Владимир Савин,B
No,Multi-ply,1,Albert Fakhretdinov,Pro Juniors 20-23,1987,105.70,,,,,-160.0,-160.0,160.0,160.0,,,,,,160.0,110,M,Альберт Фахретдинов,B
No,Multi-ply,DQ,Aleksandr Kvasnikov,Pro Juniors 20-23,1987,101.90,,,,,-200.0,-200.0,-200.0,,,,,,,,110,M,Александр Квасников,B
No,Multi-ply,1,Alexey Neklyudov,Pro Open,1964,109.80,,,,,340.0,,-350.5,340.0,,,,,,340.0,110,M,Алексей Неклюдов,B
No,Multi-ply,2,Igor Zhemelinskikh,Pro Open,1979,101.50,,,,,260.0,267.5,272.5,272.5,,,,,,272.5,110,M,Игорь Жемелинских,B
No,Multi-ply,3,Andrey Paley,Pro Open,1961,102.80,,,,,260.0,,,260.0,,,,,,260.0,110,M,Андрей Палей,B
No,Multi-ply,4,Konstantin Bayandin,Pro Open,1976,106.60,,,,,250.0,255.0,260.0,260.0,,,,,,260.0,110,M,Константин Баяндин,B
No,Multi-ply,5,Yakov Berman,Pro Open,1972,107.10,,,,,-240.0,-250.0,250.0,250.0,,,,,,250.0,110,M,Яков Берман,B
No,Multi-ply,6,Vladimir Omelkov,Pro Open,1970,102.90,,,,,-240.0,240.0,-250.0,240.0,,,,,,240.0,110,M,Владимир Омельков,B
No,Multi-ply,7,Vladimir Karasov,Pro Open,1973,103.00,,,,,-230.0,230.0,-242.5,230.0,,,,,,230.0,110,M,Владимир Карасов,B
No,Multi-ply,8,Vitaliy Gritskevich,Pro Open,1969,109.10,,,,,210.0,220.0,230.0,230.0,,,,,,230.0,110,M,Виталий Грицкевич,B
No,Multi-ply,9,Dmitriy Khanykov,Pro Open,1983,102.30,,,,,-210.0,-210.0,210.0,210.0,,,,,,210.0,110,M,Дмитрий Ханыков,B
No,Multi-ply,10,Nikolay Mozharovskiy,Pro Open,1973,107.30,,,,,-205.0,205.0,207.5,207.5,,,,,,207.5,110,M,Николай Можаровский,B
No,Multi-ply,DQ,Aleksandr Saytgalin,Pro Open,1974,107.60,,,,,-270.0,-270.0,-270.0,,,,,,,,110,M,Александр Сайтгалин,B
No,Multi-ply,DQ,Aleksandr Tretyakov,Pro Open,1967,108.90,,,,,-315.0,-325.0,-330.0,,,,,,,,110,M,Александр Третьяков,B
No,Multi-ply,1,Alexey Neklyudov,Pro Masters 40-44,1964,109.80,,,,,330.0,340.0,-350.5,340.0,,,,,,340.0,110,M,Алексей Неклюдов,B
No,Multi-ply,2,Oleg Chernyavskiy #1,Pro Masters 40-44,1967,106.40,,,,,-200.0,,240.0,240.0,,,,,,240.0,110,M,Олег Чернявский,B
No,Multi-ply,3,Andrey Tachanov,Pro Masters 40-44,1964,107.60,,,,,220.0,230.0,-240.0,230.0,,,,,,230.0,110,M,Андрей Тачанов,B
No,Multi-ply,DQ,Igor Podelko,Pro Masters 40-44,1964,108.30,,,,,-250.0,-250.0,-250.0,,,,,,,,110,M,Игорь Поделко,B
No,Multi-ply,DQ,Aleksandr Tretyakov,Pro Masters 40-44,1967,108.90,,,,,-315.0,-325.0,-330.0,,,,,,,,110,M,Александр Третьяков,B
No,Multi-ply,1,Andrey Paley,Pro Masters 45-49,1961,102.80,,,,,260.0,-280.0,-280.0,260.0,,,,,,260.0,110,M,Андрей Палей,B
No,Multi-ply,DQ,Yuriy Pohvashhev,Pro Masters 50-54,1954,108.90,,,,,-240.0,-240.0,-240.0,,,,,,,,110,M,Юрий Похващев,B
No,Multi-ply,1,Nikolay Pyshmintsev,Pro Open,1981,116.90,,,,,272.5,-285.0,-285.0,272.5,,,,,,272.5,125,M,Николай Пышминцев,B
No,Multi-ply,2,Timur Andreev,Pro Open,1983,111.00,,,,,-265.0,-270.0,270.0,270.0,,,,,,270.0,125,M,Тимур Андреев,B
No,Multi-ply,3,Konstantin Maltsev,Pro Open,1974,115.50,,,,,-260.0,-260.0,267.5,267.5,,,,,,267.5,125,M,Константин Мальцев,B
No,Multi-ply,4,Aleksandr Seregin,Pro Open,1980,118.00,,,,,230.0,-260.0,-260.0,230.0,,,,,,230.0,125,M,Александр Серегин,B
No,Multi-ply,DQ,Mikhail Brylin,Pro Open,1984,111.30,,,,,-260.0,-265.0,-265.0,,,,,,,,125,M,Михаил Брылин,B
No,Multi-ply,DQ,Eduard Khaliullin,Pro Open,1973,112.90,,,,,-280.0,-280.0,-280.0,,,,,,,,125,M,Эдуард Халиуллин,B
No,Multi-ply,1,Aleksandr Ponomarev,Pro Masters 40-44,1967,113.50,,,,,-260.0,260.0,-262.5,260.0,,,,,,260.0,125,M,Александр Пономарев,B
No,Multi-ply,2,Valeriy Novolokov,Pro Masters 40-44,1964,116.90,,,,,250.0,-260.0,-262.5,250.0,,,,,,250.0,125,M,Валерий Новолоков,B
No,Multi-ply,3,Andrey Govorukha,Pro Masters 40-44,1966,110.40,,,,,130.0,-150.0,-150.0,130.0,,,,,,130.0,125,M,Андрей Говоруха,B
No,Multi-ply,1,Aleksandr Sichev,Pro Masters 45-49,1960,110.40,,,,,170.0,-190.0,-190.0,170.0,,,,,,170.0,125,M,Александр Сычев,B
No,Multi-ply,DQ,Pavel Yagovkin,Pro Masters 45-49,1959,115.20,,,,,-230.0,-230.0,-230.0,,,,,,,,125,M,Павел Яговкин,B
No,Multi-ply,DQ,Vladimir Maksimov,Pro Open,1966,131.20,,,,,-380.0,-380.0,-400.5,,,,,,,,140,M,Владимир Максимов,B
No,Multi-ply,DQ,Vladimir Maksimov,Pro Masters 40-44,1966,131.20,,,,,-380.0,-380.0,-400.5,,,,,,,,140,M,Владимир Максимов,B
Yes,Raw,1,Olga Isakova,Amateur Teen 13-15,1994,48.00,,,,,35.0,37.5,-40.0,37.5,,,,,,37.5,48,F,Ольга Исакова,B
Yes,Raw,1,Yuliya Ponomareva,Amateur Teen 13-15,1995,48.50,,,,,-32.5,32.5,-35.0,32.5,,,,,,32.5,52,F,Юлия Пономарева,B
Yes,Raw,DQ,Ziliya Gimaeva,Amateur Juniors 20-23,1985,55.00,,,,,-52.5,-57.5,-57.5,,,,,,,,56,F,Зилия Гимаева,B
Yes,Raw,1,Anna Savelyeva,Amateur Open,1975,55.00,,,,,-60.0,62.5,-67.5,62.5,,,,,,62.5,56,F,Анна Савельева,B
Yes,Raw,1,Vera Shariy,Amateur Masters 50-54,1957,59.60,,,,,40.0,-42.5,42.5,42.5,,,,,,42.5,60,F,Вера Шарий,B
Yes,Raw,1,Yelizaveta Borisova,Amateur Teen 18-19,1989,60.70,,,,,-60.0,-60.0,60.0,60.0,,,,,,60.0,67.5,F,Елизавета Борисова,B
Yes,Raw,1,Natalya Danilova,Amateur Open,1986,61.50,,,,,52.5,55.0,-57.5,55.0,,,,,,55.0,67.5,F,Наталья Данилова,B
Yes,Raw,1,Lyudmila Dokuchayeva,Amateur Open,1977,74.70,,,,,95.0,100.0,-105.0,100.0,,,,,,100.0,75,F,Людмила Докучаева,B
Yes,Raw,2,Elena Schukina,Amateur Open,1981,71.20,,,,,25.0,-30.0,-30.0,25.0,,,,,,25.0,75,F,Елена Щукина,B
Yes,Raw,1,Vladislav Trubin,Amateur Teen 13-15,1993,52.00,,,,,50.0,60.0,65.0,65.0,,,,,,65.0,52,M,Владислав Трубин,B
Yes,Raw,1,Alexander Medvedchuk,Amateur Juniors 20-23,1986,50.60,,,,,82.5,85.0,-90.0,85.0,,,,,,85.0,52,M,Александр Медведчук,B
Yes,Raw,1,Nikita Zinov,Amateur Teen 13-15,1992,54.50,,,,,55.0,-62.5,,55.0,,,,,,55.0,56,M,Никита Зинов,B
Yes,Raw,1,Sergey Tyapkin,Amateur Teen 13-15,1995,57.30,,,,,-67.5,67.5,72.5,72.5,,,,,,72.5,60,M,Сергей Тяпкин,B
Yes,Raw,1,Dmitry Suyetnov,Amateur Juniors 20-23,1988,59.10,,,,,115.0,122.5,125.0,125.0,,,,,,125.0,60,M,Дмитрий Суетнов,B
Yes,Raw,1,Dmitriy Kiselev,Amateur Open,1977,59.80,,,,,105.0,110.0,-115.0,110.0,,,,,,110.0,60,M,Дмитрий Киселев,B
Yes,Raw,1,Semen Filyakin,Amateur Teen 16-17,1991,61.70,,,,,95.0,-100.0,-100.0,95.0,,,,,,95.0,67.5,M,Семён Филякин,B
Yes,Raw,2,Evgeniy Kovylyaev,Amateur Teen 16-17,1992,62.90,,,,,85.0,-90.0,-90.0,85.0,,,,,,85.0,67.5,M,Евгений Ковыляев,B
Yes,Raw,1,Nikolay Kubyshkin,Amateur Juniors 20-23,1987,65.90,,,,,85.0,-95.0,-95.0,85.0,,,,,,85.0,67.5,M,Николай Кубышкин,B
Yes,Raw,1,Aleksey Denisov,Amateur Open,1982,66.20,,,,,115.0,122.5,-125.0,122.5,,,,,,122.5,67.5,M,Алексей Денисов,B
Yes,Raw,2,Aleksey Rogov,Amateur Open,1972,65.90,,,,,115.0,-117.5,-117.5,115.0,,,,,,115.0,67.5,M,Алексей Рогов,B
Yes,Raw,3,Dmitriy Shalunov,Amateur Open,1973,65.80,,,,,-110.0,-110.0,110.0,110.0,,,,,,110.0,67.5,M,Дмитрий Шалунов,B
Yes,Raw,1,Vladimir Zabolotnev,Amateur Masters 40-44,1968,65.60,,,,,120.0,130.0,-135.0,130.0,,,,,,130.0,67.5,M,Владимир Заболотнев,B
Yes,Raw,1,Aleksey Lyapustin,Amateur Teen 16-17,1992,72.50,,,,,-100.0,100.0,105.0,105.0,,,,,,105.0,75,M,Алексей Ляпустин,B
Yes,Raw,DQ,Vsevolod Permyakov,Amateur Teen 16-17,1990,71.60,,,,,-130.0,-140.0,-140.0,,,,,,,,75,M,Всеволод Пермяков,B
Yes,Raw,1,Vitaliy Kostromin,Amateur Teen 18-19,1990,74.40,,,,,105.0,112.5,-120.0,112.5,,,,,,112.5,75,M,Виталий Костромин,B
Yes,Raw,1,Sergey Stakheev,Amateur Juniors 20-23,1984,74.80,,,,,132.5,-140.0,140.0,140.0,,,,,,140.0,75,M,Сергей Стахеев,B
Yes,Raw,2,Valeriy Bazanov,Amateur Open,1971,73.30,,,,,-130.0,130.0,-140.0,130.0,,,,,,130.0,75,M,Валерий Базанов,B
Yes,Raw,3,Andrey Krasnozhon,Amateur Open,1982,70.70,,,,,105.0,-110.0,-110.0,105.0,,,,,,105.0,75,M,Андрей Красножон,B
Yes,Raw,DQ,Leonid Kovylyaev,Amateur Open,1969,74.20,,,,,-110.0,-110.0,-112.5,,,,,,,,75,M,Леонид Ковыляев,B
Yes,Raw,DQ,Konstantin Kuznetsov,Amateur Open,1983,74.50,,,,,-150.0,-150.0,-150.0,,,,,,,,75,M,Константин Кузнецов,B
Yes,Raw,1,Igor Zhukov,Amateur Teen 13-15,1993,79.30,,,,,90.0,97.5,102.5,102.5,,,,,,102.5,82.5,M,Игорь Жуков,B
Yes,Raw,1,Mikhail Gomoyunov,Amateur Teen 18-19,1990,80.70,,,,,120.0,125.0,-132.5,125.0,,,,,,125.0,82.5,M,Михаил Гомоюнов,B
Yes,Raw,1,Andrei Galaida,Amateur Open,1972,82.20,,,,,170.0,177.5,182.5,182.5,,,,,,182.5,82.5,M,Андрей Галайда,B
Yes,Raw,2,Pavel Kokorin,Amateur Open,1980,82.40,,,,,-145.0,145.0,152.5,152.5,,,,,,152.5,82.5,M,Павел Кокорин,B
Yes,Raw,3,Mikhail Duvanov,Amateur Open,1983,79.20,,,,,150.0,-160.0,-160.0,150.0,,,,,,150.0,82.5,M,Михаил Дуванов,B
Yes,Raw,4,Aleksey Kabanov,Amateur Open,1974,81.20,,,,,142.5,150.0,,150.0,,,,,,150.0,82.5,M,Алексей Кабанов,B
Yes,Raw,DQ,Eduard Isakov,Amateur Masters 40-44,1966,81.30,,,,,-130.0,-132.5,-132.5,,,,,,,,82.5,M,Эдуард Исаков,B
Yes,Raw,1,Bekhruz Ruziev,Amateur Teen 16-17,1992,85.00,,,,,-87.5,87.5,-92.5,87.5,,,,,,87.5,90,M,Бехруз Рузиев,B
Yes,Raw,1,Ivan Gorodilov,Amateur Juniors 20-23,1985,87.20,,,,,-145.0,145.0,-155.0,145.0,,,,,,145.0,90,M,Иван Городилов,B
Yes,Raw,2,Rodion Duka,Amateur Juniors 20-23,1985,88.70,,,,,100.0,-110.0,110.0,110.0,,,,,,110.0,90,M,Родион Дука,B
Yes,Raw,1,Vladimir Lapaev,Amateur Open,1975,86.80,,,,,155.0,162.5,165.0,165.0,,,,,,165.0,90,M,Владимир Лапаев,B
Yes,Raw,2,Roman Stepanov,Amateur Open,1980,88.90,,,,,155.0,160.0,-165.0,160.0,,,,,,160.0,90,M,Роман Степанов,B
Yes,Raw,1,Andrey Noritsyn,Amateur Masters 45-49,1963,88.70,,,,,155.0,-162.5,162.5,162.5,,,,,,162.5,90,M,Андрей Норицын,B
Yes,Raw,1,Anton Pavlov,Amateur Juniors 20-23,1985,94.90,,,,,150.0,152.5,-155.0,152.5,,,,,,152.5,100,M,Антон Павлов,B
Yes,Raw,1,Evgeniy Krayukhin,Amateur Open,1973,98.60,,,,,162.5,167.5,-177.5,167.5,,,,,,167.5,100,M,Евгений Краюхин,B
Yes,Raw,DQ,Pavel Galayda,Amateur Open,1968,96.10,,,,,-160.0,-160.0,-165.0,,,,,,,,100,M,Павел Галайда,B
Yes,Raw,1,Dmitry Karelin,Amateur Masters 40-44,1968,98.40,,,,,167.5,-172.5,-172.5,167.5,,,,,,167.5,100,M,Дмитрий Карелин,B
Yes,Raw,2,Oleg Pisachenko,Amateur Masters 40-44,1965,99.60,,,,,150.0,162.5,,162.5,,,,,,162.5,100,M,Олег Писаченко,B
Yes,Raw,DQ,Pavel Galayda,Amateur Masters 40-44,1968,96.10,,,,,-160.0,-160.0,-165.0,,,,,,,,100,M,Павел Галайда,B
Yes,Raw,DQ,Vladimir Shibaev,Amateur Masters 45-49,1960,99.40,,,,,,,,,,,,,,,100,M,Владимир Шибаев,B
Yes,Raw,1,Gennadiy Semenov #2,Amateur Masters 50-54,1958,97.00,,,,,115.0,122.5,125.0,125.0,,,,,,125.0,100,M,Геннадий Семенов,B
Yes,Raw,1,Aleksey Furman,Amateur Open,1976,105.20,,,,,167.5,,,167.5,,,,,,167.5,110,M,Алексей Фурман,B
Yes,Raw,2,Vasiliy Martyushev,Amateur Open,1972,105.70,,,,,150.0,-160.0,-160.0,150.0,,,,,,150.0,110,M,Василий Мартюшев,B
Yes,Raw,1,Vasiliy Petrov,Amateur Open,1975,118.60,,,,,-202.5,202.5,210.0,210.0,,,,,,210.0,125,M,Василий Петров,B
Yes,Raw,2,Sergey Kolesnichenko,Amateur Open,1979,123.60,,,,,-150.0,165.0,175.0,175.0,,,,,,175.0,125,M,Сергей Колесниченко,B
Yes,Raw,3,Aleksey Shoromov,Amateur Open,1974,118.20,,,,,-167.5,-167.5,167.5,167.5,,,,,,167.5,125,M,Алексей Шоромов,B
Yes,Raw,4,Maksim Kolomitsev,Amateur Open,1979,116.10,,,,,155.0,-165.0,-175.0,155.0,,,,,,155.0,125,M,Максим Коломицев,B
Yes,Raw,DQ,Denis Fomin,Amateur Open,1977,124.50,,,,,-202.5,,-202.5,,,,,,,,125,M,Денис Фомин,B
Yes,Raw,1,Igor Solovey,Amateur Masters 40-44,1967,116.50,,,,,-165.0,165.0,-175.0,165.0,,,,,,165.0,125,M,Игорь Соловей,B
Yes,Raw,1,Maksim Vanin,Amateur Masters 45-49,1963,113.90,,,,,155.0,165.0,-175.0,165.0,,,,,,165.0,125,M,Максим Ванин,B
Yes,Raw,1,Andrei Melkozerov,Amateur Open,1971,128.30,,,,,195.0,207.5,-212.5,207.5,,,,,,207.5,140,M,Андрей Мелкозеров,B
Yes,Raw,DQ,Yuriy Smirnov #1,Amateur Open,1971,137.20,,,,,-230.0,,,,,,,,,,140,M,Юрий Смирнов,B
Yes,Multi-ply,1,Olga Grineva,Amateur Open,1984,52.00,,,,,70.0,80.0,-85.0,80.0,,,,,,80.0,52,F,Ольга Гринева,B
Yes,Multi-ply,1,Darya Kashina,Amateur Teen 16-17,1992,55.40,,,,,65.0,-70.0,-70.0,65.0,,,,,,65.0,56,F,Дарья Кашина,B
Yes,Multi-ply,1,Yuliya Medvedeva #1,Amateur Open,1979,67.50,,,,,125.0,132.5,,132.5,,,,,,132.5,67.5,F,Юлия Медведева,B
Yes,Multi-ply,1,Alexei Gusev,Amateur Teen 13-15,1992,51.40,,,,,70.0,75.0,-80.0,75.0,,,,,,75.0,52,M,Алексей Гусев,B
Yes,Multi-ply,1,Pavel Fatfullin,Amateur Teen 18-19,1989,58.50,,,,,100.0,105.0,-110.0,105.0,,,,,,105.0,60,M,Павел Фатфуллин,B
Yes,Multi-ply,1,Anton Mogilevsky,Amateur Teen 16-17,1991,60.80,,,,,120.0,-130.0,-130.0,120.0,,,,,,120.0,67.5,M,Антон Могилевский,B
Yes,Multi-ply,1,Aleksey Bolshevykh,Amateur Teen 18-19,1989,66.90,,,,,120.0,125.0,-130.0,125.0,,,,,,125.0,67.5,M,Алексей Большевых,B
Yes,Multi-ply,1,Sergey Ladyzhnikov,Amateur Juniors 20-23,1986,62.00,,,,,-135.0,135.0,142.5,142.5,145.0,,,,,142.5,67.5,M,Сергей Ладыжников,B
Yes,Multi-ply,2,Mikhail Kolesnikov,Amateur Juniors 20-23,1986,63.00,,,,,-135.0,135.0,-145.0,135.0,,,,,,135.0,67.5,M,Михаил Колесников,B
Yes,Multi-ply,1,Ruslan Allayarov,Amateur Open,1978,66.70,,,,,130.0,-140.0,-140.0,130.0,,,,,,130.0,67.5,M,Руслан Аллаяров,B
Yes,Multi-ply,DQ,Ilya Obolenskiy,Amateur Open,1982,65.70,,,,,-120.0,-125.0,-125.0,,,,,,,,67.5,M,Илья Оболенский,B
Yes,Multi-ply,1,Roman Schipanov,Amateur Teen 18-19,1989,79.40,,,,,140.0,150.0,-160.0,150.0,,,,,,150.0,82.5,M,Роман Щипанов,B
Yes,Multi-ply,DQ,Ignat Zyryanov,Amateur Teen 16-17,1991,80.20,,,,,-145.0,-145.0,-145.0,,,,,,,,82.5,M,Игнат Зырянов,B
Yes,Multi-ply,DQ,Aleksey Mikheev,Amateur Open,1968,82.00,,,,,-130.0,-140.0,-140.0,,,,,,,,82.5,M,Алексей Михеев,B
Yes,Multi-ply,1,Nikolay Novoselov,Amateur Juniors 20-23,1988,88.60,,,,,165.0,-180.0,-180.0,165.0,,,,,,165.0,90,M,Николай Новоселов,B
Yes,Multi-ply,1,Yuriy Sablin,Amateur Open,1983,88.40,,,,,-200.0,207.5,,207.5,,,,,,207.5,90,M,Юрий Саблин,B
Yes,Multi-ply,2,Andrey Nikonov,Amateur Open,1982,89.10,,,,,-175.0,180.0,185.0,185.0,,,,,,185.0,90,M,Андрей Никонов,B
Yes,Multi-ply,DQ,Roman Stepanov,Amateur Open,1980,88.90,,,,,-180.0,-185.0,-190.0,,,,,,,,90,M,Роман Степанов,B
Yes,Multi-ply,1,Aleksandr Belyaev,Amateur Open,1972,100.00,,,,,-215.0,215.0,222.5,222.5,-227.5,,,,,222.5,100,M,Александр Беляев,B
Yes,Multi-ply,2,Valeriy Kurochkin,Amateur Open,1978,98.00,,,,,-220.0,-220.0,220.0,220.0,-240.0,,,,,220.0,100,M,Валерий Курочкин,B
Yes,Multi-ply,3,Pavel Klevakin,Amateur Open,1969,99.40,,,,,-200.0,200.0,215.0,215.0,,,,,,215.0,100,M,Павел Клевакин,B
Yes,Multi-ply,DQ,Vadim Dostovalov,Amateur Open,1978,97.10,,,,,-170.0,,-192.5,,,,,,,,100,M,Вадим Достовалов,B
Yes,Multi-ply,DQ,Oleg Kozin,Amateur Open,1970,99.70,,,,,-192.5,-192.5,-192.5,,,,,,,,100,M,Олег Козин,B
Yes,Multi-ply,1,Dmitriy Otinov,Amateur Open,1977,106.90,,,,,250.0,260.0,-270.0,260.0,,,,,,260.0,110,M,Дмитрий Отинов,B
Yes,Multi-ply,1,Sergey Kharlamov,Amateur Open,1973,118.50,,,,,220.0,230.0,237.5,237.5,242.5,,,,,237.5,125,M,Сергей Харламов,B
Yes,Multi-ply,2,Mikhail Porokhin,Amateur Open,1978,119.00,,,,,220.0,-230.0,230.0,230.0,,,,,,230.0,125,M,Михаил Порохин,B
Yes,Multi-ply,3,Dmitriy Ryzhov,Amateur Open,1972,114.00,,,,,210.0,220.0,-230.0,220.0,,,,,,220.0,125,M,Дмитрий Рыжов,B
Yes,Multi-ply,DQ,Mikhail Nekrasov,Amateur Open,1969,124.10,,,,,-212.5,-212.5,-212.5,,,,,,,,125,M,Михаил Некрасов,B
Yes,Multi-ply,DQ,Denis Fomin,Amateur Open,1977,124.50,,,,,-235.0,-235.0,-235.0,,,,,,,,125,M,Денис Фомин,B
Yes,Multi-ply,DQ,Evgeniy Formin,Amateur Masters 40-44,1967,121.40,,,,,-212.5,-212.5,-212.5,,,,,,,,125,M,Евгений Формин,B
Yes,Multi-ply,DQ,Yuriy Smirnov #1,Amateur Open,1971,137.20,,,,,-280.0,-280.0,-300.0,,,,,,,,140,M,Юрий Смирнов,B
