Tested,Equipment,Place,Name,Division,BirthYear,Country,BodyweightKg,Squat1Kg,Squat2Kg,Squat3Kg,Best3SquatKg,Bench1Kg,Bench2Kg,Bench3Kg,Best3BenchKg,Deadlift1Kg,Deadlift2Kg,Deadlift3Kg,Best3DeadliftKg,TotalKg,WeightClassKg,Sex,CyrillicName,Event
Yes,Wraps,1,Renata Korkina,Amateur Open,1986,Russia,51.5,70,80,-85,80,40,50,-57.5,50,70,80,90,90,220,52,F,Рената Коркина,SBD
Yes,Wraps,1,Anastasiya Lebedeva,Amateur Juniors 20-23,1995,Russia,54.6,80,95,-105,95,45,50,55,55,80,95,-100,95,245,56,F,Анастасия Лебедева,SBD
Yes,Wraps,1,Ekaterina Titova,Amateur Open,1986,Russia,57.5,65,70,72.5,72.5,35,37.5,40,40,75,80,82.5,82.5,195,60,F,Екатерина Титова,SBD
Yes,Wraps,1,Oksana Naletova,Amateur Juniors 20-23,1995,Russia,62,60,70,-85,70,-50,50,52.5,52.5,90,100,105,105,227.5,67.5,F,Оксана Налетова,SBD
Yes,Wraps,1,Ekaterina Pogula,Amateur Masters 40-44,1972,Russia,66.6,-55,55,60,60,32.5,-37.5,-37.5,32.5,70,-77.5,-77.5,70,162.5,67.5,F,Екатерина Погула,SBD
Yes,Wraps,DQ,Oksana Snetkova,Amateur Open,1979,Russia,68.1,-80,80,-90,80,-40,-40,-40,,,,,,,75,F,Оксана Снеткова,SBD
Yes,Wraps,1,Ivan Khovanov,Amateur Teen 16-17,2000,Russia,66.5,150,-160,-160,150,90,95,-97.5,95,170,180,-195,180,425,67.5,M,Иван Хованов,SBD
Yes,Wraps,1,Aleksey Nadezhdin,Amateur Open,1985,Russia,67.1,-150,-155,155,155,90,100,-110,100,185,195,210,210,465,67.5,M,Алексей Надеждин,SBD
Yes,Wraps,1,Dmitriy Glushonkov,Amateur Juniors 20-23,1996,Russia,73.1,-105,105,-107.5,105,95,97.5,-100,97.5,117.5,-120,122.5,122.5,325,75,M,Дмитрий Глушонков,SBD
Yes,Wraps,1,Artur Bugorkov,Amateur Juniors 20-23,1994,Russia,80.7,190,200,-210,200,140,150,-155,150,220,235,-250,235,585,82.5,M,Артур Бугорков,SBD
Yes,Wraps,1,Maruf Sabirov,Amateur Open,1982,Russia,80.9,170,180,190,190,125,130,135,135,225,230,235,235,560,82.5,M,Маруф Сабиров,SBD
Yes,Wraps,2,Aleksandr Abdullaev,Amateur Open,1980,Russia,81.7,160,170,182.5,182.5,120,130,-135,130,200,-230,240,240,552.5,82.5,M,Александр Абдуллаев,SBD
Yes,Wraps,3,Pavel Bogutskiy,Amateur Open,1989,Russia,82,165,172.5,180,180,120,-130,-130,120,162.5,172.5,-180,172.5,472.5,82.5,M,Павел Богуцкий,SBD
Yes,Wraps,DQ,Ivan Lugovtsov,Amateur Open,1992,Russia,80.8,-150,150,160,160,-105,-110,-110,,,,,,,82.5,M,Иван Луговцов,SBD
Yes,Wraps,DQ,Stanislav Stasevich,Amateur Open,1992,Russia,89.6,190,-200,200,200,-130,-130,-130,,,,,,,90,M,Станислав Стасевич,SBD
Yes,Wraps,1,Vyacheslav Rozhnov,Amateur Masters 40-44,1975,Russia,87.1,-120,-120,120,120,90,95,-100,95,130,140,150,150,365,90,M,Вячеслав Рожнов,SBD
Yes,Wraps,1,Vladimir Mironov,Amateur Open,1985,Belarus,96.6,180,190,200,200,145,155,-162.5,155,210,220,235,235,590,100,M,,SBD
Yes,Wraps,2,Igor Yakurnov,Amateur Open,1983,Russia,94.1,-210,-210,210,210,160,165,172.5,172.5,-200,-205,205,205,587.5,100,M,Игорь Якурнов,SBD
Yes,Wraps,3,Ilya Senkin,Amateur Open,1992,Russia,97,-175,175,182.5,182.5,145,-155,-155,145,190,-200,200,200,527.5,100,M,Илья Сенькин,SBD
Yes,Wraps,1,Timofey Ivanov,Amateur Open,1985,Russia,104.6,185,195,200,200,150,-155,,150,210,215,-220,215,565,110,M,Тимофей Иванов,SBD
Yes,Wraps,1,Vladimir Chistyakov,Amateur Open,1987,Russia,123.2,-170,190,210,210,-125,135,-145,135,170,205,215,215,560,125,M,Владимир Чистяков,SBD
Yes,Single-ply,DQ,Roman Durnov,Amateur Open,1986,Russia,74.9,250,-270,270,270,-165,-165,-165,,,,,,,75,M,Роман Дурнов,SBD
Yes,Single-ply,1,Evgeniy Timakov,Amateur Juniors 20-23,1993,Russia,79.7,-230,230,-240,230,-140,140,-150,140,200,220,-240,220,590,82.5,M,Евгений Тимаков,SBD
Yes,Single-ply,2,Evgeniy Tagirov,Amateur Juniors 20-23,1994,Russia,80.1,-180,180,200,200,100,110,120,120,-190,190,210,210,530,82.5,M,Евгений Тагиров,SBD
Yes,Single-ply,1,Ruslan Tavtilov,Amateur Open,1980,Russia,81.8,-230,230,240,240,140,150,-160,150,220,-230,230,230,620,82.5,M,Руслан Тавтилов,SBD
Yes,Single-ply,2,Evgeniy Timakov,Amateur Open,1993,Russia,79.7,-230,230,-240,230,-140,140,-150,140,200,220,-240,220,590,82.5,M,Евгений Тимаков,SBD
Yes,Single-ply,1,Pavel Beketov,Amateur Open,1989,Russia,98.6,-240,240,250,250,-160,160,170,170,220,-240,240,240,660,100,M,Павел Бекетов,SBD
No,Wraps,1,Anna Romanova,Pro Open,1983,Russia,56,80,85,90,90,45,-47.5,47.5,47.5,-110,112.5,120,120,257.5,56,F,Анна Романова,SBD
No,Wraps,1,Dmitriy Ulyankin,Pro Open,1981,Russia,81.6,150,160,-170,160,115,120,-122.5,120,175,-185,-185,175,455,82.5,M,Дмитрий Ульянкин,SBD
No,Wraps,1,Dmitriy Chernyshev,Pro Open,1974,Russia,93.6,220,230,237.5,237.5,170,-177.5,177.5,177.5,260,-270,277.5,277.5,692.5,100,M,Дмитрий Чернышев,SBD
No,Wraps,2,Anton Rusalenko,Pro Open,1987,Russia,99.5,175,187.5,-195,187.5,135,145,152.5,152.5,230,250,265,265,605,100,M,Антон Русаленко,SBD
No,Wraps,3,Vyacheslav Artamonov,Pro Open,1987,Russia,95.7,180,190,-200,190,145,155,160,160,225,235,245,245,595,100,M,Вячеслав Артамонов,SBD
No,Wraps,1,Aleksandr Tsvetkov,Pro Masters 55-59,1957,Russia,96.6,200,210,217.5,217.5,117.5,122.5,,122.5,230,250,255,255,595,100,M,Александр Цветков,SBD
Yes,Raw,1,Valeriya Dankova,Amateur Juniors 20-23,1993,Russia,46.5,,,,,55,-57.5,-57.5,55,,,,,55,48,F,Валерия Данкова,B
Yes,Raw,1,Irina Lebedinskaya,Amateur Open,1978,Russia,52,,,,,35,40,-45,40,,,,,40,52,F,Ирина Лебединская,B
Yes,Raw,1,Marina Chernykh,Amateur Open,1986,Russia,58.4,,,,,37.5,-40,-42.5,37.5,,,,,37.5,60,F,Марина Черных,B
Yes,Raw,DQ,Elena Razumova,Amateur Open,1977,Russia,58.2,,,,,-60,-65,-65,,,,,,,60,F,Елена Разумова,B
Yes,Raw,1,Elena Laur,Amateur Open,1983,Russia,64.1,,,,,57.5,-60,-60,57.5,,,,,57.5,67.5,F,Елена Лаур,B
Yes,Raw,2,Alla Isakova,Amateur Open,1990,Russia,66,,,,,40,45,-52.5,45,,,,,45,67.5,F,Алла Исакова,B
Yes,Raw,1,Irina Romasenko,Amateur Masters 40-44,1975,Russia,64.8,,,,,75,-80,-80,75,,,,,75,67.5,F,Ирина Ромасенко,B
Yes,Raw,1,Gurgen Vartanyan,Amateur Open,1986,Russia,58.3,,,,,90,100,-102.5,100,,,,,100,60,M,Гурген Вартанян,B
Yes,Raw,2,Andrey Nikiforov,Amateur Open,1987,Russia,58.8,,,,,97.5,100,-102.5,100,,,,,100,60,M,Андрей Никифоров,B
Yes,Raw,1,Sergey Morozov,Amateur Teen 16-17,1999,Russia,66.9,,,,,125,130.5,135,135,,,,,135,67.5,M,Сергей Морозов,B
Yes,Raw,1,Aleksandr Shepelev,Amateur Open,1988,Russia,67,,,,,120,125,-132.5,125,,,,,125,67.5,M,Александр Шепелев,B
Yes,Raw,2,Sergey Kachanov,Amateur Open,1982,Russia,64.3,,,,,70,75,,75,,,,,75,67.5,M,Сергей Качанов,B
Yes,Raw,1,Kirill Garkavyy,Amateur Teen 13-15,2001,Russia,71,,,,,100,-105,-105,100,,,,,100,75,M,Кирилл Гарькавый,B
Yes,Raw,1,Dmitriy Glushonkov,Amateur Juniors 20-23,1996,Russia,73.1,,,,,100,-105,-105,100,,,,,100,75,M,Дмитрий Глушонков,B
Yes,Raw,1,Namig Gabuev,Amateur Open,1989,Russia,74.6,,,,,150,160,-165,160,,,,,160,75,M,Намиг Габуев,B
Yes,Raw,2,Dmitriy Maltsev,Amateur Open,1983,Russia,74.6,,,,,140,150,-155,150,,,,,150,75,M,Дмитрий Мальцев,B
Yes,Raw,3,Igor Nikulin,Amateur Open,1975,Russia,72.7,,,,,120,130,-135,130,,,,,130,75,M,Игорь Никулин,B
Yes,Raw,4,Yuriy Bedov,Amateur Open,1980,Russia,72.9,,,,,117.5,122.5,-127.5,122.5,,,,,122.5,75,M,Юрий Бедов,B
Yes,Raw,5,Yaroslav Rak,Amateur Open,1986,Russia,73.8,,,,,110,117.5,-125,117.5,,,,,117.5,75,M,Ярослав Рак,B
Yes,Raw,DQ,Aleksey Andrianov,Amateur Open,1978,Russia,74.6,,,,,-105,-115,-115,,,,,,,75,M,Алексей Андрианов,B
Yes,Raw,DQ,Andrey Plotnikov,Amateur Open,1986,Russia,74.9,,,,,-135,-135,-135,,,,,,,75,M,Андрей Плотников,B
Yes,Raw,1,Sergei Ljadov,Amateur Masters 55-59,1956,Estonia,73.1,,,,,80,85,87.5,87.5,,,,,87.5,75,M,,B
Yes,Raw,DQ,Kirill Averin,Amateur Teen 13-15,2001,Russia,77.9,,,,,-65,-65,-72.5,,,,,,,82.5,M,Кирилл Аверин,B
Yes,Raw,1,Dmitriy Vaskov,Amateur Juniors 20-23,1993,Russia,80.4,,,,,-105,-107.5,107.5,107.5,,,,,107.5,82.5,M,Дмитрий Васьков,B
Yes,Raw,DQ,Maksim Strilchenko,Amateur Juniors 20-23,1993,Russia,78.8,,,,,-130,-135,-135,,,,,,,82.5,M,Максим Стрильченко,B
Yes,Raw,1,Sergey Biryukov #2,Amateur Open,1982,Russia,81.2,,,,,155,162.5,-167.5,162.5,,,,,162.5,82.5,M,Сергей Бирюков,B
Yes,Raw,2,Igor Kukartsev,Amateur Open,1986,Russia,81.1,,,,,150,-155,-155,150,,,,,150,82.5,M,Игорь Кукарцев,B
Yes,Raw,3,Aleksandr Ligay,Amateur Open,1987,Russia,79.9,,,,,137.5,142.5,145,145,,,,,145,82.5,M,Александр Лигай,B
Yes,Raw,4,Vadim Chirkin,Amateur Open,1992,Belarus,75.4,,,,,120,127.5,-142.5,127.5,,,,,127.5,82.5,M,,B
Yes,Raw,5,Kirill Isakov,Amateur Open,1990,Russia,80.7,,,,,-112.5,112.5,117.5,117.5,,,,,117.5,82.5,M,Кирилл Исаков,B
Yes,Raw,6,Anton Pleshivtsev,Amateur Open,1989,Russia,80.7,,,,,80,87.5,-102.5,87.5,,,,,87.5,82.5,M,Антон Плешивцев,B
Yes,Raw,DQ,Kirill Danilov,Amateur Open,1978,Russia,79.5,,,,,-127.5,-127.5,-127.5,,,,,,,82.5,M,Кирилл Данилов,B
Yes,Raw,DQ,Georgiy Sukachev,Amateur Masters 40-44,1973,Russia,78,,,,,-120,-120,-120,,,,,,,82.5,M,Георгий Сукачев,B
Yes,Raw,1,Dmitriy Nesterov,Amateur Juniors 20-23,1994,Russia,86.7,,,,,132.5,-135,-135,132.5,,,,,132.5,90,M,Дмитрий Нестеров,B
Yes,Raw,1,Avetik Mardoyan,Amateur Open,1992,Russia,89.9,,,,,175,180,185,185,,,,,185,90,M,Аветик Мардоян,B
Yes,Raw,2,Aleksey Kutsevich,Amateur Open,1983,Armenia,89.7,,,,,155,162.5,-167.5,162.5,,,,,162.5,90,M,,B
Yes,Raw,3,Sergey Romanov,Amateur Open,1985,Russia,86.8,,,,,140,145,-152.5,145,,,,,145,90,M,Сергей Романов,B
Yes,Raw,4,Rasim Gasanov,Amateur Open,1990,Russia,87.7,,,,,120,-125,-125,120,,,,,120,90,M,Расим Гасанов,B
Yes,Raw,1,Yuriy Efremov,Amateur Masters 40-44,1972,Russia,88.6,,,,,170,180,185,185,,,,,185,90,M,Юрий Ефремов,B
Yes,Raw,1,Igor Ivanov #1,Amateur Masters 45-49,1969,Russia,88.9,,,,,110,-122.5,-122.5,110,,,,,110,90,M,Игорь Иванов,B
Yes,Raw,1,Dmitriy Ivanov #23,Amateur Juniors 20-23,1995,Russia,92.5,,,,,132.5,140,145,145,,,,,145,100,M,Дмитрий Иванов,B
Yes,Raw,1,Nikolay Anisimov,Amateur Open,1981,Russia,96.8,,,,,185,-192.5,-192.5,185,,,,,185,100,M,Николай Анисимов,B
Yes,Raw,2,Roman Kholod,Amateur Open,1991,Russia,99.3,,,,,175,-185,-185,175,,,,,175,100,M,Роман Холод,B
Yes,Raw,3,Vladimir Mironov,Amateur Open,1985,Belarus,96.6,,,,,155,160,162.5,162.5,,,,,162.5,100,M,,B
Yes,Raw,4,Vladimir Dudnik,Amateur Open,1988,Russia,95.9,,,,,-130,-140,140,140,,,,,140,100,M,Владимир Дудник,B
Yes,Raw,1,Nikolay Romasenko,Amateur Masters 40-44,1973,Russia,98.2,,,,,155,160,170,170,,,,,170,100,M,Николай Ромасенко,B
Yes,Raw,2,Denis Shumeyko,Amateur Masters 40-44,1975,Russia,93.1,,,,,150,-155,,150,,,,,150,100,M,Денис Шумейко,B
Yes,Raw,1,Aleksandr Karpov,Amateur Open,1982,Russia,107.9,,,,,165,170,-175,170,,,,,170,110,M,Александр Карпов,B
Yes,Raw,2,Kirill Demidov,Amateur Open,1988,Russia,105.9,,,,,145,155,-160,155,,,,,155,110,M,Кирилл Демидов,B
Yes,Raw,3,Ilya Shapovalov,Amateur Open,1989,Russia,109.1,,,,,130,-137.5,-137.5,130,,,,,130,110,M,Илья Шаповалов,B
Yes,Raw,1,Gena Svetlov,Amateur Masters 40-44,1976,Russia,105.7,,,,,140,145,150,150,,,,,150,110,M,Гена Светлов,B
Yes,Raw,1,Pavel Perov,Amateur Open,1966,Russia,117.1,,,,,185,192.5,,192.5,,,,,192.5,125,M,Павел Перов,B
Yes,Raw,2,Maksim Vladimirov,Amateur Open,1981,Russia,112.9,,,,,-177.5,180,185,185,,,,,185,125,M,Максим Владимиров,B
Yes,Raw,3,Pavel Zhdanov,Amateur Open,1980,Russia,118.3,,,,,185,-190,-190,185,,,,,185,125,M,Павел Жданов,B
Yes,Raw,4,Sergey Matveev,Amateur Open,1991,Russia,114.5,,,,,160,-170,170,170,,,,,170,125,M,Сергей Матвеев,B
Yes,Raw,5,Aleksandr Zhukov,Amateur Open,1980,Belarus,120.8,,,,,-160,-170,170,170,,,,,170,125,M,,B
Yes,Raw,1,Pavel Perov,Amateur Masters 50-54,1966,Russia,117.1,,,,,185,192.5,,192.5,,,,,192.5,125,M,Павел Перов,B
Yes,Raw,1,Boris Trofimov,Amateur Masters 40-44,1972,Russia,150.1,,,,,-220,220,-230,220,,,,,220,140+,M,Борис Трофимов,B
Yes,Single-ply,1,Mariya Serdyuchenko,Amateur Open,1992,Russia,56.8,,,,,67.5,72.5,-75,72.5,,,,,72.5,60,F,Мария Сердюченко,B
Yes,Single-ply,DQ,Yuriy Tikhov,Amateur Open,1983,Russia,77.8,,,,,-152.5,-152.5,-162.5,,,,,,,82.5,M,Юрий Тихов,B
Yes,Single-ply,1,Petr Golubev,Amateur Open,1990,Russia,89.3,,,,,150,160,-165,160,,,,,160,90,M,Петр Голубев,B
Yes,Single-ply,1,Aleksandr Stelmakh,Amateur Open,1981,Belarus,91.3,,,,,130,140,-162.5,140,,,,,140,100,M,,B
No,Raw,1,Galina Saburova,Pro Masters 40-44,1976,Russia,67.5,,,,,-50,52.5,-55,52.5,,,,,52.5,67.5,F,Галина Сабурова,B
No,Raw,1,Alizhan Eshchanov,Pro Masters 40-44,1974,Russia,61.5,,,,,82.5,-87.5,-90,82.5,,,,,82.5,67.5,M,Алижан Ешчанов,B
No,Raw,1,Pavel Shneydman,Pro Open,1987,Russia,71.5,,,,,130,-140,-140,130,,,,,130,75,M,Павел Шнейдман,B
No,Raw,1,Evgeniy Stepura,Pro Open,1983,Russia,81.2,,,,,135,-145,-145,135,,,,,135,82.5,M,Евгений Степура,B
No,Raw,DQ,Nikita Krymin,Pro Open,1987,Russia,82,,,,,-100,-100,-100,,,,,,,82.5,M,Никита Крымин,B
No,Raw,1,Aleksandr Mikhaylov,Pro Masters 55-59,1958,Russia,81.9,,,,,80,85,-87.5,85,,,,,85,82.5,M,Александр Михайлов,B
No,Raw,DQ,Nikita Kolpikov,Pro Juniors 20-23,1994,Russia,98.1,,,,,-175,-180,-180,,,,,,,100,M,Никита Колпиков,B
No,Raw,1,Ivan Kalininskiy,Pro Open,1990,Russia,97,,,,,205,215,220,220,,,,,220,100,M,Иван Калининский,B
No,Raw,2,Ivan Solntsev,Pro Open,1974,Russia,99.5,,,,,-190,190,-200,190,,,,,190,100,M,Иван Солнцев,B
No,Raw,3,Andrey Khomenko,Pro Open,1985,Russia,99.1,,,,,170,-180,180,180,,,,,180,100,M,Андрей Хоменко,B
No,Raw,4,Vadim Tregubov,Pro Open,1991,Russia,98.6,,,,,140,-150,-165,140,,,,,140,100,M,Вадим Трегубов,B
No,Raw,1,Ivan Solntsev,Pro Masters 40-44,1974,Russia,99.5,,,,,-190,190,-200,190,,,,,190,100,M,Иван Солнцев,B
No,Raw,1,Vasiliy Kolybelin,Pro Open,1976,Russia,104,,,,,190,-200,205,205,,,,,205,110,M,Василий Колыбелин,B
No,Raw,2,Yan Timofeev,Pro Open,1992,Russia,109.4,,,,,190,200,-205,200,,,,,200,110,M,Ян Тимофеев,B
No,Raw,3,Aleksandr Komlev,Pro Open,1980,Russia,104.5,,,,,-152.5,152.5,-172.5,152.5,,,,,152.5,110,M,Александр Комлев,B
No,Raw,DQ,Vladimir Ivanov,Pro Open,1979,Russia,102.7,,,,,-185,-185,-197.5,,,,,,,110,M,Владимир Иванов,B
No,Raw,1,Denis Anikin,Pro Masters 40-44,1974,Russia,107.6,,,,,-185,-190,190,190,,,,,190,110,M,Денис Аникин,B
No,Raw,1,Viktor Smyshlyaev,Pro Masters 50-54,1962,Russia,105,,,,,130,140,145,145,,,,,145,110,M,Виктор Смышляев,B
No,Raw,1,Aleksandr Efimenkov,Pro Masters 55-59,1958,Russia,108.3,,,,,197.5,-202.5,-205,197.5,,,,,197.5,110,M,Александр Ефименков,B
No,Single-ply,1,Sergey Sokolov,Pro Juniors 20-23,1993,Russia,89.3,,,,,240,250,-272.5,250,,,,,250,90,M,Сергей Соколов,B
Yes,Single-ply,1,Roman Durnov,Amateur Open,1986,Russia,74.9,,,,,,,,,210,235,-242.5,235,235,75,M,Роман Дурнов,D
Yes,Raw,1,Yuliya Mosyakova,Amateur Open,1994,Russia,51.2,,,,,,,,,-82.5,82.5,-87.5,82.5,82.5,52,F,Юлия Мосякова,D
Yes,Raw,1,Yuliya Abramova,Amateur Open,1982,Russia,55.3,,,,,,,,,115,122.5,127.5,127.5,127.5,56,F,Юлия Абрамова,D
Yes,Raw,2,Anastasiya Zhdanova,Amateur Open,1980,Russia,55.7,,,,,,,,,115,122.5,-127.5,122.5,122.5,56,F,Анастасия Жданова,D
Yes,Raw,1,Lyubov Senkina,Amateur Open,1986,Russia,58.4,,,,,,,,,110,-115,,110,110,60,F,Любовь Сенькина,D
Yes,Raw,2,Olga Kuznetsova,Amateur Open,1983,Russia,59.7,,,,,,,,,110,-117.5,-117.5,110,110,60,F,Ольга Кузнецова,D
Yes,Raw,3,Marina Chernykh,Amateur Open,1986,Russia,58.4,,,,,,,,,-80,80,-90,80,80,60,F,Марина Черных,D
Yes,Raw,1,Olga Kurbatova,Amateur Open,1982,Russia,74.7,,,,,,,,,125,-135,-135,125,125,75,F,Ольга Курбатова,D
Yes,Raw,1,Mikhail Gavrilchuk,Amateur Masters 40-44,1975,Russia,55.1,,,,,,,,,-132.5,147.5,162.5,162.5,162.5,56,M,Михаил Гаврильчук,D
Yes,Raw,1,Oleg Fedotov,Amateur Open,1990,Russia,56.6,,,,,,,,,120,-132.5,-132.5,120,120,60,M,Олег Федотов,D
Yes,Raw,1,Dmitriy Kovenskiy,Amateur Juniors 20-23,1995,Russia,72.4,,,,,,,,,180,-205,205,205,205,75,M,Дмитрий Ковенский,D
Yes,Raw,1,Oleg Lilyavin,Amateur Open,1979,Russia,69.2,,,,,,,,,215,225,232.5,232.5,232.5,75,M,Олег Лилявин,D
Yes,Raw,2,Yuriy Bedov,Amateur Open,1980,Russia,72.9,,,,,,,,,177.5,202.5,205,205,205,75,M,Юрий Бедов,D
Yes,Raw,1,Aleksandr Serebryakov,Amateur Open,1992,Russia,79.3,,,,,,,,,215,225,235,235,235,82.5,M,Александр Серебряков,D
Yes,Raw,2,Konstantin Ershov,Amateur Open,1989,Russia,82.3,,,,,,,,,185,200,215,215,215,82.5,M,Константин Ершов,D
Yes,Raw,1,Stanislav Stasevich,Amateur Open,1992,Russia,89.6,,,,,,,,,230,-255,-255,230,230,90,M,Станислав Стасевич,D
Yes,Raw,2,Vasiliy Belov,Amateur Open,1987,Russia,89.5,,,,,,,,,-172.5,175,182.5,182.5,182.5,90,M,Василий Белов,D
Yes,Raw,1,Aleksey Dyubarev,Amateur Open,1975,Russia,92.5,,,,,,,,,-230,245,-260,245,245,100,M,Алексей Дюбарев,D
Yes,Raw,2,Vladimir Mironov,Amateur Open,1985,Belarus,96.6,,,,,,,,,-232.5,-232.5,232.5,232.5,232.5,100,M,,D
Yes,Raw,DQ,Vachagan Bagdagyulyan,Amateur Open,1988,Armenia,95.5,,,,,,,,,-252.5,-252.5,-252.5,,,100,M,,D
Yes,Raw,1,Anatoliy Yakovlev,Amateur Masters 40-44,1973,Russia,97,,,,,,,,,205,210,215,215,215,100,M,Анатолий Яковлев,D
Yes,Raw,1,Ilya Shapovalov,Amateur Open,1989,Russia,109.1,,,,,,,,,220,-230,230,230,230,110,M,Илья Шаповалов,D
Yes,Raw,1,Ilya Lapotko,Amateur Masters 40-44,1974,Russia,109.4,,,,,,,,,207.5,220,240,240,240,110,M,Илья Лапотько,D
No,Raw,1,Tatyana Merezhko,Pro Open,1978,Russia,90,,,,,,,,,210,225,-230,225,225,90,F,Татьяна Мережко,D
No,Raw,1,Stanislav Pronichev,Pro Open,1986,Russia,73.6,,,,,,,,,180,195,-210,195,195,75,M,Станислав Проничев,D
No,Raw,1,Konstantin Fomichev,Pro Open,1985,Russia,82,,,,,,,,,230,245,-255,245,245,82.5,M,Константин Фомичев,D
No,Raw,1,Vladimir Yakovenko,Pro Juniors 20-23,1994,Russia,85.7,,,,,,,,,-220,225,230,230,230,90,M,Владимир Яковенко,D
No,Raw,1,Georgii Taranukhin,Pro Masters 45-49,1968,Russia,88.6,,,,,,,,,245,257.5,-266,257.5,257.5,90,M,Георгий Таранухин,D
No,Raw,1,Konstantin Suvorov,Pro Open,1991,Russia,97.3,,,,,,,,,-255,260,-270,260,260,100,M,Константин Суворов,D
No,Raw,1,Sergey Malkov,Pro Open,1983,Russia,109.5,,,,,,,,,230,252.5,262.5,262.5,262.5,110,M,Сергей Мальков,D
No,Raw,2,Aleksey Vasilyev,Pro Open,1971,Russia,106,,,,,,,,,215,225,-232.5,225,225,110,M,Алексей Васильев,D
No,Raw,1,Aleksey Vasilyev,Pro Masters 45-49,1971,Russia,106,,,,,,,,,215,225,-232.5,225,225,110,M,Алексей Васильев,D
No,Raw,1,Viktor Smyshlyaev,Pro Masters 50-54,1962,Russia,105,,,,,,,,,-180,190,200,200,200,110,M,Виктор Смышляев,D
