Place,Sex,Name,CyrillicName,BodyweightKg,Bench1Kg,Bench2Kg,Bench3Kg,Best3BenchKg,Bench4Kg,Deadlift1Kg,Deadlift2Kg,Deadlift3Kg,Best3DeadliftKg,Deadlift4Kg,TotalKg,WeightClassKg,Event,Equipment,Tested,Division,Age,BirthDate
1,F,Karina Kovalenko,Карина Коваленко,50.4,42,45,-47.5,45,,90,95,100,100,,145,52,BD,Raw,No,Open,33,1984-08-21
1,F,Irina Erogova,Ирина Ерогова,62,30,40,-45,40,,90,100,112,112,,152.5,67.5,BD,Raw,No,Open,25,1992-11-27
1,F,Aleksandra Shchebeko,Александра Щебеко,82.5,40,42.5,45,45,,100,110,115,115,,160,82.5,BD,Raw,No,Teen 13-15,15,2002-09-14
1,M,Maksim Kosarev,Максим Косарев,48.3,35,40,45,45,,65,70,77.5,77.5,,122.5,52,BD,Raw,No,Youth,12,2005-09-21
2,M,Roman Golubev,Роман Голубев,42.5,37.5,40,42.5,42.5,,65,70,72.5,72.5,,115,52,BD,Raw,No,Teen 13-15,15,2002-06-20
3,M,Aleksey Kravchuk,Алексей Кравчук,47.1,35,-37.5,-40,35,,65,70,75,75,,110,52,BD,Raw,No,Youth,12,2005-06-30
4,M,Aleksandr Salopurov,Александр Салопуров,39,30,-35,-35,30,,70,72.5,75,75,,105,52,BD,Raw,No,Youth,11,2006-10-13
5,M,Artem Tikhopoev,Артем Тихопоев,35.6,25,27.5,-30,27.5,,70,-75,-75,70,,97.5,52,BD,Raw,No,Youth,11,2006-07-24
1,M,Sergey Zaprudov,Сергей Запрудов,58.6,67.5,70,72.5,72.5,,90,110,117.5,117.5,,190,60,BD,Raw,No,Teen 13-15,15,2002-06-03
1,M,Denis Avdeev,Денис Авдеев,67.4,37.5,40,-42.5,40,,75,82.5,87.5,87.5,,127.5,67.5,BD,Raw,No,Youth,12,2005-04-29
1,M,Dmitriy Pishchugin,Дмитрий Пищугин,71.4,65,70,72.5,72.5,,95,100,107.5,107.5,,180,75,BD,Raw,No,Teen 16-17,17,2000-09-22
1,M,Vadim Shchemenenko,Вадим Щемененко,75,110,115,,115,,180,200,-210,200,,315,75,BD,Raw,No,Open,29,1989-01-21
2,M,Maksim Titov,Максим Титов,71.9,100,-105,-105,100,,140,150,155,155,,255,75,BD,Raw,No,Open,35,1983-01-11
1,M,Kirill Tsaparov,Кирилл Цапаров,83,100,110,120,120,,250,-275,-275,250,,370,90,BD,Raw,No,Open,33,1984-09-30
1,M,Andrey Sadikov,Андрей Садиков,97.7,112.5,117.5,-122.5,117.5,,170,185,200,200,,317.5,100,BD,Raw,No,Open,29,1988-03-27
1,M,Dmitriy Karelin,Дмитрий Карелин,109.8,180,185,190,190,,230,250,-270,250,,440,110,BD,Raw,No,Open,29,1988-06-08
2,M,Andrey Muratov,Андрей Муратов,101.9,160,165,172.5,172.5,,220,240,-250,240,,412.5,110,BD,Raw,No,Open,29,1988-03-27
1,F,Irina Bukhantseva,Ирина Буханцева,58.1,-42.5,45,47.5,47.5,,,,,,,47.5,60,B,Raw,No,Open,46,1971-11-24
1,F,Aleksandra Shchebeko,Александра Щебеко,82.5,40,42.5,45,45,,,,,,,45,82.5,B,Raw,No,Teen 13-15,15,2002-09-14
1,M,Maksim Kosarev,Максим Косарев,48.3,35,40,45,45,,,,,,,45,52,B,Raw,No,Youth,12,2005-09-21
2,M,Aleksey Kravchuk,Алексей Кравчук,47.1,35,-37.5,-40,35,,,,,,,35,52,B,Raw,No,Youth,12,2005-06-30
1,M,Dmitriy Pishchugin,Дмитрий Пищугин,71.4,65,70,72.5,72.5,,,,,,,72.5,75,B,Raw,No,Teen 16-17,17,2000-09-22
1,M,Anton Bukhantsev,Антон Буханцев,72.9,115,120,-122.5,120,,,,,,,120,75,B,Raw,No,Open,26,1991-06-22
2,M,Aleksey Davydov,Алексей Давыдов,74.1,110,115,-117.5,115,,,,,,,115,75,B,Raw,No,Open,29,1988-06-14
3,M,Vadim Shchemenenko,Вадим Щемененко,75,110,115,,115,,,,,,,115,75,B,Raw,No,Open,29,1989-01-21
1,M,Maksim Trubachev,Максим Трубачев,79.9,-100,-100,100,100,,,,,,,100,82.5,B,Raw,No,Open,31,1986-06-27
1,M,Aleksey Sheyn,Алексей Шейн,80.8,-142.5,-142.5,142.5,142.5,,,,,,,142.5,82.5,B,Raw,No,Masters 40-44,44,1973-04-07
1,M,Sergey Gopko,Сергей Гопко,80,125,-130,132.5,132.5,,,,,,,132.5,82.5,B,Raw,No,Masters 60-64,61,1956-06-27
1,M,Sergey Zadikyan,Сергей Задикян,87.4,125,-130,-130,125,,,,,,,125,90,B,Raw,No,Juniors 20-23,20,1997-07-14
2,M,Sergey Kulikov,Сергей Куликов,83.7,100,110,-120,110,,,,,,,110,90,B,Raw,No,Juniors 20-23,20,1997-07-07
1,M,Vladislav Volchanov,Владислав Волчанов,87,170,180,185,185,,,,,,,185,90,B,Raw,No,Open,42,1975-10-31
2,M,Nikolay Kostev,Николай Костев,87.5,150,160,165,165,,,,,,,165,90,B,Raw,No,Open,58,1959-12-17
3,M,Aleksey Kondakov,Алексей Кондаков,89.9,162.5,-170,-170,162.5,,,,,,,162.5,90,B,Raw,No,Open,47,1970-07-22
1,M,Vladislav Volchanov,Владислав Волчанов,87,170,180,-185,180,,,,,,,180,90,B,Raw,No,Masters 40-44,42,1975-10-31
2,M,Aleksey Kondakov,Алексей Кондаков,89.9,162.5,-170,-170,162.5,,,,,,,162.5,90,B,Raw,No,Masters 45-49,47,1970-07-22
1,M,Nikolay Kostev,Николай Костев,87.5,150,160,165,165,,,,,,,165,90,B,Raw,No,Masters 55-59,58,1959-12-17
1,M,Sergey Gavrilyuk,Сергей Гаврилюк,99.3,180,185,-190,185,,,,,,,185,100,B,Raw,No,Open,29,1988-09-02
2,M,Andrey Gruzdev,Андрей Груздев,99.7,157.5,160,162.5,162.5,,,,,,,162.5,100,B,Raw,No,Open,29,1988-05-11
3,M,Rashid Norkulov,Рашид Норкулов,96.4,142.5,160,-162.5,160,,,,,,,160,100,B,Raw,No,Open,32,1985-05-13
DQ,M,Ivan Trukhin,Иван Трухин,99,-150,-150,-150,,,,,,,,,100,B,Raw,No,Open,40,1977-05-21
3,M,Valeriy Terentev,Валерий Терентьев,97,115,120,125,125,,,,,,,125,100,B,Raw,No,Masters 50-54,51,1966-07-09
1,M,Dmitriy Karelin,Дмитрий Карелин,109.8,180,185,190,190,,,,,,,190,110,B,Raw,No,Open,29,1988-07-08
2,M,Pavel Bukhantsev,Павел Буханцев,109.2,172.5,-180,180,180,,,,,,,180,110,B,Raw,No,Open,48,1969-08-02
3,M,Vitaliy Bondarev #2,Виталий Бондарев,106.9,150,155,-160,155,,,,,,,155,110,B,Raw,No,Open,39,1978-03-30
DQ,M,Ivan Bogatov,Иван Богатов,102.8,-147.5,-147.5,-147.5,,,,,,,,,110,B,Raw,No,Open,27,1990-07-11
1,M,Pavel Bukhantsev,Павел Буханцев,109.2,172.5,-180,180,180,,,,,,,180,110,B,Raw,No,Masters 45-49,48,1969-08-02
2,M,Vataliy Gorshkov,Ваталий Горшков,101.9,150,155,-160,155,,,,,,,155,110,B,Raw,No,Masters 40-44,41,1976-12-14
3,M,Aleksandr Samitov,Александр Самитов,107,150,-157.5,-157.5,150,,,,,,,150,110,B,Raw,No,Masters 40-44,42,1975-04-30
1,M,Aleksandr Salopurov,Александр Салопуров,39,35,40,-45,40,,,,,,,40,52,B,Multi-ply,No,Youth,11,2006-10-13
2,M,Artem Tikhopoev,Артем Тихопоев,35.6,30,35,-40,35,,,,,,,35,52,B,Multi-ply,No,Youth,11,2006-07-24
1,M,Ivan Staroverov,Иван Староверов,89,-210,215,225,225,,,,,,,225,90,B,Multi-ply,No,Open,46,1971-11-24
1,M,Maksim Shirokov,Максим Широков,99,195,-205,205,205,,,,,,,205,100,B,Multi-ply,No,Open,34,1983-10-29
1,M,Ivan Bogatov,Иван Богатов,102.8,170,180,190,190,,,,,,,190,110,B,Multi-ply,No,Open,27,1990-07-11
1,M,Aleksey Cherstvov,Алексей Черствов,117.6,240,250,265,265,,,,,,,265,125,B,Multi-ply,No,Open,36,1981-04-16
1,F,Viktoriya Persidskaya,Виктория Персидская,55.3,,,,,,75,80,85,85,,85,56,D,Raw,No,Open,33,1984-11-16
1,F,Alina Myasoedova,Алина Мясоедова,59.3,,,,,,82.5,102.5,110,110,,110,60,D,Raw,No,Open,29,1988-06-26
1,F,Anna Belskaya,Анна Бельская,63.5,,,,,,80,90,-100,90,,90,67.5,D,Raw,No,Teen 13-15,15,2002-10-14
1,F,Natalya Lobanova,Наталья Лобанова,63.4,,,,,,100,-110,-110,100,,100,67.5,D,Raw,No,Open,26,1991-03-18
1,F,Tatyana Yarukova,Татьяна Ярукова,74,,,,,,100,107.5,115,115,,115,75,D,Raw,No,Open,27,1990-12-19
1,F,Aleksandra Shchebeko,Александра Щебеко,82.5,,,,,,100,110,115,115,,115,82.5,D,Raw,No,Teen 13-15,15,2002-09-14
1,M,Maksim Kosarev,Максим Косарев,48.3,,,,,,65,70,77.5,77.5,,77.5,52,D,Raw,No,Youth,12,2005-09-21
2,M,Aleksandr Salopurov,Александр Салопуров,39,,,,,,70,72.5,75,75,,75,52,D,Raw,No,Youth,11,2006-10-13
3,M,Aleksey Kravchuk,Алексей Кравчук,47.1,,,,,,65,70,75,75,,75,52,D,Raw,No,Youth,12,2005-06-30
4,M,Artem Tikhopoev,Артем Тихопоев,35.6,,,,,,70,-75,-75,70,,70,52,D,Raw,No,Youth,11,2006-07-24
1,M,Sergey Zaprudov,Сергей Запрудов,58.6,,,,,,90,110,117.5,117.5,,117.5,60,D,Raw,No,Teen 13-15,15,2002-06-03
1,M,Vadim Shchemenenko,Вадим Щемененко,75,,,,,,180,200,-210,200,,200,75,D,Raw,No,Open,29,1989-01-21
2,M,Maksim Titov,Максим Титов,71.9,,,,,,140,150,155,155,,155,75,D,Raw,No,Open,35,1983-01-11
1,M,Aleksey Gunin,Алексей Гунин,76.7,,,,,,165,175,-185,175,,175,82.5,D,Raw,No,Open,18,1999-08-22
1,M,Aleksey Sheyn,Алексей Шейн,80.8,,,,,,-207.5,207.5,,207.5,,207.5,82.5,D,Raw,No,Masters 40-44,44,1973-04-07
2,M,Valentin Avramenko,Валентин Авраменко,81.6,,,,,,160,170,-180,170,,170,82.5,D,Raw,No,Masters 45-49,47,1970-07-18
1,M,Stanislav Yarukov,Станислав Яруков,89.2,,,,,,275,-295,-295,275,,275,90,D,Raw,No,Open,27,1990-07-12
2,M,Sergey Zotov,Сергей Зотов,86,,,,,,230,245,252.5,252.5,,252.5,90,D,Raw,No,Open,30,1987-05-11
3,M,Kirill Tsaparov,Кирилл Цапаров,83,,,,,,250,-275,-275,250,,250,90,D,Raw,No,Open,33,1984-09-30
4,M,Semen Fedoseev,Семен Федосеев,89.8,,,,,,200,210,217.5,217.5,,217.5,90,D,Raw,No,Open,25,1992-03-20
5,M,Farkhot Azizov,Фархот Азизов,90,,,,,,200,210,-220,210,,210,90,D,Raw,No,Open,31,1987-01-30
1,M,Dmitriy Karelin,Дмитрий Карелин,109.8,,,,,,230,250,-270,250,,250,110,D,Raw,No,Open,29,1988-06-08
2,M,Dmitriy Avdeev,Дмитрий Авдеев,107.6,,,,,,-230,230,-240,230,,230,110,D,Raw,No,Open,29,1989-01-30
3,M,Vitaliy Bondarev #2,Виталий Бондарев,106.9,,,,,,200,210,-220,210,,210,110,D,Raw,No,Open,39,1978-03-30
1,M,Sergey Kuznetsov,Сергей Кузнецов,123.3,,,,,,225,-230,,225,,225,125,D,Raw,No,Open,40,1977-08-01
