Place,Name,Division,BodyweightKg,Squat1Kg,Squat2Kg,Squat3Kg,Best3SquatKg,Bench1Kg,Bench2Kg,Bench3Kg,Best3BenchKg,Bench4Kg,Deadlift1Kg,Deadlift2Kg,Deadlift3Kg,Best3DeadliftKg,Deadlift4Kg,TotalKg,WeightClassKg,Sex,CyrillicName,BirthYear,Equipment,Tested,Event
1,Sergey Khitrov,O,86.6,-200,200,210,210,160,165,-170,165,,240,260,275,275,,650,90,M,Сергей Хитров,1979,Wraps,No,SBD
1,Evgeniy Solopov,O,108,250,260,-270,260,180,190,195,195,,300,305,-310,305,,760,110,M,Евгений Солопов,1989,Wraps,No,SBD
1,Elena Anikovskaya,O,47.9,65,70,77.5,77.5,50,55,57.5,57.5,,85,92.5,-97.5,92.5,,227.5,48,F,Елена Аниковская,1986,Wraps,Yes,SBD
1,Alina Chertkova,T2,56,-80,80,85,85,47.5,50,-52.5,50,,100,105,110,110,,245,56,F,Алина Черткова,2001,Wraps,Yes,SBD
1,Svetlana Gafina,J,54.9,77.5,85,90,90,50,-57.5,-60,50,,90,-100,-105,90,,230,56,F,Светлана Гафина,1997,Wraps,Yes,SBD
1,Olga Parkhomenko,O,52.8,85,-90,-92.5,85,50,-52.5,-52.5,50,,90,100,-107.5,100,,235,56,F,Ольга Пархоменко,1988,Wraps,Yes,SBD
2,Mariya Sorokopudova,O,53.7,65,-70,70,70,45,47.5,50,50,,-90,90,-107.5,90,,210,56,F,Мария Сорокопудова,1991,Wraps,Yes,SBD
1,Mariya Ukhareva,O,59.1,85,-95,-95,85,60,-65,-65,60,,-110,-110,110,110,,255,60,F,Мария Ухарева,1988,Wraps,Yes,SBD
DQ,Mariya Tsygankova,O,59.6,-100,-100,-105,,,,,,,,,,,,,60,F,Мария Цыганкова,1990,Wraps,Yes,SBD
1,Ekaterina Chuprakova,O,65.5,105,110,115,115,55,57.5,-60,57.5,,115,120,-125,120,,292.5,67.5,F,Екатерина Чупракова,1982,Wraps,Yes,SBD
1,Yana Doroshina,T2,71.7,125,130,132.5,132.5,70,75,-77.5,75,,145,155,160,160,,367.5,75,F,Яна Дорошина,2001,Wraps,Yes,SBD
1,Anna Ivanenko,O,73.6,95,-102.5,102.5,102.5,55,60,65,65,,90,110,115,115,,282.5,75,F,Анна Иваненко,1986,Wraps,Yes,SBD
1,Nikolay Merzlyakov,O,66.8,120,127.5,-135,127.5,102.5,-107.5,-107.5,102.5,,125,-140,-140,125,,355,67.5,M,Николай Мерзляков,1992,Wraps,Yes,SBD
1,Yuriy Nikitin,O,73.7,180,190,-200,190,120,125,,125,,205,215,,215,,530,75,M,Юрий Никитин,1988,Wraps,Yes,SBD
2,Petr Kutilov,O,73.7,145,-160,160,160,92.5,102.5,-107.5,102.5,,162.5,-172.5,-172.5,162.5,,425,75,M,Петр Кутилов,1986,Wraps,Yes,SBD
1,Roman Cherevan,T2,79.6,185,-195,195,195,140,145,-147.5,145,,205,215,225,225,,565,82.5,M,Роман Черевань,1999,Wraps,Yes,SBD
2,Aleksandr Pankratovskiy,T2,80.6,-125,125,130,130,95,102.5,107.5,107.5,,125,140,-157.5,140,,377.5,82.5,M,Александр Панкратовский,2000,Wraps,Yes,SBD
3,Ivan Naymushin,T2,78.3,90,100,110,110,45,52.5,-57.5,52.5,,105,117.5,130,130,,292.5,82.5,M,Иван Наймушин,2001,Wraps,Yes,SBD
1,Andrey Ganichkin,O,82.2,190,-200,200,200,145,150,-155,150,,250,-260,-260,250,,600,82.5,M,Андрей Ганичкин,1984,Wraps,Yes,SBD
2,Aleksandr Borisov,O,81.1,150,-170,175,175,135,145,150,150,,160,175,185,185,,510,82.5,M,Александр Борисов,1989,Wraps,Yes,SBD
3,Igor Shkurenko,O,82.4,170,180,190,190,110,115,-120,115,,190,-202.5,202.5,202.5,,507.5,82.5,M,Игорь Шкуренко,1989,Wraps,Yes,SBD
1,Aleksey Gvozdev,M2,82.1,175,185,192.5,192.5,-112.5,-112.5,112.5,112.5,,202.5,210,212.5,212.5,,517.5,82.5,M,Алексей Гвоздев,1972,Wraps,Yes,SBD
1,Pavel Nikiforov,O,88.9,190,210,-220,210,150,-160,,150,,210,220,240,240,,600,90,M,Павел Никифоров,1985,Wraps,Yes,SBD
1,Denis Maklakov,J,96.5,160,177.5,-195,177.5,122.5,127.5,-130,127.5,,190,-200,,190,,495,100,M,Денис Маклаков,1997,Wraps,Yes,SBD
1,Nikolay Zabelin,O,98,205,215,220,220,150,155,160,160,,250,257.5,-262.5,257.5,,637.5,100,M,Николай Забелин,1985,Wraps,Yes,SBD
2,Dmitriy Korshikov,O,95.9,150,165,170,170,115,120,-125,120,,180,-200,210,210,,500,100,M,Дмитрий Коршиков,1985,Wraps,Yes,SBD
DQ,Konstantin Krasnov,O,96.9,-130,-155,-155,,,,,,,,,,,,,100,M,Константин Краснов,1986,Wraps,Yes,SBD
1,Andrey Andreev,O,101.5,180,200,205,205,170,175,180,180,,210,220,235,235,,620,110,M,Андрей Андреев,1979,Wraps,Yes,SBD
1,Cheslav Targonskiy,M5,101.2,170,180,-190,180,100,110,-115,110,,255,265,275,275,,565,110,M,Чеслав Таргонский,1958,Wraps,Yes,SBD
1,Zakhar Lepeshkin,T2,116.7,-160,-170,170,170,90,100,-110,100,,140,150,160,160,,430,125,M,Захар Лепешкин,2000,Wraps,Yes,SBD
1,Oleg Fedorenko,O,119.6,232.5,240,245,245,165,170,172.5,172.5,,250,265,282.5,282.5,,700,125,M,Олег Федоренко,1989,Wraps,Yes,SBD
1,Yuliya Pyrsina,O,58.6,-130,130,140,140,65,70,-75,70,,-160,160,-172.5,160,,370,60,F,Юлия Пырсина,1985,Raw,No,SBD
1,Mariya Fedosenko,O,66.6,110,120,-130,120,55,60,-65,60,,130,140,145,145,,325,67.5,F,Мария Федосенко,1985,Raw,No,SBD
1,Liya Surzhitskaya,T2,73.1,120,130,-140,130,75,80,85,85,,135,150,-162.5,150,,365,75,F,Лия Суржицкая,1999,Raw,No,SBD
1,Grigoriy Ponomarenko,O,81.5,150,160,165,165,110,-115,115,115,,175,195,210,210,,490,82.5,M,Григорий Пономаренко,1993,Raw,No,SBD
1,Radik Gematdinov,O,85.9,260,275,-285,275,160,172.5,180,180,,270,287.5,-292.5,287.5,,742.5,90,M,Радик Гематдинов,1982,Raw,No,SBD
1,Andrey Medvedev,M5,87.3,120,125,130,130,95,100,102.5,102.5,,125,135,145,145,,377.5,90,M,Андрей Медведев,1954,Raw,No,SBD
1,Aleksey Trofimov,O,98.3,225,245,255,255,170,177.5,-180,177.5,,235,250,267.5,267.5,,700,100,M,Алексей Трофимов,1981,Raw,No,SBD
2,Sergey Kimenshu,O,96.8,265,275,-285,275,142.5,150,152.5,152.5,,210,235,242.5,242.5,,670,100,M,Сергей Кименшу,1982,Raw,No,SBD
3,Roman Kroshkin,O,94.8,-240,240,-262.5,240,132.5,142.5,147.5,147.5,,242.5,255,275,275,,662.5,100,M,Роман Крошкин,1981,Raw,No,SBD
4,Roman Dudnichenko,O,96.3,220,-230,-230,220,140,150,-155,150,,225,230,235,235,,605,100,M,Роман Дудниченко,1978,Raw,No,SBD
1,Marat Savosin,O,107.1,-335,335,-350,335,185,195,200,200,,305,,,305,,840,110,M,Марат Савосин,1990,Raw,No,SBD
2,Pavel Chukhnov,O,108.8,260,280,300,300,165,175,180,180,,270,280,-290,280,,760,110,M,Павел Чухнов,1989,Raw,No,SBD
DQ,Pavel Mikheev,O,106.8,220,230,,230,185,192.5,,192.5,,-285,,,,,,110,M,Павел Михеев,1988,Raw,No,SBD
1,Maksim Surovov,J,124.3,220,230,237.5,237.5,150,160,165,165,,-250,250,262.5,262.5,,665,125,M,Максим Суровов,1996,Raw,No,SBD
1,Andrey Drozhzhin,O,118.6,300,320,340,340,185,195,205,205,,275,285,295,295,,840,125,M,Андрей Дрожжин,1977,Raw,No,SBD
1,Svetlana Sharynkina,J,43.2,57.5,60,62.5,62.5,50,52.5,-55,52.5,,-87.5,87.5,-90,87.5,,202.5,44,F,Светлана Шарынкина,1995,Raw,Yes,SBD
1,Mariya Lukasevich,O,47.3,90,95,,95,40,-45,-45,40,,112.5,117.5,-120,117.5,,252.5,48,F,Мария Лукасевич,1989,Raw,Yes,SBD
1,Irina Zemtsova,O,50.2,95,100,102.5,102.5,50,-55,-55,50,,110,115,-117.5,115,,267.5,52,F,Ирина Земцова,1981,Raw,Yes,SBD
2,Oksana Kopylova,O,50.6,85,90,95,95,37.5,42.5,45,45,,85,-90,90,90,,230,52,F,Оксана Копылова,1989,Raw,Yes,SBD
1,Viktoriya Kusch,J,54,85,90,95,95,57.5,-62.5,62.5,62.5,,105,110,-115,110,,267.5,56,F,Виктория Кущ,1995,Raw,Yes,SBD
1,Natalya Levenkova,O,54.7,-120,120,-130,120,60,62.5,65,65,-66,135,142.5,147.5,147.5,,332.5,56,F,Наталья Левенкова,1988,Raw,Yes,SBD
2,Nadezhda Krasulina,O,54.7,100,110,115,115,60,-65,-65,60,,120,130,-135,130,,305,56,F,Надежда Красулина,1987,Raw,Yes,SBD
1,Viktoriya Epikhina,O,65.2,140,147.5,-152.5,147.5,77.5,82.5,-85,82.5,,142.5,150,157.5,157.5,,387.5,67.5,F,Виктория Епихина,1991,Raw,Yes,SBD
2,Natalya Viktorova,O,66.3,70,77.5,82.5,82.5,47.5,-52.5,52.5,52.5,,80,90,102.5,102.5,,237.5,67.5,F,Наталья Викторова,1985,Raw,Yes,SBD
1,Ekaterina Mamicheva,O,88.2,140,-150,-150,140,65,75,80,80,,140,150,162.5,162.5,,382.5,90,F,Екатерина Мамичева,1979,Raw,Yes,SBD
1,Anton Biryukov,T2,64,180,190,-195,190,90,97.5,100,100,102.5,160,165,170,170,172.5,460,67.5,M,Антон Бирюков,1998,Raw,Yes,SBD
1,Aleksey Gritsan,O,66.9,150,160,165,165,125,130,135,135,,160,170,-175,170,,470,67.5,M,Алексей Грицан,1992,Raw,Yes,SBD
1,Leontiy Sanin,O,66.8,150,-155,-155,150,92.5,95,-97.5,95,,155,-162.5,-162.5,155,,400,67.5,M,Леонтий Санин,1992,Raw,Yes,SBD
3,Mikhail Nazarenko,O,64.8,-115,125,130,130,75,-80,-80,75,,145,160,-170,160,,365,67.5,M,Михаил Назаренко,1983,Raw,Yes,SBD
1,Vladislav Sychev,T2,69.5,135,145,155,155,87.5,92.5,-95,92.5,,145,-150,-150,145,,392.5,75,M,Владислав Сычев,2000,Raw,Yes,SBD
1,Ruslan Kosarev,O,74.7,-195,200,-210,200,120,125,-127.5,125,,175,200,-215,200,,525,75,M,Руслан Косарев,1990,Raw,Yes,SBD
2,Vladimir Zhevtunov,O,73,-140,-140,150,150,95,-100,-100,95,,145,155,-160,155,,400,75,M,Владимир Жевтунов,1988,Raw,Yes,SBD
1,Andrey Kozlov,J,81.2,175,-185,190,190,115,120,127.5,127.5,,210,220,-227.5,220,,537.5,82.5,M,Андрей Козлов,1996,Raw,Yes,SBD
2,Aleksandr Volkov,J,81.9,175,-180,180,180,107.5,-110,-112.5,107.5,,175,185,195,195,,482.5,82.5,M,Александр Волков,1995,Raw,Yes,SBD
1,Ilya Belov,O,80.7,185,195,-197.5,195,130,-137.5,137.5,137.5,,182.5,190,200,200,,532.5,82.5,M,Илья Белов,1989,Raw,Yes,SBD
1,Saveliy Bokarev,T2,90,210,220,225,225,140,145,-147.5,145,,230,240,245,245,-250,615,90,M,Савелий Бокарев,1998,Raw,Yes,SBD
1,Aleksandr Yudaev,O,90,-225,225,-235,225,150,160,167.5,167.5,,210,220,235,235,,627.5,90,M,Александр Юдаев,1994,Raw,Yes,SBD
2,Ivan Kondrashin,O,87.5,230,-240,240,240,125,-130,-130,125,,235,245,255,255,,620,90,M,Иван Кондрашин,1987,Raw,Yes,SBD
3,Roman Seregin,O,88.8,190,-200,207.5,207.5,130,137.5,142.5,142.5,,190,210,-220,210,,560,90,M,Роман Серегин,1989,Raw,Yes,SBD
1,Kalimulla Murzakhanov,M5,87.3,130,,,130,-110,-110,110,110,,150,170,,170,,410,90,M,Калимулла Мурзаханов,1955,Raw,Yes,SBD
1,Zakir Omarov,T2,98.7,170,-180,-180,170,90,100,-105,100,,165,175,-180,175,,445,100,M,Закир Омаров,1998,Raw,Yes,SBD
1,Oleg Trunov,O,95.7,240,260,-270,260,170,-180,-180,170,,230,250,-260,250,,680,100,M,Олег Трунов,1988,Raw,Yes,SBD
2,Pavel Rodin,O,96.7,190,210,220,220,140,145,-150,145,,230,-240,-240,230,,595,100,M,Павел Родин,1985,Raw,Yes,SBD
1,Aleksandr Lokotkov,J,110,200,-215,225,225,145,155,-160,155,,200,220,230,230,,610,110,M,Александр Локотков,1995,Raw,Yes,SBD
1,Rinat Nasibullin,O,107.2,135,145,-152.5,145,85,92.5,-97.5,92.5,,150,160,170,170,,407.5,110,M,Ринат Насибуллин,1991,Raw,Yes,SBD
DQ,Mikhail Stroilov,O,109.8,-220,-235,-235,,,,,,,,,,,,,110,M,Михаил Строилов,1976,Raw,Yes,SBD
1,Sergey Lyubochkin,M1,109.3,205,215,225,225,165,170,172.5,172.5,,210,220,227.5,227.5,,625,110,M,Сергей Любочкин,1977,Raw,Yes,SBD
2,Ivan Rak,M1,101.6,200,215,-230,215,140,150,-155,150,,220,230,235,235,,600,110,M,Иван Рак,1974,Raw,Yes,SBD
1,Vasiliy Perepichay,O,123.5,-225,225,-235,225,165,170,-180,170,,220,235,250,250,,645,125,M,Василий Перепичай,1980,Raw,Yes,SBD
1,Pavel Simanin,J,88.4,240,255,265,265,160,170,-180,170,,240,260,-277.5,260,,695,90,M,Павел Симанин,1994,Single-ply,No,SBD
DQ,Artem Tarasov,O,86.8,-250,-250,-250,,,,,,,,,,,,,90,M,Артем Тарасов,1992,Single-ply,No,SBD
1,Aleksandr Kozlov,O,91.8,-330,-330,330,330,-200,200,-210,200,,220,240,-260,240,,770,100,M,Александр Козлов,1994,Single-ply,No,SBD
1,Dmitriy Bakharev,J,109.6,-290,305,312.5,312.5,-220,220,-227.5,220,,275,290,-300,290,,822.5,110,M,Дмитрий Бахарев,1995,Single-ply,No,SBD
DQ,Dmitriy Shabalin #1,M2,134,320,335,,335,310,320,325,325,,-300,,,,,,140,M,Дмитрий Шабалин,1969,Single-ply,No,SBD
1,Denis Sevostyanov,J,67.5,195,205,212.5,212.5,110,120,122.5,122.5,,200,210,-230,210,,545,67.5,M,Денис Севостьянов,1996,Single-ply,Yes,SBD
DQ,Vyacheslav Romanov,O,86.7,250,265,275,275,195,205,-212.5,205,,200,250,-275,250,,,90,M,Вячеслав Романов,1990,Single-ply,Yes,SBD
1,Vera Yaschuk,O,56,,,,,45,50,52.5,52.5,,,,,,,52.5,56,F,Вера Ящук,1980,Raw,No,B
1,Asiya Gabidullina,O,57.8,,,,,80,82.5,-85,82.5,,,,,,,82.5,60,F,Асия Габидуллина,1982,Raw,No,B
1,Ekaterina Chesnakova,O,65.3,,,,,52.5,55,57.5,57.5,,,,,,,57.5,67.5,F,Екатерина Чеснакова,1978,Raw,No,B
1,Aleksandr Rumyantsev,O,67.3,,,,,85,-90,-100,85,,,,,,,85,67.5,M,Александр Румянцев,1991,Raw,No,B
1,Nikolay Petrakovich,O,74.6,,,,,110,-120,-120,110,,,,,,,110,75,M,Николай Петракович,1979,Raw,No,B
1,Anton Lebedev,O,82.5,,,,,167.5,177.5,182.5,182.5,,,,,,,182.5,82.5,M,Антон Лебедев,1991,Raw,No,B
1,Sergey Timchenko,O,90,,,,,210,217.5,-222.5,217.5,,,,,,,217.5,90,M,Сергей Тимченко,1979,Raw,No,B
2,Nikolay Kostev,O,85.5,,,,,155,162.5,165,165,,,,,,,165,90,M,Николай Костев,1959,Raw,No,B
1,Nikolay Kostev,M4,85.5,,,,,155,162.5,165,165,,,,,,,165,90,M,Николай Костев,1959,Raw,No,B
1,Andrey Latyshev,O,100,,,,,200,205,207.5,207.5,,,,,,,207.5,100,M,Андрей Латышев,1973,Raw,No,B
2,Magomed Sultanov,O,95.9,,,,,145,-162.5,-162.5,145,,,,,,,145,100,M,Магомед Султанов,1990,Raw,No,B
DQ,Sergey Gavrilyuk,O,98.8,,,,,-185,-190,-190,,,,,,,,,100,M,Сергей Гаврилюк,1988,Raw,No,B
1,Andrey Latyshev,M1,100,,,,,200,205,207.5,207.5,,,,,,,207.5,100,M,Андрей Латышев,1973,Raw,No,B
2,Nikolay Kotov,M1,98.6,,,,,160,-165,,160,,,,,,,160,100,M,Николай Котов,1975,Raw,No,B
3,Aleksey Ivanov,M1,95,,,,,135,-145,145,145,,,,,,,145,100,M,Алексей Иванов,1975,Raw,No,B
1,Viktor Knyazev,O,108.8,,,,,215,225,-231,225,,,,,,,225,110,M,Виктор Князев,1990,Raw,No,B
2,Konstantin Komissarov,O,105.6,,,,,210,220,-230,220,,,,,,,220,110,M,Константин Комиссаров,1985,Raw,No,B
3,Dmitriy Rybin,O,108.8,,,,,185,190,-195,190,,,,,,,190,110,M,Дмитрий Рыбин,1993,Raw,No,B
1,Dmitriy Kabanov,O,120.2,,,,,230,235,-240,235,,,,,,,235,125,M,Дмитрий Кабанов,1987,Raw,No,B
2,Igor Golovanov,O,119.3,,,,,210,220,225,225,,,,,,,225,125,M,Игорь Голованов,1983,Raw,No,B
1,Aleksandr Bykov,M1,114.2,,,,,187.5,192.5,197.5,197.5,,,,,,,197.5,125,M,Александр Быков,1974,Raw,No,B
1,Georgiy Darchiev,O,135.4,,,,,220,-230,230,230,,,,,,,230,140,M,Георгий Дарчиев,1977,Raw,No,B
1,Georgiy Darchiev,M1,135.4,,,,,220,-230,230,230,,,,,,,230,140,M,Георгий Дарчиев,1977,Raw,No,B
1,Olga Sanina,J,43.5,,,,,37.5,40,-42.5,40,,,,,,,40,44,F,Ольга Санина,1996,Raw,Yes,B
1,Viktoriya Klementyeva,J,48,,,,,47.5,50,-52.5,50,,,,,,,50,48,F,Виктория Клементьева,1994,Raw,Yes,B
1,Ekaterina Taskaeva,O,57,,,,,80,85,-87.5,85,,,,,,,85,60,F,Екатерина Таскаева,1993,Raw,Yes,B
2,Natalya Blinkova,O,58.1,,,,,80,-85,-90,80,,,,,,,80,60,F,Наталья Блинкова,1991,Raw,Yes,B
3,Natalya Voronova,O,59.6,,,,,57.5,60,-62.5,60,,,,,,,60,60,F,Наталья Воронова,1980,Raw,Yes,B
1,Elena Schedrina,O,65.4,,,,,-70,70,,70,,,,,,,70,67.5,F,Елена Щедрина,1987,Raw,Yes,B
1,Viktoriya Yakovenko,J,70.8,,,,,85,-95,95,95,-97.5,,,,,,95,75,F,,1995,Raw,Yes,B
1,Elena Zhuk,O,74.8,,,,,77.5,80,-82.5,80,,,,,,,80,75,F,Елена Жук,1984,Raw,Yes,B
1,Daniil Meshkov,T1,58.5,,,,,70,75,-80,75,,,,,,,75,60,M,Даниил Мешков,2003,Raw,Yes,B
1,Denis Netochaev,T2,65.8,,,,,90,95,-97.5,95,,,,,,,95,67.5,M,Денис Неточаев,2001,Raw,Yes,B
1,Aleksey Gritsan,O,66.9,,,,,125,130,135,135,,,,,,,135,67.5,M,Алексей Грицан,1992,Raw,Yes,B
2,Stepan Karapetyan,O,66.2,,,,,-122.5,122.5,127.5,127.5,,,,,,,127.5,67.5,M,Степан Карапетян,1991,Raw,Yes,B
3,Denis Shvedov,O,65,,,,,100,-105,105,105,,,,,,,105,67.5,M,Денис Шведов,1990,Raw,Yes,B
1,Oleg Solodov,M2,65.8,,,,,110,-117.5,-117.5,110,,,,,,,110,67.5,M,Олег Солодов,1971,Raw,Yes,B
1,Daniil Voronov,T2,74.6,,,,,85,90,-92.5,90,,,,,,,90,75,M,Даниил Воронов,2002,Raw,Yes,B
2,Roman Platonov,T2,71,,,,,85,-90,-90,85,,,,,,,85,75,M,Роман Платонов,2002,Raw,Yes,B
1,Maksim Gridnev,O,69,,,,,155,160,165,165,,,,,,,165,75,M,Максим Гриднев,1992,Raw,Yes,B
2,Nikolay Kharitonov,O,74.6,,,,,130,-137.5,-137.5,130,,,,,,,130,75,M,Николай Харитонов,1986,Raw,Yes,B
DQ,Aleksey Gubanov,O,74.5,,,,,-125,-125,-125,,,,,,,,,75,M,Алексей Губанов,1986,Raw,Yes,B
1,Nikolay Vetrov,M7,74.2,,,,,-70,70,75,75,,,,,,,75,75,M,Николай Ветров,1945,Raw,Yes,B
1,Anton Drynin,J,80.2,,,,,125,130,-135,130,,,,,,,130,82.5,M,Антон Дрынин,1996,Raw,Yes,B
1,Yuriy Yanin,O,81.4,,,,,160,165,170,170,175,,,,,,170,82.5,M,Юрий Янин,1987,Raw,Yes,B
2,Daniel Lobachev,O,81.9,,,,,147.5,150,155,155,,,,,,,155,82.5,M,Даниэл Лобачев,1993,Raw,Yes,B
3,Dmitriy Ivannikov,O,78,,,,,140,147.5,-152.5,147.5,,,,,,,147.5,82.5,M,Дмитрий Иванников,1981,Raw,Yes,B
4,Igor Popov,O,77.9,,,,,140,-145,-145,140,,,,,,,140,82.5,M,Игорь Попов,1989,Raw,Yes,B
5,Vladimir Bukatin,O,81.3,,,,,135,-142.5,-147.5,135,,,,,,,135,82.5,M,Владимир Букатин,1985,Raw,Yes,B
DQ,Pavel Timokhin,O,81.9,,,,,-147.5,-147.5,-147.5,,,,,,,,,82.5,M,Павел Тимохин,1981,Raw,Yes,B
1,Sergey Kondrashev,M3,78.8,,,,,-105,105,-115,105,,,,,,,105,82.5,M,Сергей Кондрашев,1963,Raw,Yes,B
1,Viktor Ovsyanyy,M4,78,,,,,125,130,-132.5,130,,,,,,,130,82.5,M,Виктор Овсяный,1958,Raw,Yes,B
1,Vladislav Sannikov,M8,78.7,,,,,82.5,87.5,90,90,,,,,,,90,82.5,M,Владислав Санников,1938,Raw,Yes,B
1,Maksim Chesnokov,J,89,,,,,155,-165,-165,155,,,,,,,155,90,M,Максим Чесноков,1996,Raw,Yes,B
2,Andrey Zhelagin,J,86.7,,,,,127,135,140,140,,,,,,,140,90,M,Андрей Желагин,1995,Raw,Yes,B
1,Evgeniy Mazur,O,86.4,,,,,-165,165,170,170,,,,,,,170,90,M,Евгений Мазур,1990,Raw,Yes,B
2,Rustam Bogoutdinov,O,87.8,,,,,155,160,-167.5,160,,,,,,,160,90,M,Рустам Богоутдинов,1982,Raw,Yes,B
3,Ivan Galichevskiy,O,88.7,,,,,150,-155,-155,150,,,,,,,150,90,M,Иван Галичевский,1989,Raw,Yes,B
4,Artem Brilev,O,88.5,,,,,-135,135,140,140,,,,,,,140,90,M,Артем Брилев,1986,Raw,Yes,B
5,Sergey Urazov,O,89,,,,,130,-135,135,135,,,,,,,135,90,M,Сергей Уразов,1993,Raw,Yes,B
6,Andrey Malinovskiy,O,88.6,,,,,125,130,-135,130,,,,,,,130,90,M,Андрей Малиновский,1984,Raw,Yes,B
7,Evgeniy Trishin,O,89.4,,,,,125,130,-135,130,,,,,,,130,90,M,Евгений Тришин,1986,Raw,Yes,B
DQ,Oleg Bryndin,O,88,,,,,-150,-150,-155,,,,,,,,,90,M,Олег Брындин,1993,Raw,Yes,B
DQ,Nikolay Kostev,M4,85.5,,,,,-150,,,,,,,,,,,90,M,Николай Костев,1959,Raw,Yes,B
1,Maksim Lozovoy,O,99.4,,,,,172.5,-177.5,-177.5,172.5,,,,,,,172.5,100,M,Максим Лозовой,1977,Raw,Yes,B
2,Vadim Shabanov,O,92.5,,,,,152.5,160,167.5,167.5,,,,,,,167.5,100,M,Вадим Шабанов,1972,Raw,Yes,B
3,Viktor Nazgaidze,O,98.5,,,,,150,-155,-155,150,,,,,,,150,100,M,Виктор Назгаидзе,1981,Raw,Yes,B
4,Kirill Emelyanov,O,93.5,,,,,145,-152.5,-152.5,145,,,,,,,145,100,M,Кирилл Емельянов,1986,Raw,Yes,B
5,Yuriy Filatov,O,99.1,,,,,115,-125,-125,115,,,,,,,115,100,M,Юрий Филатов,1989,Raw,Yes,B
1,Maksim Lozovoy,M1,99.4,,,,,172.5,-177.5,-177.5,172.5,,,,,,,172.5,100,M,Максим Лозовой,1977,Raw,Yes,B
1,Vadim Shabanov,M2,92.5,,,,,152.5,160,167.5,167.5,,,,,,,167.5,100,M,Вадим Шабанов,1972,Raw,Yes,B
DQ,Sergey Nikishin,M2,98.5,,,,,-210,,,,,,,,,,,100,M,Сергей Никишин,1971,Raw,Yes,B
1,Leonid Skvortsov,M4,98.3,,,,,165,-175,-175,165,,,,,,,165,100,M,Леонид Скворцов,1962,Raw,Yes,B
1,Dmitriy Zheleznov,O,107.7,,,,,215,220,-225,220,,,,,,,220,110,M,Дмитрий Железнов,1993,Raw,Yes,B
2,Maksim Sevryukov,O,109.7,,,,,177.5,185,-190,185,,,,,,,185,110,M,Максим Севрюков,1985,Raw,Yes,B
1,Ivan Burlov,M2,109,,,,,177.5,185,-187.5,185,,,,,,,185,110,M,Иван Бурлов,1970,Raw,Yes,B
1,Aleksandr Bardin,M4,107.8,,,,,140,150,160,160,,,,,,,160,110,M,Александр Бардин,1960,Raw,Yes,B
1,Evgeniy Marinov,O,118.5,,,,,175,182.5,-187.5,182.5,,,,,,,182.5,125,M,Евгений Маринов,1983,Raw,Yes,B
2,Denis Ogloblin,O,122.6,,,,,177.5,-185,-185,177.5,,,,,,,177.5,125,M,Денис Оглоблин,1967,Raw,Yes,B
1,Denis Ogloblin,M3,122.6,,,,,177.5,-185,-185,177.5,,,,,,,177.5,125,M,Денис Оглоблин,1967,Raw,Yes,B
1,Vasiliy Tarasov,O,134.2,,,,,207.5,215,217.5,217.5,,,,,,,217.5,140,M,Василий Тарасов,1978,Raw,Yes,B
1,Vladimir Seleznev,M1,127.3,,,,,175,182.5,187.5,187.5,,,,,,,187.5,140,M,Владимир Селезнев,1977,Raw,Yes,B
2,Andrey Zaletaev,M1,137.5,,,,,170,-177.5,-177.5,170,,,,,,,170,140,M,Андрей Залетаев,1975,Raw,Yes,B
1,Roman Mishurenkov,O,142.8,,,,,210,220,,220,,,,,,,220,140+,M,Роман Мишуренков,1982,Raw,Yes,B
1,Luchian Peledutse,T1,51.7,,,,,45,50,-52.5,50,,,,,,,50,56,M,Лучиан Пэлэдуце,2004,Raw,No,B
1,Daniel Rusu,T1,65.6,,,,,60,65,67.5,67.5,,,,,,,67.5,67.5,M,Даниел Русу,2003,Raw,No,B
1,Eduard Baymeshev,O,87.7,,,,,170,175,-182.5,175,,,,,,,175,90,M,Эдуард Баймешев,1991,Raw,No,B
1,Denis Lazarev,T1,90.7,,,,,65,-70,-70,65,,,,,,,65,100,M,Денис Лазарев,2003,Raw,No,B
1,Vitaliy Boev,O,98.4,,,,,175,182.5,185,185,,,,,,,185,100,M,Виталий Боев,1984,Raw,No,B
2,Maksim Yuyukin,O,99.4,,,,,175,-182.5,-182.5,175,,,,,,,175,100,M,Максим Ююкин,1982,Raw,No,B
3,Vladimir Zangirov,O,92,,,,,-150,150,-157.5,150,,,,,,,150,100,M,Владимир Зангиров,1984,Raw,No,B
1,Vladimir Tsymbalenko,O,107.5,,,,,165,175,190,190,,,,,,,190,110,M,Владимир Цымбаленко,1986,Raw,No,B
2,Dmitriy Prokudin,M1,107.8,,,,,-165,165,-182.5,165,,,,,,,165,110,M,Дмитрий Прокудин,1974,Raw,No,B
3,Vyacheslav Filin,M4,107,,,,,190,195,200,200,,,,,,,200,110,M,Вячеслав Филин,1961,Raw,No,B
1,Vladislav Dikarev,J,119.4,,,,,185,190,-200,190,,,,,,,190,125,M,Владислав Дикарев,1996,Raw,No,B
1,Igor Trukhachev,O,120,,,,,172.5,-200,-200,172.5,,,,,,,172.5,125,M,Игорь Трухачев,1988,Raw,No,B
1,Lyubov Kiseleva,O,55.6,,,,,47.5,52.5,57.5,57.5,,,,,,,57.5,56,F,Любовь Киселева,1982,Raw,Yes,B
2,Irina Piskunova,O,54.9,,,,,55,-57.5,-60,55,,,,,,,55,56,F,Ирина Пискунова,1978,Raw,Yes,B
1,Olga Krichmar,O,60,,,,,67.5,72.5,-77.5,72.5,,,,,,,72.5,60,F,Ольга Кричмар,1982,Raw,Yes,B
2,Elena Vlasova,O,59,,,,,52.5,-57.5,57.5,57.5,,,,,,,57.5,60,F,Елена Власова,1990,Raw,Yes,B
1,Elena Medvedeva,M4,58.9,,,,,50,-52,-52.5,50,,,,,,,50,60,F,Елена Медведева,1962,Raw,Yes,B
1,Mariya Danilova,T2,66.1,,,,,45,50,-52.5,50,,,,,,,50,67.5,F,Мария Данилова,2000,Raw,Yes,B
1,Yuliya Kovalenko,O,64.4,,,,,72.5,75,-77.5,75,,,,,,,75,67.5,F,Юлия Коваленко,1986,Raw,Yes,B
2,Evgeniya Kotelevskaya,O,65.3,,,,,70,-75,75,75,,,,,,,75,67.5,F,Евгения Котелевская,1989,Raw,Yes,B
DQ,Anna Ermolaeva,M1,73.3,,,,,-80,-80,-80,,,,,,,,,75,F,Анна Ермолаева,1975,Raw,Yes,B
1,Tursunali Ruzibadalov,J,55.2,,,,,60,-65,-70,60,,,,,,,60,56,M,Турсунали Рузибадалов,1994,Raw,Yes,B
1,Samvel Allakhverdyan,O,59.7,,,,,-115,115,,115,,,,,,,115,60,M,Самвел Аллахвердян,1993,Raw,Yes,B
1,Sergey Lyashev,T2,65.8,,,,,-107.5,107.5,-110,107.5,,,,,,,107.5,67.5,M,Сергей Ляшев,2000,Raw,Yes,B
2,Ivan Burmistrov,T2,65.6,,,,,70,-80,-87.5,70,,,,,,,70,67.5,M,Иван Бурмистров,2001,Raw,Yes,B
1,Ilya Lanenkin,T2,72,,,,,97.5,-100,,97.5,,,,,,,97.5,75,M,Илья Ланенкин,2000,Raw,Yes,B
1,Timofey Patrikeev,O,73.8,,,,,-127.5,127.5,-132.5,127.5,,,,,,,127.5,75,M,Тимофей Патрикеев,1982,Raw,Yes,B
2,Sergey Artyushenko,O,73.4,,,,,-117.5,117.5,-132.5,117.5,,,,,,,117.5,75,M,Сергей Артюшенко,1980,Raw,Yes,B
3,Andrey Leonov,O,69.8,,,,,92.5,-95,95,95,,,,,,,95,75,M,Андрей Леонов,1980,Raw,Yes,B
1,Vladimir Pivnov,M5,75,,,,,-125,-125,125,125,,,,,,,125,75,M,Владимир Пивнов,1953,Raw,Yes,B
1,Sergey Kalinin,T1,76,,,,,80,85,87.5,87.5,,,,,,,87.5,82.5,M,Сергей Калинин,2002,Raw,Yes,B
1,Dmitriy Dobudko,O,80.2,,,,,142.5,145,147.5,147.5,,,,,,,147.5,82.5,M,Дмитрий Добудько,1982,Raw,Yes,B
2,Maksim Kokotaylo,O,81.3,,,,,135,-142.5,-142.5,135,,,,,,,135,82.5,M,Максим Кокотайло,1990,Raw,Yes,B
3,Aleksandr Zakharov,O,81,,,,,130,-142.5,-142.5,130,,,,,,,130,82.5,M,Александр Захаров,1993,Raw,Yes,B
4,Artem Mischenko,O,80.9,,,,,120,127.5,-135,127.5,,,,,,,127.5,82.5,M,Артем Мищенко,1984,Raw,Yes,B
5,Aleksandr Golosov,O,80.6,,,,,120,125,-130,125,,,,,,,125,82.5,M,Александр Голосов,1980,Raw,Yes,B
1,Vitaliy Mikhaylovskiy,M3,81.8,,,,,125,130,-133,130,,,,,,,130,82.5,M,Виталий Михайловский,1967,Raw,Yes,B
1,Ivan Polyakov,J,87,,,,,120,130,140,140,,,,,,,140,90,M,Иван Поляков,1997,Raw,Yes,B
2,Konstantin Medvedev,J,88.9,,,,,125,130,-132.5,130,,,,,,,130,90,M,Константин Медведев,1997,Raw,Yes,B
1,Stanislav Zolkin,O,89.2,,,,,140,150,155,155,,,,,,,155,90,M,Станислав Золкин,1988,Raw,Yes,B
2,Ivan Galichevskiy,O,88.7,,,,,-150,150,152.5,152.5,,,,,,,152.5,90,M,Иван Галичевский,1989,Raw,Yes,B
3,Pavel Naumov,O,88.1,,,,,135,145,150,150,,,,,,,150,90,M,Павел Наумов,1985,Raw,Yes,B
4,Denis Orlov,O,86.9,,,,,-125,130,-135,130,,,,,,,130,90,M,Денис Орлов,1987,Raw,Yes,B
5,Sergey Salivon,O,89.1,,,,,-125,130,-135,130,,,,,,,130,90,M,Сергей Саливон,1982,Raw,Yes,B
6,Aslanbek Dzhamalkhanov,O,89.1,,,,,-125,130,-135,130,,,,,,,130,90,M,Асланбек Джамалханов,1986,Raw,Yes,B
7,Artem Arkhipov,O,87.1,,,,,115,120,-125,120,,,,,,,120,90,M,Артем Архипов,1989,Raw,Yes,B
1,Emil Teymurov,M1,88.1,,,,,-145,145,150,150,,,,,,,150,90,M,Эмиль Теймуров,1976,Raw,Yes,B
2,Nikolay Frantsuzov,M1,88.2,,,,,140,145,-150,145,,,,,,,145,90,M,Николай Французов,1977,Raw,Yes,B
DQ,Vladimir Mitkin,M2,88.3,,,,,-142.5,-142.5,-150,,,,,,,,,90,M,Владимир Митькин,1971,Raw,Yes,B
1,Sergey Bazanov,M4,88.1,,,,,150,157.5,162.5,162.5,,,,,,,162.5,90,M,Сергей Базанов,1962,Raw,Yes,B
1,Salanbek Dzhamalkhanov,O,98.2,,,,,155,-160,160,160,,,,,,,160,100,M,Саланбек Джамалханов,1990,Raw,Yes,B
2,Ivan Leschenko,O,98.3,,,,,155,160,-165,160,,,,,,,160,100,M,Иван Лещенко,1986,Raw,Yes,B
3,Dmitriy Sviridov,O,98.8,,,,,-145,145,-150,145,,,,,,,145,100,M,Дмитрий Свиридов,1992,Raw,Yes,B
4,Vadim Bukovskiy,O,98.4,,,,,130,137.5,142.5,142.5,,,,,,,142.5,100,M,Вадим Буковский,1991,Raw,Yes,B
1,Vladislav Scherbakov,M1,99.3,,,,,135,-152.5,-152.5,135,,,,,,,135,100,M,Владислав Щербаков,1977,Raw,Yes,B
2,Grigoriy Bannov,M1,97.8,,,,,115,120,-125,120,,,,,,,120,100,M,Григорий Баннов,1975,Raw,Yes,B
1,Dmitriy Demidov,T2,106.8,,,,,135,145,-150,145,,,,,,,145,110,M,Дмитрий Демидов,1998,Raw,Yes,B
DQ,Vladimir Efremenkov,J,101,,,,,-160,-160,-160,,,,,,,,,110,M,Владимир Ефременков,1996,Raw,Yes,B
1,Maksim Safin,O,106.2,,,,,165,170,175,175,,,,,,,175,110,M,Максим Сафин,1983,Raw,Yes,B
2,Andrey Kalashnikov,O,102.3,,,,,160,165,170,170,,,,,,,170,110,M,Андрей Калашников,1980,Raw,Yes,B
3,Georgiy Khachatryan,O,107.6,,,,,160,165,170,170,,,,,,,170,110,M,Георгий Хачатрян,1986,Raw,Yes,B
4,Nikolay Kabanov,O,109.9,,,,,145,160,-165,160,,,,,,,160,110,M,Николай Кабанов,1986,Raw,Yes,B
5,Aleksandr Buyanov,O,105.3,,,,,140,145,147.5,147.5,,,,,,,147.5,110,M,Александр Буянов,1980,Raw,Yes,B
1,Sergey Komkov,M3,107,,,,,145,152.5,160,160,,,,,,,160,110,M,Сергей Комков,1967,Raw,Yes,B
1,Mikhail Sidelnikov,O,123,,,,,182.5,187.5,-192.5,187.5,,,,,,,187.5,125,M,Михаил Сидельников,1984,Raw,Yes,B
1,Vladimir Chubarov,M3,123.5,,,,,170,175,-177.5,175,,,,,,,175,125,M,Владимир Чубаров,1964,Raw,Yes,B
1,Mikhail Filin,M4,139.9,,,,,-175,-175,175,175,,,,,,,175,140,M,Михаил Филин,1961,Raw,Yes,B
1,Roman Brekhov,O,114.4,,,,,290,-297.5,-305,290,,,,,,,290,125,M,Роман Брехов,1990,Multi-ply,No,B
1,Evgeniy Baranov,O,124.8,,,,,280,290,-300,290,,,,,,,290,125,M,Евгений Баранов,1982,Multi-ply,Yes,B
1,Vyacheslav Nechpal,M1,96.3,,,,,230,240,250,250,,,,,,,250,100,M,Вячеслав Нечпал,1973,Single-ply,No,B
1,Evgeniy Kuznetsov,O,106.3,,,,,220,-227.5,-227.5,220,,,,,,,220,110,M,Евгений Кузнецов,1990,Single-ply,No,B
1,Oleg Miloserdov,O,96.7,,,,,200,-215,-215,200,,,,,,,200,100,M,Олег Милосердов,1978,Single-ply,Yes,B
2,Vladimir Mayorov,O,95.3,,,,,165,172.5,180,180,,,,,,,180,100,M,Владимир Майоров,1987,Single-ply,Yes,B
DQ,Dmitriy Zolotykh,O,95,,,,,-180,-180,-180,,,,,,,,,100,M,Дмитрий Золотых,1987,Single-ply,Yes,B
1,Zakhar Akulov,T1,56,,,,,,,,,,90,95,-100,95,,95,56,M,Захар Акулов,2003,Raw,No,D
1,Grigoriy Ponomarenko,O,81.5,,,,,,,,,,205,222.5,,222.5,,222.5,82.5,M,Григорий Пономаренко,1993,Raw,No,D
1,Aleksandr Naumov,O,87.3,,,,,,,,,,210,-220,-220,210,,210,90,M,Александр Наумов,1992,Raw,No,D
1,Radiy Spitsin,O,95.6,,,,,,,,,,275,285,295,295,,295,100,M,Радій Спицин,1981,Raw,No,D
1,Pavel Sazonov,O,106.2,,,,,,,,,,270,287.5,295,295,,295,110,M,Павел Сазонов,1986,Raw,No,D
2,Maksim Neznamov,O,105.2,,,,,,,,,,270,287.5,-295,287.5,,287.5,110,M,Максим Незнамов,1978,Raw,No,D
3,Sergey Kondakov,O,104.8,,,,,,,,,,250,265,272.5,272.5,,272.5,110,M,Сергей Кондаков,1987,Raw,No,D
1,Elena Volkova,O,48,,,,,,,,,,90,95,100,100,,100,48,F,Елена Волкова,1985,Raw,Yes,D
1,Elizaveta Andreeva,O,51.1,,,,,,,,,,117.5,125,-130,125,,125,52,F,Елизавета Андреева,1989,Raw,Yes,D
2,Nika Velial,O,51.6,,,,,,,,,,107.5,112.5,-115,112.5,,112.5,52,F,Ника Велиал,1992,Raw,Yes,D
1,Nataliya Razumovskaya,M1,51,,,,,,,,,,100,105,,105,,105,52,F,Наталия Разумовская,1977,Raw,Yes,D
1,Larisa Demina,T2,54.8,,,,,,,,,,90,97.5,107.5,107.5,,107.5,56,F,Лариса Демина,2001,Raw,Yes,D
1,Nadezhda Galustyan,O,54.8,,,,,,,,,,120,130,138,138,,138,56,F,Надежда Галустян,1988,Raw,Yes,D
2,Svetlana Parfenova,O,55,,,,,,,,,,107.5,127.5,130,130,,130,56,F,Светлана Парфенова,1984,Raw,Yes,D
1,Tatyana Smolova,M5,54.9,,,,,,,,,,40,-50,-60,40,,40,56,F,Татьяна Смолова,1954,Raw,Yes,D
1,Mariya Kovalkina,T2,58.3,,,,,,,,,,80,92.5,105,105,,105,60,F,Мария Ковалкина,1999,Raw,Yes,D
1,Ekaterina Dmitrieva,O,58.1,,,,,,,,,,90,95,100,100,,100,60,F,Екатерина Дмитриева,1989,Raw,Yes,D
2,Oksana Samsonova,O,59.8,,,,,,,,,,77.5,87.5,92.5,92.5,,92.5,60,F,Оксана Самсонова,1992,Raw,Yes,D
1,Anzhelika Maltseva,O,66.5,,,,,,,,,,117.5,122.5,-130,122.5,,122.5,67.5,F,Анжелика Мальцева,1983,Raw,Yes,D
1,Ekaterina Vasilyeva,M1,72.6,,,,,,,,,,135,140,-142.5,140,,140,75,F,Екатерина Васильева,1976,Raw,Yes,D
1,Anna Rusetskaya,O,80.6,,,,,,,,,,90,100,110,110,117.5,110,82.5,F,Анна Русецкая,1976,Raw,Yes,D
1,Natalya Oreshkina,O,106.3,,,,,,,,,,90,100,-110,100,,100,90+,F,Наталья Орешкина,1978,Raw,Yes,D
1,Dmitriy Khodkin,T1,63.3,,,,,,,,,,97.5,-110,110,110,,110,67.5,M,Дмитрий Ходкин,2002,Raw,Yes,D
1,Ivan Burmistrov,T2,65.6,,,,,,,,,,-110,117.5,127.5,127.5,,127.5,67.5,M,Иван Бурмистров,2001,Raw,Yes,D
1,Irek Rizvanov,O,66.7,,,,,,,,,,175,190,200,200,,200,67.5,M,Ирек Ризванов,1992,Raw,Yes,D
2,Beslan Bakhaev,O,67.5,,,,,,,,,,-170,180,-197.5,180,,180,67.5,M,Беслан Бахаев,1988,Raw,Yes,D
1,Nikolay Yakimchuk,T2,68.5,,,,,,,,,,190,-210,210,210,,210,75,M,Николай Якимчук,1999,Raw,Yes,D
1,Kablan Kofi,J,74.1,,,,,,,,,,240,-260,-260,240,,240,75,M,Каблан Кофи,1994,Raw,Yes,D
2,Eduard Lipchanskiy,J,69.5,,,,,,,,,,160,170,-182.5,170,,170,75,M,Эдуард Липчанский,1997,Raw,Yes,D
1,Dmitriy Arkadyev,O,73.5,,,,,,,,,,260,270,275,275,,275,75,M,Дмитрий Аркадьев,1983,Raw,Yes,D
2,Aleksandr Yakushev,O,72.1,,,,,,,,,,205,210,215,215,,215,75,M,Александр Якушев,1982,Raw,Yes,D
1,Oleg Pavlushin,M1,73.2,,,,,,,,,,165,-172.5,172.5,172.5,,172.5,75,M,Олег Павлушин,1974,Raw,Yes,D
1,Vladimir Schemelev,M4,74.5,,,,,,,,,,185,200,202.5,202.5,,202.5,75,M,Владимир Щемелев,1961,Raw,Yes,D
1,Nikolay Vetrov,M7,74.2,,,,,,,,,,150,155,-160,155,,155,75,M,Николай Ветров,1945,Raw,Yes,D
1,Roman Yasychenko,T2,81.4,,,,,,,,,,180,-195,200,200,-217.5,200,82.5,M,Роман Ясыченко,1998,Raw,Yes,D
1,Andrey Kozlov,J,79.5,,,,,,,,,,190,-210,-222.5,190,,190,82.5,M,Андрей Козлов,1996,Raw,Yes,D
1,Dmitriy Shapilov,O,79.3,,,,,,,,,,210,220,,220,,220,82.5,M,Дмитрий Шапилов,1975,Raw,Yes,D
2,Elnur Aliev,O,80.8,,,,,,,,,,205,-222.5,-222.5,205,,205,82.5,M,Эльнур Алиев,1982,Raw,Yes,D
3,Oleg Aleshin,O,79.3,,,,,,,,,,-175,185,-192.5,185,,185,82.5,M,Олег Алешин,1985,Raw,Yes,D
1,Roman Semenov,O,82.1,,,,,,,,,,180,-192.5,-192.5,180,,180,82.5,M,Роман Семенов,1988,Raw,Yes,D
DQ,Dilmurod Urmonov,O,82.1,,,,,,,,,,-222.5,-222.5,-222.5,,,,82.5,M,,1993,Raw,Yes,D
1,Dmitriy Shapilov,M1,79.3,,,,,,,,,,210,220,,220,,220,82.5,M,Дмитрий Шапилов,1975,Raw,Yes,D
2,Aleksandr Konovalchik,M1,82.2,,,,,,,,,,212.5,-220,-220,212.5,,212.5,82.5,M,Александр Коновальчик,1976,Raw,Yes,D
3,Vladimir Zobnin,M1,81.2,,,,,,,,,,140,152.5,162.5,162.5,,162.5,82.5,M,Владимир Зобнин,1975,Raw,Yes,D
1,Viktor Skokin,M5,80.9,,,,,,,,,,212.5,227.5,-232.5,227.5,,227.5,82.5,M,Виктор Скокин,1957,Raw,Yes,D
1,Vladislav Sannikov,M8,78.7,,,,,,,,,,125,-127.5,,125,,125,82.5,M,Владислав Санников,1938,Raw,Yes,D
1,Kirill Lomanov,O,89.1,,,,,,,,,,-297.5,-307.5,317.5,317.5,325,317.5,90,M,Кирилл Ломанов,1987,Raw,Yes,D
2,Anton Gasparyan,O,87.7,,,,,,,,,,202.5,-210,,202.5,,202.5,90,M,Антон Гаспарян,1984,Raw,Yes,D
DQ,Nikita Khrisanov,O,86.9,,,,,,,,,,-190,-190,-190,,,,90,M,Никита Хрисанов,1991,Raw,Yes,D
1,Aleksandr Voronin,M3,87.6,,,,,,,,,,-172.5,172.5,182.5,182.5,,182.5,90,M,Александр Воронин,1965,Raw,Yes,D
1,Roman Zverev,O,99,,,,,,,,,,300,-312.5,-312.5,300,,300,100,M,Роман Зверев,1988,Raw,Yes,D
2,Oleg Varvarin,O,93.3,,,,,,,,,,265,-272.5,-272.5,265,,265,100,M,Олег Варварин,1986,Raw,Yes,D
3,Alexey Konovalov,O,97.5,,,,,,,,,,230,240,-250,240,,240,100,M,Алексей Коновалов,1992,Raw,Yes,D
4,Vyacheslav Milovanov,O,95.7,,,,,,,,,,190,200,210,210,,210,100,M,Вячеслав Милованов,1992,Raw,Yes,D
1,Sergey Nikishin,M2,98.5,,,,,,,,,,210,220,230,230,,230,100,M,Сергей Никишин,1971,Raw,Yes,D
1,Vladimir Efremenkov,J,101,,,,,,,,,,220,247.5,-255,247.5,,247.5,110,M,Владимир Ефременков,1996,Raw,Yes,D
1,Ruslan Kulebyakin,O,110,,,,,,,,,,250,260,265,265,,265,110,M,Руслан Кулебякин,1991,Raw,Yes,D
2,Aleksey Cherepkov,O,104.6,,,,,,,,,,247.5,252.5,260,260,,260,110,M,Алексей Черепков,1988,Raw,Yes,D
3,Andrey Gaposhko,O,106.9,,,,,,,,,,215,225,235,235,,235,110,M,Андрей Гапошко,1986,Raw,Yes,D
4,Stanislav Orlovskiy,O,106.1,,,,,,,,,,195,205,-215,205,,205,110,M,Станислав Орловский,1988,Raw,Yes,D
1,Andrey Shishkin,M4,109.2,,,,,,,,,,205,240,-262.5,240,,240,110,M,Андрей Шишкин,1962,Raw,Yes,D
1,Aleksandr Prudnikov,M1,116.7,,,,,,,,,,160,-180,180,180,,180,125,M,Александр Прудников,1974,Raw,Yes,D
1,Aleksandr Nosov,O,96.1,,,,,,,,,,290,302.5,,302.5,,302.5,100,M,Александр Носов,1985,Multi-ply,No,D
1,Igor Filippov,O,81.9,,,,,,,,,,245,260,-267.5,260,,260,82.5,M,Игорь Филиппов,1984,Single-ply,Yes,D
1,Vyacheslav Varlamov,O,89,,,,,,,,,,250,-275,-275,250,,250,90,M,Вячеслав Варламов,1985,Single-ply,Yes,D
1,Evgeniy Rodionov,O,93.9,,,,,,,,,,230,240,250,250,,250,100,M,Евгений Родионов,1981,Single-ply,Yes,D
2,Aleksey Zinyagin,O,97.1,,,,,,,,,,230,-250,-250,230,,230,100,M,Алексей Зинягин,1988,Single-ply,Yes,D
