Sex,Name,CyrillicName,BodyweightKg,Squat1Kg,Squat2Kg,Squat3Kg,Best3SquatKg,Squat4Kg,Bench1Kg,Bench2Kg,Bench3Kg,Best3BenchKg,Bench4Kg,Deadlift1Kg,Deadlift2Kg,Deadlift3Kg,Best3DeadliftKg,Deadlift4Kg,TotalKg,WeightClassKg,Event,Equipment,Tested,Division,BirthDate,Place
F,Darya Shchupets,Дарья Щупец,51,85,95,105,105,,42.5,47.5,-52.5,47.5,,95,105,107.5,107.5,,260,52,SBD,Wraps,Yes,F-O,1993-04-11,1
F,Elena Karmiryan,Елена Кармирян,53.2,95,-105,-105,95,,45,50,-52.5,50,,105,112.5,-120,112.5,,257.5,56,SBD,Wraps,Yes,F-O,1986-03-02,1
M,Egor Bezdetnov,Егор Бездетнов,67.5,170,180,-185,180,,125,130,-135,130,,180,185,190,190,,500,67.5,SBD,Wraps,Yes,M-T2,2002-03-09,1
M,Dmitriy Abutalib,Дмитрий Абуталиб,74.6,-110,110,120,120,,90,95,-100,95,,110,120,130,130,,345,75,SBD,Wraps,Yes,M-O,1985-06-09,1
M,Leonid Bezdetnov,Леонид Бездетнов,82.5,195,200,205,205,,107.5,112.5,-115,112.5,,205,-210,-210,205,,522.5,82.5,SBD,Wraps,Yes,M-T2,2001-10-10,1
M,Makar Lobastov,Макар Лобастов,76.7,-150,150,160,160,,90,-100,-100,90,,150,160,170,170,,420,82.5,SBD,Wraps,Yes,M-T2,2001-07-28,2
M,Albert Agarizaev,Альберт Агаризаев,81,180,190,195,195,,115,120,-122.5,120,,190,200,-207.5,200,,515,82.5,SBD,Wraps,Yes,M-M1,1974-10-08,1
M,Yuriy Rylo,Юрий Рыло,78.7,100,110,-115,110,,90,-100,-100,90,,110,120,130,130,,330,82.5,SBD,Wraps,Yes,M-M1,1976-12-03,2
M,Danil Bezdetnov,Данил Бездетнов,104.7,240,250,260,260,,160,170,177.5,177.5,,240,252.5,-257.5,252.5,,690,110,SBD,Wraps,Yes,M-T3,1999-10-09,1
F,Olga Potapova,Ольга Потапова,54,,,,,,67.5,-72.5,-72.5,67.5,,,,,,,67.5,56,B,Raw,Yes,F-O,1980-01-23,1
M,Maksim Malikov,Максим Маликов,65.5,,,,,,-140,-140,-140,,,,,,,,,67.5,B,Raw,Yes,M-O,1987-06-28,DQ
M,Yaroslav Shaposhnikov,Ярослав Шапошников,72.5,,,,,,-125,-125,-125,,,,,,,,,75,B,Raw,Yes,M-J,1995-11-27,DQ
M,Dmitriy Romanov,Дмитрий Романов,82,,,,,,-145,145,147.5,147.5,,,,,,,147.5,82.5,B,Raw,Yes,M-O,1986-03-27,2
M,Sergey Atyasov,Сергей Атясов,80,,,,,,135,-145,145,145,,,,,,,145,82.5,B,Raw,Yes,M-O,1988-02-19,3
M,Andrey Kozhedub,Андрей Кожедуб,81.4,,,,,,135,-140,140,140,,,,,,,140,82.5,B,Raw,Yes,M-O,1979-12-05,4
M,Damir Gazizov,Дамир Газизов,89.4,,,,,,100,-120,-120,100,,,,,,,100,90,B,Raw,Yes,M-J,1996-07-12,1
M,Dmitriy Fakhretdinov,Дмитрий Фахретдинов,83.7,,,,,,152.5,157.5,160,160,,,,,,,160,90,B,Raw,Yes,M-O,1992-10-22,1
M,Ilya Zubkov,Илья Зубков,98.7,,,,,,155,-162.5,-162.5,155,,,,,,,155,100,B,Raw,Yes,M-O,1984-02-08,2
M,Artur Dyakin,Артур Дякин,89.1,,,,,,165,175,-185,175,,,,,,,175,90,B,Unlimited,Yes,M-M3-E,1966-08-02,1
F,Irina Burakova,Ирина Буракова,65,,,,,,,,,,,120,127.5,135,135,,135,67.5,D,Raw,Yes,F-O,1985-05-01,1
M,Maksim Sukhobok,Максим Сухобок,63.5,,,,,,,,,,,200,210,,210,,210,67.5,D,Raw,Yes,M-O,1965-01-01,1
M,Artur Dyakin,Артур Дякин,89.1,,,,,,,,,,,175,185,-190,185,,185,90,D,Raw,Yes,M-M3,1966-08-02,1
M,Zakhar Frolov,Захар Фролов,94.7,,,,,,,,,,,200,205,210,210,,210,100,D,Raw,Yes,M-O,1990-07-29,2
M,Eduard Kern,Эдуард Керн,91.2,,,,,,,,,,,140,-160,-170,140,,140,100,D,Raw,Yes,M-O,1990-09-21,3
M,Viktor Banman,Виктор Банман,81.5,,,,,,,,,,,170,190,,190,,190,82.5,D,Single-ply,Yes,M-M5-E,1957-01-18,1
F,Kristina Namitok,Кристина Намиток,61.7,-90,90,100,100,,30,-40,-40,30,,-90,90,102.5,102.5,,232.5,67.5,SBD,Wraps,No,F-O,1985-03-02,1
M,Denis Storozhko,Денис Сторожко,76.4,125,130,135,135,,95,97.5,-100,97.5,,140,142.5,145,145,,377.5,82.5,SBD,Wraps,No,M-T2,2002-12-14,3
M,Aleksandr Grushinskiy,Александр Грушинский,89.5,-222.5,230,-235,230,,130,135,140,140,,260,270,277.5,277.5,,647.5,90,SBD,Wraps,No,M-M1,1975-02-06,1
M,Nikolay Nakakhidi,Николай Накахиди,93.7,220,230,-240,230,,130,140,145,145,,-230,-230,230,230,,605,100,SBD,Wraps,No,M-O,1980-07-28,1
M,Yashar Shavoev,Яшар Шавоев,123,310,-335,,310,,170,180,-190,180,,260,280,,280,,770,125,SBD,Wraps,No,M-O,1986-10-02,1
M,Pavel Dedik,Павел Дедик,112.1,-210,210,215,215,,142.5,150,157.5,157.5,,-235,245,255,255,,627.5,125,SBD,Wraps,No,M-M1,1975-05-04,1
M,Nikolay Pogorelyy,Николай Погорелый,95.4,275,300,310,310,,140,-165,-165,140,,-260,260,-290,260,,710,100,SBD,Single-ply,No,M-O-E,1993-10-01,1
M,Yashar Shavoev,Яшар Шавоев,123,310,-335,,310,,,,,,,,,,,,310,125,S,Raw,No,M-O,1986-10-02,1
M,Sergey Starodubskiy,Сергей Стародубский,121.8,293,312.5,332.5,332.5,,,,,,,,,,,,332.5,125,S,Raw,No,M-M1,1977-12-20,1
M,Pavel Mitrofanov,Павел Митрофанов,99.4,310,340,-365,340,,,,,,,,,,,,340,100,S,Single-ply,No,M-O-E,1983-08-12,1
F,Olga Boychenko,Ольга Бойченко,56,,,,,,42.5,47.5,-50,47.5,,,,,,,47.5,56,B,Raw,No,F-M2,1969-10-01,1
F,Svetlana Maletskaya,Светлана Малецкая,72.8,,,,,,80,85,90,90,,,,,,,90,75,B,Raw,No,F-O,1983-06-04,1
M,Vitaliy Samsonov,Виталий Самсонов,79.6,,,,,,160,170,177.5,177.5,,,,,,,177.5,82.5,B,Raw,No,M-O,1988-09-06,1
M,Denis Stroganov,Денис Строганов,85.2,,,,,,140,150,-157.5,150,,,,,,,150,90,B,Raw,No,M-M1,1978-09-19,1
M,Aleksandr Bazhenov,Александр Баженов,87.9,,,,,,120,127.5,132.5,132.5,,,,,,,132.5,90,B,Raw,No,M-M6,1952-04-18,1
M,Evgeniy Korotchenko,Евгений Коротченко,91.7,,,,,,140,145,150,150,,,,,,,150,100,B,Raw,No,M-J,1996-04-03,1
M,Mikhail Petrosov,Михаил Петросов,97.2,,,,,,190,200,207.5,207.5,,,,,,,207.5,100,B,Raw,No,M-O,1986-12-23,1
M,Vladimir Zakharov,Владимир Захаров,100,,,,,,185,190,-192.5,190,,,,,,,190,100,B,Raw,No,M-M5,1955-07-07,1
M,Sergey Starodubskiy,Сергей Стародубский,121.8,,,,,,290,320.5,-335,320.5,,,,,,,320,125,B,Single-ply,No,M-M1-E,1977-12-20,1
M,Dmitriy Nadzha,Дмитрий Наджа,100,,,,,,-270,270,-312.5,270,,,,,,,270,100,B,Unlimited,No,M-M1-E,1975-10-10,1
M,Ivan Bezrukov,Иван Безруков,59,,,,,,,,,,,90,100,,100,,100,60,D,Raw,No,M-O,1989-01-05,1
M,Aleksandr Dambinov,Александр Дамбинов,64,,,,,,,,,,,160,165,,165,,165,67.5,D,Raw,No,M-M9,1936-03-12,1
M,Denis Storozhko,Денис Сторожко,76.4,,,,,,,,,,,140,142.5,145,145,,145,82.5,D,Raw,No,M-T2,2002-12-14,1
M,Vladimir Dedkov,Владимир Дедков,88,,,,,,,,,,,250,265,280,280,,280,90,D,Raw,No,M-O,1992-07-10,1
M,Roman Fedorov,Роман Федоров,94.8,,,,,,,,,,,235,-245,,235,,235,100,D,Raw,No,M-O,1980-08-23,1
M,Aleksandr Medvedev,Александр Медведев,97.2,,,,,,,,,,,240,255,263,263,,262.5,100,D,Raw,No,M-M3,1967-01-19,1
M,Anatoliy Talovasov,Анатолий Таловасов,109,,,,,,,,,,,210,220,230,230,,230,110,D,Raw,No,M-M4,1960-12-01,1
M,Aleksandr Yarantsev,Александр Яранцев,118.1,,,,,,,,,,,240,257.5,270,270,,270,125,D,Raw,No,M-O,1992-02-21,1
M,Ivan Bezrukov,Иван Безруков,59,,,,,,,,,,,90,100,,100,,100,60,D,Single-ply,No,M-O-E,1989-01-05,1
M,Valeriy Bezborodov,Валерий Безбородов,118.3,,,,,,,,,,,245,260,-270,260,,260,125,D,Single-ply,No,M-M1-E,1976-10-02,1
