Place,Name,CyrillicName,Country,BirthDate,BodyweightKg,Bench1Kg,Bench2Kg,Bench3Kg,Bench4Kg,Deadlift1Kg,Deadlift2Kg,Deadlift3Kg,Deadlift4Kg,TotalKg,WeightClassKg,Division,Sex,Event,Equipment,Tested,Best3BenchKg,Best3DeadliftKg,BirthYear
1,Oleksii Melnyk,Олексій Мельник,Ukraine,1990-04-26,88.8,190,200,-207.5,,310,-330,-330,,510,100,Open,M,BD,Raw,No,200,310,1990
2,Mikhaylo Zhelyazkov,Михайло Желязков,Ukraine,1980-09-12,99.2,180,187.5,-190,,290,300,310,,497.5,100,Open,M,BD,Raw,No,187.5,310,1980
DQ,Roman Martynenko,Роман Мартиненко,Ukraine,1990-12-23,87.6,215,225,-235,,-290,-290,-290,,,100,Open,M,BD,Raw,No,225,,1990
1,Oleksandr Tarasov,Олександр Тарасов,Ukraine,1991-10-27,126.5,220,230,235,,-330,330,-340,,565,100+,Open,M,BD,Raw,No,235,330,1991
2,Dmitro Kravchinskiy,Дмитро Кравчинський,Ukraine,1982-05-19,126.8,205,215,220,,310,325,332.5,,552.5,100+,Open,M,BD,Raw,No,220,332.5,1982
3,Igor Kotsyuba,Ігор Коцюба,Ukraine,1982-09-21,127.5,177.5,185,190,,270,295,320,-350.5,510,100+,Open,M,BD,Raw,No,190,320,1982
4,Artem Turyanitsya,Артем Туряниця,Ukraine,1991-09-26,101.6,165,172.5,-177.5,,305,-315,,,477.5,100+,Open,M,BD,Raw,No,172.5,305,1991
1,Oleksandra Astakhova,Олександра Астахова,Ukraine,1990-12-16,50.7,65,70,-72.5,,130,140,-145,,210,56,Open,F,BD,Raw,No,70,140,1990
2,Olga Dimkova,Ольга Димкова,Ukraine,1987-08-27,53.7,45,50,-55,,115,130,-132.5,,180,56,Open,F,BD,Raw,No,50,130,1987
1,Marina Matvienko,Марина Матвієнко,Ukraine,1989-03-17,57.8,75,77.5,-80,,150,155,160,,237.5,56+,Open,F,BD,Raw,No,77.5,160,1989
2,Tetyana Dzherelyuk,Тетяна Джерелюк,Ukraine,1983-07-08,62.5,55,60,65,,130,-150,-150,,195,56+,Open,F,BD,Raw,No,65,130,1983
3,Katerina Filipova,Катерина Філіпова,Ukraine,1982-06-25,65.3,55,-62.5,-62.5,,100,110,,,165,56+,Open,F,BD,Raw,No,55,110,1982
DQ,Nataliya Sokurenko,Наталія Сокуренко,Ukraine,1981-01-12,59.5,72.5,-77.5,-77.5,,-140,-140,-140,,,56+,Open,F,BD,Raw,No,72.5,,1981
1,Daniil Matvienko,Данііл Матвієнко,Ukraine,2007-12-04,47.5,40,45,-47.5,,95,100,102.5,,147.5,60,Youth,M,BD,Raw,Yes,45,102.5,2007
2,Evgeniy Kurinniy,Євгеній Курінний,Ukraine,2008-06-04,38.2,30,-35,-35,,75,80,85,,115,60,Youth,M,BD,Raw,Yes,30,85,2008
3,Oleksiy Kharchenko,Олексій Харченко,Ukraine,2010-04-20,45.4,25,30,-35,,70,75,80,,110,60,Youth,M,BD,Raw,Yes,30,80,2010
4,Volodimir Tsiganok,Володимир Циганок,Ukraine,2007-10-24,47.4,25,30,-35,,60,70,75,,105,60,Youth,M,BD,Raw,Yes,30,75,2007
5,Konstyantin Datsenyuk,Констянтин Даценюк,Ukraine,2009-04-06,49.3,27.5,-32.5,32.5,,65,72.5,-75,,105,60,Youth,M,BD,Raw,Yes,32.5,72.5,2009
6,Timofiy Kharchenko,Тимофій Харченко,Ukraine,2012-03-02,44,20,-25,-27.5,,60,65,70,,90,60,Youth,M,BD,Raw,Yes,20,70,2012
1,Daniїl Brindin,Даніїл Бриндін,Ukraine,2002-12-28,55.4,60,70,,,120,-125,125,,195,60,Teen,M,BD,Raw,Yes,70,125,2002
2,Dmitro Brindin,Дмитро Бриндін,Ukraine,2002-12-28,56.7,55,62.5,67.5,,100,110,-120,,177.5,60,Teen,M,BD,Raw,Yes,67.5,110,2002
3,Vitaliy Tereschenko #2,Віталій Терещенко,Ukraine,2007-07-31,55.4,45,-47.5,-47.5,,100,105,-110,,150,60,Teen,M,BD,Raw,Yes,45,105,2007
4,Daniїl Kharchenko,Даніїл Харченко,Ukraine,2007-02-09,58.1,40,42.5,-45,,90,92.5,95,,137.5,60,Teen,M,BD,Raw,Yes,42.5,95,2007
1,Vitaliy Melnichenko,Віталій Мельніченко,Ukraine,2003-09-12,67.1,80,90,95,,160,175,185,,280,67.5,Teen,M,BD,Raw,Yes,95,185,2003
2,Sergiy Kurinniy,Сергій Курінний,Ukraine,2003-12-26,61.7,70,75,-77.5,,140,150,-155,,225,67.5,Teen,M,BD,Raw,Yes,75,150,2003
1,Igor Voytenko,Ігор Войтенко,Ukraine,2003-06-30,79.5,92.5,97.5,-100,,190,200,205,,302.5,82.5,Teen,M,BD,Raw,Yes,97.5,205,2003
2,Yaroslav Yatsenko,Ярослав Яценко,Ukraine,2001-08-24,87.2,-92.5,92.5,-95,,125,135,-137.5,,227.5,90,Teen,M,BD,Raw,Yes,92.5,135,2001
1,Yaroslav Gavyada,Ярослав Гав'яда,Ukraine,2003-02-18,106.9,110,120,130,,-240,240,-250,,370,110,Teen,M,BD,Raw,Yes,130,240,2003
1,Vladislav Kostyukov,Владислав Костюков,Ukraine,2002-09-24,117.2,100,105,110,,180,-192.5,195,,305,110+,Teen,M,BD,Raw,Yes,110,195,2002
1,Vladislav Ermakov,Владислав Єрмаков,Ukraine,2000-08-17,67.5,105,-110,110,,145,150,-155,,260,,Juniors 20-23,M,BD,Raw,Yes,110,150,2000
1,Vladislav Treshchalov,Владислав Трещалов,Ukraine,1998-10-03,78.8,105,107.5,-112.5,,-145,-150,150,,257.5,,Juniors 20-23,M,BD,Raw,Yes,107.5,150,1998
1,Illya Chaban,Ілля Чабан,Ukraine,1999-12-31,88.8,125,-132.5,-132.5,,202.5,-210,210,,335,90,Juniors 20-23,M,BD,Raw,Yes,125,210,1999
1,Valentin Gontar,Валентин Гонтар,Ukraine,1987-09-26,78.7,140,-145,-145,,250,257.5,-262.5,,397.5,82.5,Open,M,BD,Raw,Yes,140,257.5,1987
2,Sergiy Timchenko,Сергій Тимченко,Ukraine,1989-12-18,79.3,117.5,125,127.5,,195,207.5,212.5,,340,82.5,Open,M,BD,Raw,Yes,127.5,212.5,1989
3,Oleksandr Pilipenko,Олександр Пилипенко,Ukraine,1994-04-17,81.7,100,105,110,,170,180,190,,300,82.5,Open,M,BD,Raw,Yes,110,190,1994
1,Sergiy Sklyaruk,Сергій Склярук,Ukraine,1998-07-09,89.5,150,160,-162.5,,270,285,-300,,445,90,Open,M,BD,Raw,Yes,160,285,1998
2,Mikola Yaremenko,Микола Яременко,Ukraine,1998-08-20,86.9,130,140,150,,-245,245,260,,410,90,Open,M,BD,Raw,Yes,150,260,1998
3,Sergiy Ulyanenko,Сергій Ульяненко,Ukraine,1995-06-26,86.8,115,120,125,,150,170,175,,300,90,Open,M,BD,Raw,Yes,125,175,1995
1,Viktor Rublyov,Віктор Рубльов,Ukraine,1975-10-26,99.4,180,190,-195,,240,250,-260,,440,100,Open,M,BD,Raw,Yes,190,250,1975
2,Mikola Matvienko,Микола Матвієнко,Ukraine,1984-12-21,96.1,140,150,-155,,210,220,230,,380,100,Open,M,BD,Raw,Yes,150,230,1984
3,Volodimir Plyuta,Володимир Плюта,Ukraine,1992-03-01,93.8,110,120,-130,,210,232.5,250,,370,100,Open,M,BD,Raw,Yes,120,250,1992
4,Oleksiy Zhadko,Олексій Жадько,Ukraine,1991-03-30,95.1,120,125,130,,210,220,230,,360,100,Open,M,BD,Raw,Yes,130,230,1991
1,Dmitro Kravchinskiy,Дмитро Кравчинський,Ukraine,1982-05-19,126.8,205,215,220,,310,325,332.5,,552.5,110+,Open,M,BD,Raw,Yes,220,332.5,1982
2,Igor Kotsyuba,Ігор Коцюба,Ukraine,1982-09-21,127.5,177.5,185,190,,270,295,320,-350.5,510,110+,Open,M,BD,Raw,Yes,190,320,1982
1,Taras Kolyada,Тарас Коляда,Ukraine,1976-04-26,85.2,122.5,127.5,130,,160,170,-180,,300,90,Masters 40-49,M,BD,Raw,Yes,130,170,1976
1,Yuriy Kostenko,Юрій Костенко,Ukraine,1971-07-28,97.9,165,172.5,177.5,,265,-280,-280,,442.5,100,Masters 40-49,M,BD,Raw,Yes,177.5,265,1971
2,Viktor Rublyov,Віктор Рубльов,Ukraine,1975-10-26,99.4,180,190,-195,,240,250,-260,,440,100,Masters 40-49,M,BD,Raw,Yes,190,250,1975
1,Andriy Romanchuk,Андрій Романчук,Ukraine,1976-12-27,105.5,152.5,158,-163.5,,235.5,247.5,260,,418,110,Masters 40-49,M,BD,Raw,Yes,158,260,1976
2,Anton Naumovich,Антон Наумович,Ukraine,1977-10-25,102.4,127.5,135,140,,215,225,235,,375,110,Masters 40-49,M,BD,Raw,Yes,140,235,1977
3,Sergiy Danilenko,Сергій Даниленко,Ukraine,1977-10-23,103.7,140,145,-150,,220,230,-240,,375,110,Masters 40-49,M,BD,Raw,Yes,145,230,1977
1,Volodimir Kolomiets,Володимир Коломіець,Ukraine,1966-05-09,105,150,157.5,163,165,210,222.5,235,,398,110,Masters 50-59,M,BD,Raw,Yes,163,235,1966
1,Oleksandr Ostrovskiy,Олександр Островський,Ukraine,1953-02-10,74.8,60,70,,,140,150,155,,225,75,Masters 60-69,M,BD,Raw,Yes,70,155,1953
DQ,Yuriy Starkov,Юрій Старков,Ukraine,1947-09-01,82.2,100,105,110,,-205,,,,,82.5,Masters 70-79,M,BD,Raw,Yes,110,,1947
1,Vasil Turbal,Василь Турбал,Ukraine,1948-07-16,85.3,85,90,95,,110,120,130,,225,90,Masters 70-79,M,BD,Raw,Yes,95,130,1948
1,Renata Ignatova,Рената Ігнатова,Ukraine,2004-11-05,67.45,50,55,-60,,92.5,100,107.5,,162.5,56+,Teen,F,BD,Raw,Yes,55,107.5,2004
1,Yuliya Ponomarenko,Юлія Пономаренко,Ukraine,1987-10-18,47.1,50,52.5,-55,,117.5,-122.5,122.5,,175,56,Open,F,BD,Raw,Yes,52.5,122.5,1987
2,Olga Dimkova,Ольга Димкова,Ukraine,1987-08-27,53.7,45,50,-55,,115,130,-132.5,,180,56,Open,F,BD,Raw,Yes,50,130,1987
1,Oksana Ostroushko,Оксана Остроушко,Ukraine,1983-04-26,63.5,72.5,77.5,-80,,132.5,142.5,152.5,,230,56+,Open,F,BD,Raw,Yes,77.5,152.5,1983
2,Irina Zhelyazkova,Ірина Желязкова,Ukraine,1992-10-16,61.9,60,65,70,,140,150,155,,225,56+,Open,F,BD,Raw,Yes,70,155,1992
3,Tetyana Dzherelyuk,Тетяна Джерелюк,Ukraine,1983-07-08,62.5,55,60,65,,130,-150,-150,,195,56+,Open,F,BD,Raw,Yes,65,130,1983
4,Katerina Filipova,Катерина Філіпова,Ukraine,1982-06-25,65.3,55,-62.5,-62.5,,100,110,,,165,56+,Open,F,BD,Raw,Yes,55,110,1982
DQ,Nataliya Sokurenko,Наталія Сокуренко,Ukraine,1981-01-12,59.5,72.5,-77.5,-77.5,,-140,-140,-140,,,56+,Open,F,BD,Raw,Yes,72.5,,1981
1,Zhaneta Shostak,Жанета Шостак,Ukraine,1972-07-26,69,60,65,,,125,137.5,-150,,202.5,56+,Masters 40-49,F,BD,Raw,Yes,65,137.5,1972
1,Vadim Marinich,Вадим Маринич,Ukraine,1981-08-31,79.1,170,-180,180,,,,,,180,82.5,Open,M,B,Raw,No,180,,1981
2,Vitaliy Gladkiy,Віталій Гладкий,Ukraine,1973-04-17,81,170,175,-180,,,,,,175,82.5,Open,M,B,Raw,No,175,,1973
3,Evgeniy Boloban,Євгеній Болобан,Ukraine,1996-08-28,81.2,175,-182.5,,,,,,,175,82.5,Open,M,B,Raw,No,175,,1996
1,Roman Martynenko,Роман Мартиненко,Ukraine,1990-12-23,87.6,215,225,-235,,,,,,225,100,Open,M,B,Raw,No,225,,1990
2,Oleksiy Bronishevskiy,Олексій Бронішевський,Ukraine,1988-03-26,88.4,215,221,-226,,,,,,221,100,Open,M,B,Raw,No,221,,1988
3,Oleksii Melnyk,Олексій Мельник,Ukraine,1990-04-26,88.8,190,200,-207.5,,,,,,200,100,Open,M,B,Raw,No,200,,1990
4,Viktor Rublyov,Віктор Рубльов,Ukraine,1975-10-26,99.4,180,190,-195,,,,,,190,100,Open,M,B,Raw,No,190,,1975
5,Mikhaylo Zhelyazkov,Михайло Желязков,Ukraine,1980-09-12,99.2,180,187.5,-190,,,,,,187.5,100,Open,M,B,Raw,No,187.5,,1980
1,Evgeniy Rudnik,Євгеній Руднік,Ukraine,1978-03-01,105.6,225,-232.5,-232.5,,,,,,225,100+,Open,M,B,Raw,No,225,,1978
2,Oleksandr Tarasov,Олександр Тарасов,Ukraine,1991-10-27,126.5,220,230,235,,,,,,235,100+,Open,M,B,Raw,No,235,,1991
3,Dmitro Kravchinskiy,Дмитро Кравчинський,Ukraine,1982-05-19,126.8,205,215,220,,,,,,220,100+,Open,M,B,Raw,No,220,,1982
4,Sergiy Plotnikov,Сергій Плотніков,Ukraine,1995-01-08,102.8,175,185,192.5,,,,,,192.5,100+,Open,M,B,Raw,No,192.5,,1995
5,Igor Kotsyuba,Ігор Коцюба,Ukraine,1982-09-21,127.5,177.5,185,190,,,,,,190,100+,Open,M,B,Raw,No,190,,1982
DQ,Maksim Volvak,Максим Вольвак,Ukraine,1978-06-29,103.6,-200,,,,,,,,,100+,Open,M,B,Raw,No,,,1978
1,Oleksandra Astakhova,Олександра Астахова,Ukraine,1990-12-16,50.7,65,70,-72.5,,,,,,70,56,Open,F,B,Raw,No,70,,1990
1,Nadiya Tishchenko,Надія Тищенко,Ukraine,1993-09-30,71.9,115,120,125,,,,,,125,56+,Open,F,B,Raw,No,125,,1993
2,Marina Matvienko,Марина Матвієнко,Ukraine,1989-03-17,57.8,75,77.5,-80,,,,,,77.5,56+,Open,F,B,Raw,No,77.5,,1989
3,Nataliya Sokurenko,Наталія Сокуренко,Ukraine,1981-01-12,59.5,72.5,-77.5,-77.5,,,,,,72.5,56+,Open,F,B,Raw,No,72.5,,1981
4,Katerina Filipova,Катерина Філіпова,Ukraine,1982-06-25,65.3,55,-62.5,-62.5,,,,,,55,56+,Open,F,B,Raw,No,55,,1982
1,Vitaliy Melnichenko,Віталій Мельніченко,Ukraine,2003-09-12,67.1,80,90,95,,,,,,95,67.5,Teen,M,B,Raw,Yes,95,,2003
1,Mikola Volodko,Микола Володько,Ukraine,2006-08-10,79.6,95,-100,-100,,,,,,95,82.5,Teen,M,B,Raw,Yes,95,,2006
1,Yaroslav Slutskiy,Ярослав Слуцький,Ukraine,2001-01-24,82.9,110,-120,120,,,,,,120,90,Teen,M,B,Raw,Yes,120,,2001
2,Yaroslav Yatsenko,Ярослав Яценко,Ukraine,2001-08-24,87.2,-92.5,92.5,-95,,,,,,92.5,90,Teen,M,B,Raw,Yes,92.5,,2001
1,Yaroslav Gavyada,Ярослав Гав'яда,Ukraine,2003-02-18,106.9,110,120,130,,,,,,130,110,Teen,M,B,Raw,Yes,130,,2003
1,Vladislav Ermakov,Владислав Єрмаков,Ukraine,2000-08-17,67.5,105,-110,110,,,,,,110,67.5,Juniors 20-23,M,B,Raw,Yes,110,,2000
1,Andriy Raychuk,Андрій Райчук,Ukraine,2001-03-03,72,120,125,130,,,,,,130,75,Teen,M,B,Raw,Yes,130,,2001
2,Artem Garkusha,Артем Гаркуша,Ukraine,2000-09-11,73.6,117.5,120,-122.5,,,,,,120,75,Juniors 20-23,M,B,Raw,Yes,120,,2000
1,Vladislav Treshchalov,Владислав Трещалов,Ukraine,1998-10-03,78.8,105,107.5,-112.5,,,,,,107.5,82.5,Juniors 20-23,M,B,Raw,Yes,107.5,,1998
1,Illya Chaban,Ілля Чабан,Ukraine,1999-12-31,88.8,125,-132.5,-132.5,,,,,,125,90,Juniors 20-23,M,B,Raw,Yes,125,,1999
1,Volodimir Getman,Володимир Гетьман,Ukraine,1995-02-07,82.5,155,162.5,165,,,,,,165,82.5,Open,M,B,Raw,Yes,165,,1995
2,Vadim Tocheniy,Вадим Точений,Ukraine,1986-08-26,80.7,-132.5,132.5,145,,,,,,145,82.5,Open,M,B,Raw,Yes,145,,1986
3,Bogdan Zvirko,Богдан Звірко,Ukraine,1990-09-07,81.3,110,115,-120,,,,,,115,82.5,Open,M,B,Raw,Yes,115,,1990
4,Oleksandr Pilipenko,Олександр Пилипенко,Ukraine,1994-04-17,81.7,100,105,110,,,,,,110,82.5,Open,M,B,Raw,Yes,110,,1994
1,Dmitro Greyts,Дмитро Грейц,Ukraine,1989-05-19,89.4,145,-155,160,,,,,,160,90,Open,M,B,Raw,Yes,160,,1989
2,Sergiy Ulyanenko,Сергій Ульяненко,Ukraine,1995-06-26,86.8,115,120,125,,,,,,125,90,Open,M,B,Raw,Yes,125,,1995
1,Sergiy Shepel,Сергій Шепель,Ukraine,1983-03-28,96.5,170,180,190,,,,,,190,100,Open,M,B,Raw,Yes,190,,1983
2,Evgeniy Gutnik,Євгеній Гутник,Ukraine,1990-06-01,96.3,125,130,135,,,,,,135,100,Open,M,B,Raw,Yes,135,,1990
3,Volodimir Plyuta,Володимир Плюта,Ukraine,1992-03-01,93.8,110,120,-130,,,,,,120,100,Open,M,B,Raw,Yes,120,,1992
1,Evgeniy Rudnik,Євгеній Руднік,Ukraine,1978-03-01,105.6,225,-232.5,-232.5,,,,,,225,110,Open,M,B,Raw,Yes,225,,1978
2,Sergiy Plotnikov,Сергій Плотніков,Ukraine,1995-01-08,102.8,175,185,192.5,,,,,,192.5,110,Open,M,B,Raw,Yes,192.5,,1995
3,Volodimir Moskalenko,Володимир Москаленко,Ukraine,1988-03-08,105.4,150,155,157.5,,,,,,157.5,110,Open,M,B,Raw,Yes,157.5,,1988
1,Dmitro Kravchinskiy,Дмитро Кравчинський,Ukraine,1982-05-19,126.8,205,215,220,,,,,,220,110+,Open,M,B,Raw,Yes,220,,1982
2,Igor Kotsyuba,Ігор Коцюба,Ukraine,1982-09-21,127.5,177.5,185,190,,,,,,190,110+,Open,M,B,Raw,Yes,190,,1982
3,Yuriy Parkhomenko #2,Юрій Пархоменко,Ukraine,1982-07-04,139.9,140,165,-170,,,,,,165,110+,Open,M,B,Raw,Yes,165,,1982
1,Vitaliy Gladkiy,Віталій Гладкий,Ukraine,1973-04-17,81,170,175,-180,,,,,,175,,Masters 40-49,M,B,Raw,Yes,175,,1973
1,Taras Kolyada,Тарас Коляда,Ukraine,1976-04-26,85.2,122.5,127.5,130,,,,,,130,90,Masters 40-49,M,B,Raw,Yes,130,,1976
1,Yuriy Kostenko,Юрій Костенко,Ukraine,1971-07-28,97.9,165,172.5,177.5,,,,,,177.5,100,Masters 40-49,M,B,Raw,Yes,177.5,,1971
1,Evgeniy Rudnik,Євгеній Руднік,Ukraine,1978-03-01,105.6,225,-232.5,-232.5,,,,,,225,110,Masters 40-49,M,B,Raw,Yes,225,,1978
2,Andriy Romanchuk,Андрій Романчук,Ukraine,1976-12-27,105.5,152.5,158,-163.5,,,,,,158,110,Masters 40-49,M,B,Raw,Yes,158,,1976
3,Sergiy Danilenko,Сергій Даниленко,Ukraine,1977-10-23,103.7,140,145,-150,,,,,,145,110,Masters 40-49,M,B,Raw,Yes,145,,1977
4,Viktor Dergay,Віктор Дергай,Ukraine,1976-08-27,106.5,105,-107.5,107.5,,,,,,107.5,110,Masters 40-49,M,B,Raw,Yes,107.5,,1976
1,Volodimir Kolomiets,Володимир Коломіець,Ukraine,1966-05-09,105,150,157.5,163,165,,,,,163,110,Masters 50-59,M,B,Raw,Yes,163,,1966
1,Oleksandr Ostrovskiy,Олександр Островський,Ukraine,1953-02-10,74.8,60,70,,,,,,,70,75,Masters 60-69,M,B,Raw,Yes,70,,1953
1,Yuriy Starkov,Юрій Старков,Ukraine,1947-09-01,82.2,100,105,110,,,,,,110,82.5,Masters 70-79,M,B,Raw,Yes,110,,1947
1,Vasil Turbal,Василь Турбал,Ukraine,1948-07-16,85.3,85,90,95,,,,,,95,90,Masters 70-79,M,B,Raw,Yes,95,,1948
1,Renata Ignatova,Рената Ігнатова,Ukraine,2004-11-05,67.45,50,55,-60,,,,,,55,56+,Teen,F,B,Raw,Yes,55,,2004
1,Oksana Ostroushko,Оксана Остроушко,Ukraine,1983-04-26,63.5,72.5,77.5,-80,,,,,,77.5,56+,Open,F,B,Raw,Yes,77.5,,1983
2,Nataliya Sokurenko,Наталія Сокуренко,Ukraine,1981-01-12,59.5,72.5,-77.5,-77.5,,,,,,72.5,56+,Open,F,B,Raw,Yes,72.5,,1981
3,Katerina Filipova,Катерина Філіпова,Ukraine,1982-06-25,65.3,55,-62.5,-62.5,,,,,,55,56+,Open,F,B,Raw,Yes,55,,1982
2,Evgeniy Kalko,Євгеній Калько,Ukraine,1993-03-22,80,,,,,285,-292.5,-292.5,,285,82.5,Open,M,D,Raw,No,,285,1993
3,Dmitro Girnik,Дмитро Гірник,Ukraine,1982-04-22,82.5,,,,,190,207.5,,,207.5,82.5,Open,M,D,Raw,No,,207.5,1982
1,Dmitro Nikolaev,Дмитро Ніколаєв,Ukraine,1996-09-11,94.5,,,,,310,325,-332.5,,325,100,Open,M,D,Raw,No,,325,1996
2,Oleksii Melnyk,Олексій Мельник,Ukraine,1990-04-26,88.8,,,,,310,-330,-330,,310,100,Open,M,D,Raw,No,,310,1990
3,Vitaliy Stets,Віталій Стець,Ukraine,1998-09-08,96.8,,,,,310,-322.5,-322.5,,310,100,Open,M,D,Raw,No,,310,1998
4,Mikhaylo Zhelyazkov,Михайло Желязков,Ukraine,1980-09-12,99.2,,,,,290,300,310,,310,100,Open,M,D,Raw,No,,310,1980
5,Sergiy Sklyaruk,Сергій Склярук,Ukraine,1998-07-09,89.5,,,,,270,285,-300,,285,100,Open,M,D,Raw,No,,285,1998
DQ,Roman Martynenko,Роман Мартиненко,Ukraine,1990-12-23,87.6,,,,,-290,-290,-290,,,100,Open,M,D,Raw,No,,,1990
1,Zhorzh Togola,Жорж Тогола,Ukraine,1989-04-05,111.8,,,,,352.5,-360,-360,,352.5,100+,Open,M,D,Raw,No,,352.5,1989
2,Dmitro Kravchinskiy,Дмитро Кравчинський,Ukraine,1982-05-19,126.8,,,,,310,325,332.5,,332.5,100+,Open,M,D,Raw,No,,332.5,1982
3,Oleksandr Tarasov,Олександр Тарасов,Ukraine,1991-10-27,126.5,,,,,-330,330,-340,,330,100+,Open,M,D,Raw,No,,330,1991
4,Igor Kotsyuba,Ігор Коцюба,Ukraine,1982-09-21,127.5,,,,,270,295,320,-350.5,320,100+,Open,M,D,Raw,No,,320,1982
5,Artem Turyanitsya,Артем Туряниця,Ukraine,1991-09-26,101.6,,,,,305,-315,,,305,100+,Open,M,D,Raw,No,,305,1991
1,Oleksandra Astakhova,Олександра Астахова,Ukraine,1990-12-16,50.7,,,,,130,140,-145,,140,56,Open,F,D,Raw,No,,140,1990
2,Yuliya Ponomarenko,Юлія Пономаренко,Ukraine,1987-10-18,47.1,,,,,117.5,-122.5,122.5,,122.5,56,Open,F,D,Raw,No,,122.5,1987
3,Olga Dimkova,Ольга Димкова,Ukraine,1987-08-27,53.7,,,,,115,130,-132.5,,130,56,Open,F,D,Raw,No,,130,1987
1,Marina Matvienko,Марина Матвієнко,Ukraine,1989-03-17,57.8,,,,,150,155,160,,160,56+,Open,F,D,Raw,No,,160,1989
2,Katerina Gerasimchuk,Катерина Герасимчук,Ukraine,1995-07-13,65.8,,,,,125,137.5,-145,,137.5,56+,Open,F,D,Raw,No,,137.5,1995
3,Tetyana Dzherelyuk,Тетяна Джерелюк,Ukraine,1983-07-08,62.5,,,,,130,-150,-150,,130,56+,Open,F,D,Raw,No,,130,1983
4,Katerina Filipova,Катерина Філіпова,Ukraine,1982-06-25,65.3,,,,,100,110,,,110,56+,Open,F,D,Raw,No,,110,1982
DQ,Nataliya Sokurenko,Наталія Сокуренко,Ukraine,1981-01-12,59.5,,,,,-140,-140,-140,,,56+,Open,F,D,Raw,No,,,1981
1,Maksim Chornenko,Максим Чорненко,Ukraine,2007-11-07,37.5,,,,,80,85,90,,90,60,Youth,M,D,Raw,Yes,,90,2007
1,Evgeniy Pilipenko,Євгеній Пилипенко,Ukraine,2009-02-02,60.3,,,,,-57.5,57.5,70,,70,67.5,Youth,M,D,Raw,Yes,,70,2009
1,Vitaliy Melnichenko,Віталій Мельніченко,Ukraine,2003-09-12,67.1,,,,,160,175,185,,185,67.5,Teen,M,D,Raw,Yes,,185,2003
1,Valentin Bobrovitskiy,Валентин Бобровіцький,Ukraine,2002-03-14,71.2,,,,,170,175,182.5,,182.5,75,Teen,M,D,Raw,Yes,,182.5,2002
2,Yaroslav Yatsenko,Ярослав Яценко,Ukraine,2001-08-24,87.2,,,,,125,135,-137.5,,135,90,Teen,M,D,Raw,Yes,,135,2001
1,Yaroslav Gavyada,Ярослав Гав'яда,Ukraine,2003-02-18,106.9,,,,,-240,240,-250,,240,110,Teen,M,D,Raw,Yes,,240,2003
1,Andriy Raychuk,Андрій Райчук,Ukraine,2001-03-03,72,,,,,220,-230,-230,,220,75,Teen 18-19,M,D,Raw,Yes,,220,2001
1,Illya Chaban,Ілля Чабан,Ukraine,1999-12-31,88.8,,,,,202.5,-210,210,,210,90,Juniors 20-23,M,D,Raw,Yes,,210,1999
2,Dmitro Girnik,Дмитро Гірник,Ukraine,1982-04-22,72.5,,,,,190,207.5,,,207.5,75,Open,M,D,Raw,Yes,,207.5,1982
1,Oleg Zhuchkov,Олег Жучков,Ukraine,1994-03-18,78.5,,,,,260,270,275,,275,82.5,Open,M,D,Raw,Yes,,275,1994
2,Valentin Gontar,Валентин Гонтар,Ukraine,1987-09-26,78.7,,,,,250,257.5,-262.5,,257.5,82.5,Open,M,D,Raw,Yes,,257.5,1987
3,Petro Zapara,Петро Запара,Ukraine,1973-03-08,82.2,,,,,190,220,-240,,220,82.5,Open,M,D,Raw,Yes,,220,1973
4,Bogdan Pogoriliy,Богдан Погорілий,Ukraine,1995-12-09,80.5,,,,,190,200,210,,210,82.5,Open,M,D,Raw,Yes,,210,1995
5,Oleksandr Pilipenko,Олександр Пилипенко,Ukraine,1994-04-17,81.7,,,,,170,180,190,,190,82.5,Open,M,D,Raw,Yes,,190,1994
DQ,Dmitro Solonenko,Дмитро Солоненко,Ukraine,1994-06-11,81.7,,,,,-250,,,,,82.5,Open,M,D,Raw,Yes,,,1994
1,Sergiy Sklyaruk,Сергій Склярук,Ukraine,1998-07-09,89.5,,,,,270,285,-300,,285,90,Open,M,D,Raw,Yes,,285,1998
2,Mikola Yaremenko,Микола Яременко,Ukraine,1998-08-20,86.9,,,,,-245,245,260,,260,90,Open,M,D,Raw,Yes,,260,1998
3,Oleksandr Drobilko,Олександр Дробілко,Ukraine,1972-11-13,89.4,,,,,240,250,260,,260,90,Open,M,D,Raw,Yes,,260,1972
4,Sergiy Ulyanenko,Сергій Ульяненко,Ukraine,1995-06-26,86.8,,,,,150,170,175,,175,90,Open,M,D,Raw,Yes,,175,1995
1,Volodimir Plyuta,Володимир Плюта,Ukraine,1992-03-01,93.8,,,,,210,232.5,250,,250,100,Open,M,D,Raw,Yes,,250,1992
2,Oleksiy Zhadko,Олексій Жадько,Ukraine,1991-03-30,95.1,,,,,210,220,230,,230,100,Open,M,D,Raw,Yes,,230,1991
3,V'yacheslav Kovalenko,В'ячеслав Коваленко,Ukraine,1994-10-28,98.3,,,,,185,200,210,,210,100,Open,M,D,Raw,Yes,,210,1994
1,Volodimir Moskalenko,Володимир Москаленко,Ukraine,1988-03-08,105.4,,,,,240,245,-250,,245,110,Open,M,D,Raw,Yes,,245,1988
2,Valentin Kazmirenko,Валентин Казьміренко,Ukraine,1991-01-22,107.5,,,,,220,230,240,,240,110,Open,M,D,Raw,Yes,,240,1991
1,Dmitro Kravchinskiy,Дмитро Кравчинський,Ukraine,1982-05-19,126.8,,,,,310,325,332.5,,332.5,110+,Open,M,D,Raw,Yes,,332.5,1982
2,Igor Kotsyuba,Ігор Коцюба,Ukraine,1982-09-21,127.5,,,,,270,295,320,-350.5,320,110+,Open,M,D,Raw,Yes,,320,1982
1,Petro Zapara,Петро Запара,Ukraine,1973-03-08,82.2,,,,,190,220,-240,,220,82.5,Masters 40-49,M,D,Raw,Yes,,220,1973
1,Oleksandr Drobilko,Олександр Дробілко,Ukraine,1972-11-13,89.4,,,,,240,250,260,,260,90,Masters 40-49,M,D,Raw,Yes,,260,1972
2,Viktor Tishchenko,Віктор Тищенко,Ukraine,1978-06-23,89.7,,,,,220,230,-240,,230,90,Masters 40-49,M,D,Raw,Yes,,230,1978
3,Taras Kolyada,Тарас Коляда,Ukraine,1976-04-26,85.2,,,,,160,170,-180,,170,90,Masters 40-49,M,D,Raw,Yes,,170,1976
1,Yuriy Kostenko,Юрій Костенко,Ukraine,1971-07-28,97.9,,,,,265,-280,-280,,265,100,Masters 40-49,M,D,Raw,Yes,,265,1971
1,Anton Naumovich,Антон Наумович,Ukraine,1977-10-25,102.4,,,,,215,225,235,,235,110,Masters 40-49,M,D,Raw,Yes,,235,1977
2,Sergiy Danilenko,Сергій Даниленко,Ukraine,1977-10-23,103.7,,,,,220,230,-240,,230,110,Masters 40-49,M,D,Raw,Yes,,230,1977
1,Volodimir Kolomiets,Володимир Коломіець,Ukraine,1966-05-09,105,,,,,210,222.5,235,,235,110,Masters 50-59,M,D,Raw,Yes,,235,1966
1,Oleksandr Ostrovskiy,Олександр Островський,Ukraine,1953-02-10,74.8,,,,,140,150,155,,155,75,Masters 60-69,M,D,Raw,Yes,,155,1953
1,Ivan Slipchenko,Іван Сліпченко,Ukraine,1958-10-04,116.9,,,,,180,185,190,,190,110+,Masters 60-69,M,D,Raw,Yes,,190,1958
DQ,Yuriy Starkov,Юрій Старков,Ukraine,1947-09-01,82.2,,,,,-205,,,,,82.5,Masters 70-79,M,D,Raw,Yes,,,1947
1,Vasil Turbal,Василь Турбал,Ukraine,1948-07-16,85.3,,,,,110,120,130,,130,90,Masters 70-79,M,D,Raw,Yes,,130,1948
1,Renata Ignatova,Рената Ігнатова,Ukraine,2004-11-05,67.45,,,,,92.5,100,107.5,,107.5,56+,Teen,F,D,Raw,Yes,,107.5,2004
1,Yuliya Ponomarenko,Юлія Пономаренко,Ukraine,1987-10-18,47.1,,,,,117.5,-122.5,122.5,,122.5,56,Open,F,D,Raw,Yes,,122.5,1987
2,Olga Dimkova,Ольга Димкова,Ukraine,1987-08-27,53.7,,,,,115,130,-132.5,,130,56,Open,F,D,Raw,Yes,,130,1987
1,Irina Zhelyazkova,Ірина Желязкова,Ukraine,1992-10-16,61.9,,,,,140,150,155,,155,56+,Open,F,D,Raw,Yes,,155,1992
2,Oksana Ostroushko,Оксана Остроушко,Ukraine,1983-04-26,63.5,,,,,132.5,142.5,152.5,,152.5,56+,Open,F,D,Raw,Yes,,152.5,1983
3,Tetyana Dzherelyuk,Тетяна Джерелюк,Ukraine,1983-07-08,62.5,,,,,130,-150,-150,,130,56+,Open,F,D,Raw,Yes,,130,1983
4,Lyudmila Malikhatko,Людмила Маліхатко,Ukraine,1993-03-31,66.7,,,,,95,107.5,115,,115,56+,Open,F,D,Raw,Yes,,115,1993
5,Katerina Filipova,Катерина Філіпова,Ukraine,1982-06-25,65.3,,,,,100,110,,,110,56+,Open,F,D,Raw,Yes,,110,1982
DQ,Nataliya Sokurenko,Наталія Сокуренко,Ukraine,1981-01-12,59.5,,,,,-140,-140,-140,,,56+,Open,F,D,Raw,Yes,,,1981
