Place,Sex,Name,CyrillicName,BodyweightKg,Squat1Kg,Squat2Kg,Squat3Kg,Best3SquatKg,Squat4Kg,Bench1Kg,Bench2Kg,Bench3Kg,Best3BenchKg,Bench4Kg,Deadlift1Kg,Deadlift2Kg,Deadlift3Kg,Best3DeadliftKg,Deadlift4Kg,TotalKg,WeightClassKg,Event,Equipment,Tested,Division,Age,BirthDate
1,F,Natalya Polyakova,Наталья Полякова,48.7,75,80,85,85,,45,50,-55,50,,115,125,135,135,,270,52,SBD,Raw,Yes,Open,38,1982-07-18
1,F,Darya Koposova,Дарья Копосова,57.6,70,75,85,85,,40,45,-50,45,,70,-80,80,80,,210,60,SBD,Raw,Yes,Open,31,1989-08-23
1,M,Nikita Malykh,Никита Малых,49.9,65,75,85,85,,55,62.5,-67.5,62.5,,100,110,120,120,,267.5,52,SBD,Raw,Yes,Teen 13-15,15,2005-08-17
2,M,Nikita Krasavtsev,Никита Красавцев,47.2,60,65,72.5,72.5,,40,47.5,-52.5,47.5,,97.5,107.5,-117.5,107.5,,227.5,52,SBD,Raw,Yes,Teen 13-15,14,2006-06-27
1,M,Kirill Duryagin,Кирилл Дурягин,60,-65,70,-82.5,70,,50,57.5,65,65,,97.5,107.5,115,115,,250,60,SBD,Raw,Yes,Teen 13-15,15,2005-08-13
1,M,Oleg Dvoynikov,Олег Двойников,59.5,105,-115,-115,105,,77.5,82.5,85,85,,145,150,155,155,,345,60,SBD,Raw,Yes,Masters 60-64,60,1960-10-08
DQ,M,Georgiy Nelaev,Георгий Нелаев,62.6,115,-120,-122.5,115,,-90,-90,-90,,,,,,,,,67.5,SBD,Raw,Yes,Teen 16-17,17,2003-04-05
1,M,Ilya Konev,Илья Конев,75,90,-100,105,105,,55,60,65,65,,155,160,-170,160,,330,75,SBD,Raw,Yes,Teen 18-19,18,2002-08-15
1,M,Vitaliy Trunyakov,Виталий Труняков,81.8,100,110,117.5,117.5,,70,75,80,80,,140,-150,157.5,157.5,,355,82.5,SBD,Raw,Yes,Teen 13-15,15,2005-01-04
1,M,Artyom Shasherin,Артём Шашерин,80,170,180,190,190,,110,-115,,110,,200,210,-215,210,,510,82.5,SBD,Raw,Yes,Open,35,1984-11-08
1,M,Nikolay Novozhilov,Николай Новожилов,91.7,130,150,165,165,,-120,125,132.5,132.5,,170,190,-215,190,,487.5,100,SBD,Raw,Yes,Open,38,1982-05-19
2,M,Aleksey Yakushevich,Алексей Якушевич,95.7,50,150,185,185,,50,,,50,,50,150,250,250,,485,100,SBD,Raw,Yes,Open,29,1991-07-02
1,M,Aleksey Malyshev,Алексей Малышев,56.5,130,140,-147.5,140,,-90,100,107.5,107.5,,160,180,-190,180,,427.5,60,SBD,Raw,No,Teen 16-17,16,2004-06-30
1,M,Dmitriy Cherepanov,Дмитрий Черепанов,66.2,90,100,110,110,,55,60,65,65,,105,112.5,-120,112.5,,287.5,67.5,SBD,Raw,No,Teen 13-15,15,2005-06-02
1,M,Ivan Podzharov,Иван Поджаров,74.1,70,75,82.5,82.5,,42.5,-50,55,55,,-95,100,110,110,,247.5,75,SBD,Raw,No,Teen 16-17,17,2003-08-05
2,M,Mikhail Klyukin,Михаил Клюкин,74.6,60,65,70,70,,45,-50,50,50,,70,80,-90,80,,200,75,SBD,Raw,No,Teen 13-15,14,2006-09-25
1,M,Roman Malyshev,Роман Малышев,88.9,190,205,215,215,,140,152.5,157.5,157.5,,220,-250,,220,,592.5,90,SBD,Raw,No,Open,42,1978-08-20
1,M,Dmitriy Pavlov,Дмитрий Павлов,100,232.5,252.5,272.5,272.5,,170,180,190,190,,312.5,-330,330,330,,792.5,100,SBD,Raw,No,Open,24,1996-06-11
1,M,Sergey Moiseev,Сергей Моисеев,96.8,215,-225,-227.5,215,,145,-150,150,150,,-260,-270,270,270,,635,100,SBD,Raw,No,Masters 40-44,43,1977-08-24
1,M,Artyom Tropnikov,Артём Тропников,109,240,250,-260,250,,150,160,-170,160,,300,320,-340,320,,730,110,SBD,Raw,No,Open,28,1992-03-01
1,M,Sergey Nikitchuk,Сергей Никитчук,114.6,240,250,260,260,,160,170,-175,170,,290,300,310,310,,740,125,SBD,Raw,No,Open,40,1979-11-18
1,M,Oleg Dvoynikov,Олег Двойников,59.5,,,,,,77.5,82.5,85,85,,145,150,155,155,,240,60,BD,Raw,Yes,Masters 60-64,60,1960-10-08
1,M,Ilya Konev,Илья Конев,75,,,,,,55,60,65,65,,155,160,-170,160,,225,75,BD,Raw,Yes,Teen 18-19,18,2002-08-15
1,M,Vitaliy Romanov,Виталий Романов,78.8,,,,,,65,72.5,-77.5,72.5,,-150,160,167.5,167.5,,240,82.5,BD,Raw,Yes,Teen 16-17,16,2003-10-22
2,M,Vitaliy Trunyakov,Виталий Труняков,81.8,,,,,,70,75,80,80,,140,-150,157.5,157.5,,237.5,82.5,BD,Raw,Yes,Teen 13-15,15,2005-01-04
1,M,Dmitriy Pavlov,Дмитрий Павлов,100,,,,,,170,180,190,190,,312.5,-330,330,330,,520,100,BD,Raw,No,Open,24,1996-06-11
1,M,Artyom Tropnikov,Артём Тропников,109,,,,,,150,160,-170,160,,300,320,-340,320,,480,110,BD,Raw,No,Open,28,1992-03-01
1,M,Sergey Nikitchuk,Сергей Никитчук,114.6,,,,,,160,170,-175,170,,290,300,310,310,,480,125,BD,Raw,No,Open,40,1979-11-18
1,F,Anastasiya Nelaeva,Анастасия Нелаева,46.3,,,,,,25,30,35,35,,,,,,,35,48,B,Raw,Yes,Teen 13-15,15,2005-01-24
1,M,Vardan Ayvazyan,Вардан Айвазян,65.7,,,,,,90,-95,-95,90,,,,,,,90,67.5,B,Raw,Yes,Teen 16-17,17,2003-08-29
1,M,Ilya Konev,Илья Конев,75,,,,,,55,60,65,65,,,,,,,65,75,B,Raw,Yes,Teen 18-19,18,2002-08-15
1,M,Maksim Mashutinskiy,Максим Машутинский,81.2,,,,,,145,-155,155,155,,,,,,,155,82.5,B,Raw,Yes,Open,37,1982-12-11
2,M,Artem Poptsov,Артем Попцов,78.5,,,,,,-117.5,127.5,-132.5,127.5,,,,,,,127.5,82.5,B,Raw,Yes,Open,33,1987-05-03
1,M,Andrey Shevelev,Андрей Шевелев,88.9,,,,,,-135,140,145,145,,,,,,,145,90,B,Raw,Yes,Open,42,1978-04-05
1,M,Andrey Shevelev,Андрей Шевелев,88.9,,,,,,-135,140,145,145,,,,,,,145,90,B,Raw,Yes,Masters 40-44,42,1978-04-05
1,M,Grigoriy Sorokin,Григорий Сорокин,89.2,,,,,,-125,132.5,135,135,,,,,,,135,90,B,Raw,Yes,Masters 50-54,52,1968-01-10
1,M,Vladislav Efimovskiy,Владислав Ефимовский,98.9,,,,,,175,180,-185,180,,,,,,,180,100,B,Raw,Yes,Open,24,1995-12-20
1,F,Svetlana Kokovina,Светлана Коковина,50.2,,,,,,45,47.5,-50,47.5,,,,,,,47.5,52,B,Raw,No,Juniors 20-23,20,2000-03-22
1,M,Ilya Koposov,Илья Копосов,62.1,,,,,,82.5,87.5,90,90,,,,,,,90,67.5,B,Raw,No,Teen 16-17,17,2003-07-29
1,M,Azer Bayramov,Азер Байрамов,66,,,,,,90,-92.5,-92.5,90,,,,,,,90,67.5,B,Raw,No,Juniors 20-23,22,1998-02-04
1,M,Mikhail Grebenshchikov,Михаил Гребенщиков,66.6,,,,,,145,-150,-150,145,,,,,,,145,67.5,B,Raw,No,Open,32,1987-12-08
1,M,Kirill Vyatkin,Кирилл Вяткин,73.8,,,,,,85,90,-92.5,90,,,,,,,90,75,B,Raw,No,Teen 13-15,14,2006-01-01
2,M,Igor Shilovskiy,Игорь Шиловский,68,,,,,,-80,80,-85,80,,,,,,,80,75,B,Raw,No,Teen 13-15,15,2005-08-18
1,M,Maksim Burakov,Максим Бураков,80.7,,,,,,80,85,92.5,92.5,,,,,,,92.5,82.5,B,Raw,No,Teen 13-15,15,2005-04-15
2,M,Pavel Maklakov,Павел Маклаков,76.3,,,,,,75,-80,-80,75,,,,,,,75,82.5,B,Raw,No,Teen 13-15,15,2005-09-26
1,M,Dmitriy Pavlov,Дмитрий Павлов,100,,,,,,170,180,190,190,,,,,,,190,100,B,Raw,No,Open,24,1996-06-11
2,M,Andrey Chebykin,Андрей Чебыкин,100,,,,,,170,-175,-175,170,,,,,,,170,100,B,Raw,No,Open,44,1976-03-26
1,M,Andrey Chebykin,Андрей Чебыкин,100,,,,,,170,-175,-175,170,,,,,,,170,100,B,Raw,No,Masters 40-44,44,1976-03-26
2,M,Mikhail Kanin,Михаил Канин,93.7,,,,,,150,157.5,160,160,,,,,,,160,100,B,Raw,No,Masters 40-44,42,1978-07-06
1,M,Aleksey Maksimov,Алексей Максимов,109.3,,,,,,210,215,-220,215,,,,,,,215,110,B,Raw,No,Open,32,1988-04-12
1,M,Igor Brekhovskikh,Игорь Бреховских,104.1,,,,,,135,142.5,-147.5,142.5,,,,,,,142.5,110,B,Raw,No,Masters 65-69,66,1954-02-20
1,M,Eduard Surov,Эдуард Суров,118.9,,,,,,190,202.5,210,210,,,,,,,210,125,B,Raw,No,Open,44,1976-09-30
2,M,Sergey Nikitchuk,Сергей Никитчук,114.6,,,,,,160,170,-175,170,,,,,,,170,125,B,Raw,No,Open,40,1979-11-18
1,M,Eduard Surov,Эдуард Суров,118.9,,,,,,190,202.5,210,210,,,,,,,210,125,B,Raw,No,Masters 40-44,44,1976-09-30
1,M,Andrey Evstifeev,Андрей Евстифеев,125.1,,,,,,170,180,-190,180,,,,,,,180,140,B,Raw,No,Open,50,1970-04-17
1,M,Andrey Evstifeev,Андрей Евстифеев,125.1,,,,,,170,180,-190,180,,,,,,,180,140,B,Raw,No,Masters 50-54,50,1970-04-17
1,F,Natalya Polyakova,Наталья Полякова,48.7,,,,,,,,,,,115,125,135,135,,135,52,D,Raw,Yes,Open,38,1982-07-18
1,M,Nikita Malykh,Никита Малых,49.9,,,,,,,,,,,100,110,120,120,,120,52,D,Raw,Yes,Teen 13-15,15,2005-08-17
2,M,Nikita Krasavtsev,Никита Красавцев,47.2,,,,,,,,,,,97.5,107.5,-117.5,107.5,,107.5,52,D,Raw,Yes,Teen 13-15,14,2006-06-27
1,M,Kirill Duryagin,Кирилл Дурягин,60,,,,,,,,,,,97.5,107.5,115,115,,115,60,D,Raw,Yes,Teen 13-15,15,2005-08-13
1,M,Oleg Dvoynikov,Олег Двойников,59.5,,,,,,,,,,,145,150,155,155,,155,60,D,Raw,Yes,Masters 60-64,60,1960-10-08
1,M,Nikita Durapov,Никита Дурапов,65.5,,,,,,,,,,,135,155,-175,155,,155,67.5,D,Raw,Yes,Teen 16-17,17,2003-07-29
1,M,Ilya Konev,Илья Конев,75,,,,,,,,,,,155,160,-170,160,,160,75,D,Raw,Yes,Teen 18-19,18,2002-08-15
1,M,Vitaliy Romanov,Виталий Романов,78.8,,,,,,,,,,,-150,160,167.5,167.5,,167.5,82.5,D,Raw,Yes,Teen 16-17,16,2003-10-22
1,M,Kirill Fadin,Кирилл Фадин,109.9,,,,,,,,,,,-200,200,215,215,,215,110,D,Raw,Yes,Teen 18-19,19,2001-08-09
1,M,Aleksey Malyshev,Алексей Малышев,56.5,,,,,,,,,,,160,180,-190,180,,180,60,D,Raw,No,Teen 16-17,16,2004-06-30
1,M,Dmitriy Cherepanov,Дмитрий Черепанов,66.2,,,,,,,,,,,105,112.5,-120,112.5,,112.5,67.5,D,Raw,No,Teen 13-15,15,2005-06-02
1,M,Ivan Podzharov,Иван Поджаров,74.1,,,,,,,,,,,-95,100,110,110,,110,75,D,Raw,No,Teen 16-17,17,2003-08-05
2,M,Mikhail Klyukin,Михаил Клюкин,74.6,,,,,,,,,,,70,80,-90,80,,80,75,D,Raw,No,Teen 13-15,14,2006-09-25
1,M,Aleksandr Lopatin,Александр Лопатин,76.1,,,,,,,,,,,170,185,-200,185,,185,82.5,D,Raw,No,Juniors 20-23,23,1997-05-16
1,M,Andrey Stepichev,Андрей Степичев,81,,,,,,,,,,,160,175,185,185,,185,82.5,D,Raw,No,Open,32,1988-08-14
1,M,Dmitriy Pavlov,Дмитрий Павлов,100,,,,,,,,,,,312.5,-330,330,330,,330,100,D,Raw,No,Open,24,1996-06-11
2,M,Sergey Moiseev,Сергей Моисеев,96.8,,,,,,,,,,,-260,-270,270,270,,270,100,D,Raw,No,Open,43,1977-08-24
1,M,Sergey Moiseev,Сергей Моисеев,96.8,,,,,,,,,,,-260,-270,270,270,,270,100,D,Raw,No,Masters 40-44,43,1977-08-24
1,M,Artyom Tropnikov,Артём Тропников,109,,,,,,,,,,,300,320,-340,320,,320,110,D,Raw,No,Open,28,1992-03-01
1,M,Sergey Zelentsov,Сергей Зеленцов,104,,,,,,,,,,,275,290,-305,290,,290,110,D,Raw,No,Masters 50-54,50,1970-05-16
1,M,Vladislav Golikov,Владислав Голиков,121.8,,,,,,,,,,,170,200,-210,200,,200,125,D,Raw,No,Teen 16-17,16,2004-03-02
1,M,Sergey Nikitchuk,Сергей Никитчук,114.6,,,,,,,,,,,290,300,310,310,,310,125,D,Raw,No,Open,40,1979-11-18
2,M,Aleksandr Potapov,Александр Потапов,111,,,,,,,,,,,270,282.5,-290,282.5,,282.5,125,D,Raw,No,Open,37,1983-03-08
3,M,Pavel Gundorov,Павел Гундоров,122.1,,,,,,,,,,,240,-262.5,-262.5,240,,240,125,D,Raw,No,Open,43,1977-08-02
